[12:01:23] :: 
Error Message: Error when trying to populate the datasource. The following exception was thrown: 
The SelectCommand property has not been initialized before calling 'Fill'.
Stack Trace:    at DevExpress.XtraReports.UI.XtraReportBase.FillDataSource()
   at DevExpress.XtraReports.UI.XtraReport.FillDataSources()
   at DevExpress.XtraReports.UI.XtraReport.OnBeforePrint(PrintEventArgs e)
   at DevExpress.XtraReports.UI.XtraReport.CreateDocumentCore(Single progressRange, Boolean buildPagesInBackground)
   at DevExpress.XtraReports.UI.XtraReport.CreateDocument(Single progressRange, Boolean buildPagesInBackground)
   at DevExpress.XtraReports.UI.XtraReport.ExportToPdf(Stream stream, PdfExportOptions options)
   at DevExpress.XtraReports.UI.XtraReport.ExportToPdf(Stream stream)
   at result_add2.ListReport(String sReqID) in d:\Project\TMS\ASP.NET\result-add2.aspx.cs:line 2414
   at result_add2.btnPrintT2_Click(Object sender, EventArgs e) in d:\Project\TMS\ASP.NET\result-add2.aspx.cs:line 1894
   at DevExpress.Web.ASPxEditors.ASPxButton.OnClick(EventArgs e)
   at DevExpress.Web.ASPxEditors.ASPxButton.RaisePostBackEvent(String eventArgument)
   at DevExpress.Web.ASPxClasses.ASPxWebControl.System.Web.UI.IPostBackEventHandler.RaisePostBackEvent(String eventArgument)
   at System.Web.UI.Page.RaisePostBackEvent(IPostBackEventHandler sourceControl, String eventArgument)
   at System.Web.UI.Page.RaisePostBackEvent(NameValueCollection postData)
   at System.Web.UI.Page.ProcessRequestMain(Boolean includeStagesBeforeAsyncPoint, Boolean includeStagesAfterAsyncPoint)
 
**********************************************************************************************************************************************************************************************************************************************************************************************************************************************************************************************************************************************************************************************************************************************************************************************************************************************************************************************************************************************************************************************************************************************************************************************************************************************************************************************************************************************************************************************************************************************************************************************************************************************************************************************************************************************************************************************************************************************************************************************************************************************************************************************************************************************************************

[15:49:38] :: 
Error Message: There is no row at position 21.
Stack Trace:    at System.Data.RBTree`1.GetNodeByIndex(Int32 userIndex)
   at System.Data.DataRowCollection.get_Item(Int32 index)
   at result_add5.SendMailToUser(String sREQID) in d:\Project\TMS\ASP.NET\result-add5.aspx.cs:line 540
   at result_add5.Page_Load(Object sender, EventArgs e) in d:\Project\TMS\ASP.NET\result-add5.aspx.cs:line 46
   at System.Web.Util.CalliEventHandlerDelegateProxy.Callback(Object sender, EventArgs e)
   at System.Web.UI.Control.OnLoad(EventArgs e)
   at System.Web.UI.Control.LoadRecursive()
   at System.Web.UI.Page.ProcessRequestMain(Boolean includeStagesBeforeAsyncPoint, Boolean includeStagesAfterAsyncPoint)
 
***********************************************************************************************************************************************************************************************************************************************************************************************************************************************************************************************************************************************************************************************************************************************************************************************************************************************************************************************************************************************

[15:50:02] :: 
Error Message: There is no row at position 0.
Stack Trace:    at System.Data.RBTree`1.GetNodeByIndex(Int32 userIndex)
   at System.Data.DataRowCollection.get_Item(Int32 index)
   at SystemFunction.GenCARNUM(String STRUCK_ID) in d:\Project\TMS\ASP.NET\App_Code\SystemFunction.cs:line 1209
   at result_add5.SendMailToUser(String sREQID) in d:\Project\TMS\ASP.NET\result-add5.aspx.cs:line 548
   at result_add5.Page_Load(Object sender, EventArgs e) in d:\Project\TMS\ASP.NET\result-add5.aspx.cs:line 46
   at System.Web.Util.CalliEventHandlerDelegateProxy.Callback(Object sender, EventArgs e)
   at System.Web.UI.Control.OnLoad(EventArgs e)
   at System.Web.UI.Control.LoadRecursive()
   at System.Web.UI.Page.ProcessRequestMain(Boolean includeStagesBeforeAsyncPoint, Boolean includeStagesAfterAsyncPoint)
 
***************************************************************************************************************************************************************************************************************************************************************************************************************************************************************************************************************************************************************************************************************************************************************************************************************************************************************************************************************************************************************************************************************************************************************

[17:46:00] :: 
Error Message: There is no row at position 0.
Stack Trace:    at System.Data.RBTree`1.GetNodeByIndex(Int32 userIndex)
   at System.Data.DataRowCollection.get_Item(Int32 index)
   at SystemFunction.GenCARNUM(String STRUCK_ID) in d:\Project\TMS\ASP.NET\App_Code\SystemFunction.cs:line 1209
   at result_add5.SendMailToUser(String sREQID) in d:\Project\TMS\ASP.NET\result-add5.aspx.cs:line 548
   at result_add5.Page_Load(Object sender, EventArgs e) in d:\Project\TMS\ASP.NET\result-add5.aspx.cs:line 46
   at System.Web.Util.CalliEventHandlerDelegateProxy.Callback(Object sender, EventArgs e)
   at System.Web.UI.Control.OnLoad(EventArgs e)
   at System.Web.UI.Control.LoadRecursive()
   at System.Web.UI.Page.ProcessRequestMain(Boolean includeStagesBeforeAsyncPoint, Boolean includeStagesAfterAsyncPoint)
 
***************************************************************************************************************************************************************************************************************************************************************************************************************************************************************************************************************************************************************************************************************************************************************************************************************************************************************************************************************************************************************************************************************************************************************

[17:46:46] :: 
Error Message: Column 'CHECKWATER_NVERSION' does not belong to table .
Stack Trace:    at System.Data.DataRow.GetDataColumn(String columnName)
   at System.Data.DataRow.get_Item(String columnName)
   at result_add3.SetDataToPage() in d:\Project\TMS\ASP.NET\result-add3.aspx.cs:line 132
   at result_add3.ListDataToPage(String sREQID) in d:\Project\TMS\ASP.NET\result-add3.aspx.cs:line 104
   at result_add3.Page_Load(Object sender, EventArgs e) in d:\Project\TMS\ASP.NET\result-add3.aspx.cs:line 71
   at System.Web.Util.CalliEventHandlerDelegateProxy.Callback(Object sender, EventArgs e)
   at System.Web.UI.Control.OnLoad(EventArgs e)
   at System.Web.UI.Control.LoadRecursive()
   at System.Web.UI.Page.ProcessRequestMain(Boolean includeStagesBeforeAsyncPoint, Boolean includeStagesAfterAsyncPoint)
 
*************************************************************************************************************************************************************************************************************************************************************************************************************************************************************************************************************************************************************************************************************************************************************************************************************************************************************************************************************************************************************************************************************************************************************

[17:47:33] :: 
Error Message: Column 'CHECKWATER_NVERSION' does not belong to table .
Stack Trace:    at System.Data.DataRow.GetDataColumn(String columnName)
   at System.Data.DataRow.get_Item(String columnName)
   at result_add3.SetDataToPage() in d:\Project\TMS\ASP.NET\result-add3.aspx.cs:line 132
   at result_add3.ListDataToPage(String sREQID) in d:\Project\TMS\ASP.NET\result-add3.aspx.cs:line 104
   at result_add3.Page_Load(Object sender, EventArgs e) in d:\Project\TMS\ASP.NET\result-add3.aspx.cs:line 71
   at System.Web.Util.CalliEventHandlerDelegateProxy.Callback(Object sender, EventArgs e)
   at System.Web.UI.Control.OnLoad(EventArgs e)
   at System.Web.UI.Control.LoadRecursive()
   at System.Web.UI.Page.ProcessRequestMain(Boolean includeStagesBeforeAsyncPoint, Boolean includeStagesAfterAsyncPoint)
 
*************************************************************************************************************************************************************************************************************************************************************************************************************************************************************************************************************************************************************************************************************************************************************************************************************************************************************************************************************************************************************************************************************************************************************

