[07:11:16] :: 
Error Message: Retrieving the COM class factory for component with CLSID {00024500-0000-0000-C000-000000000046} failed due to the following error: 80040154 Class not registered (Exception from HRESULT: 0x80040154 (REGDB_E_CLASSNOTREG)).
Stack Trace:    at ReportDemandPerformance.btnSubmit_Click(Object sender, EventArgs e) in g:\PTT ICT\PTT-TMS\Develop\CODE\ASP.NET\ReportDemandPerformance.aspx.cs:line 71
   at DevExpress.Web.ASPxEditors.ASPxButton.OnClick(EventArgs e)
   at DevExpress.Web.ASPxEditors.ASPxButton.RaisePostBackEvent(String eventArgument)
   at DevExpress.Web.ASPxClasses.ASPxWebControl.System.Web.UI.IPostBackEventHandler.RaisePostBackEvent(String eventArgument)
   at System.Web.UI.Page.RaisePostBackEvent(IPostBackEventHandler sourceControl, String eventArgument)
   at System.Web.UI.Page.RaisePostBackEvent(NameValueCollection postData)
   at System.Web.UI.Page.ProcessRequestMain(Boolean includeStagesBeforeAsyncPoint, Boolean includeStagesAfterAsyncPoint)
 
*********************************************************************************************************************************************************************************************************************************************************************************************************************************************************************************************************************************************************************************************************************************************************************************************************************************************************************************************************************************************************************************************************************************************************************************************************************************************************************************************************************************************

[07:23:11] :: 
Error Message: Retrieving the COM class factory for component with CLSID {00024500-0000-0000-C000-000000000046} failed due to the following error: 80040154 Class not registered (Exception from HRESULT: 0x80040154 (REGDB_E_CLASSNOTREG)).
Stack Trace:    at ReportDemandPerformance.btnSubmit_Click(Object sender, EventArgs e) in g:\PTT ICT\PTT-TMS\Develop\CODE\ASP.NET\ReportDemandPerformance.aspx.cs:line 71
   at DevExpress.Web.ASPxEditors.ASPxButton.OnClick(EventArgs e)
   at DevExpress.Web.ASPxEditors.ASPxButton.RaisePostBackEvent(String eventArgument)
   at DevExpress.Web.ASPxClasses.ASPxWebControl.System.Web.UI.IPostBackEventHandler.RaisePostBackEvent(String eventArgument)
   at System.Web.UI.Page.RaisePostBackEvent(IPostBackEventHandler sourceControl, String eventArgument)
   at System.Web.UI.Page.RaisePostBackEvent(NameValueCollection postData)
   at System.Web.UI.Page.ProcessRequestMain(Boolean includeStagesBeforeAsyncPoint, Boolean includeStagesAfterAsyncPoint)
 
*********************************************************************************************************************************************************************************************************************************************************************************************************************************************************************************************************************************************************************************************************************************************************************************************************************************************************************************************************************************************************************************************************************************************************************************************************************************************************************************************************************************************

[07:41:21] :: 
Error Message: Retrieving the COM class factory for component with CLSID {00024500-0000-0000-C000-000000000046} failed due to the following error: 80040154 Class not registered (Exception from HRESULT: 0x80040154 (REGDB_E_CLASSNOTREG)).
Stack Trace:    at ReportDemandPerformance.btnSubmit_Click(Object sender, EventArgs e) in g:\PTT ICT\PTT-TMS\Develop\CODE\ASP.NET\ReportDemandPerformance.aspx.cs:line 71
   at DevExpress.Web.ASPxEditors.ASPxButton.OnClick(EventArgs e)
   at DevExpress.Web.ASPxEditors.ASPxButton.RaisePostBackEvent(String eventArgument)
   at DevExpress.Web.ASPxClasses.ASPxWebControl.System.Web.UI.IPostBackEventHandler.RaisePostBackEvent(String eventArgument)
   at System.Web.UI.Page.RaisePostBackEvent(IPostBackEventHandler sourceControl, String eventArgument)
   at System.Web.UI.Page.RaisePostBackEvent(NameValueCollection postData)
   at System.Web.UI.Page.ProcessRequestMain(Boolean includeStagesBeforeAsyncPoint, Boolean includeStagesAfterAsyncPoint)
 
*********************************************************************************************************************************************************************************************************************************************************************************************************************************************************************************************************************************************************************************************************************************************************************************************************************************************************************************************************************************************************************************************************************************************************************************************************************************************************************************************************************************************

[10:27:34] :: 
Error Message: Retrieving the COM class factory for component with CLSID {00024500-0000-0000-C000-000000000046} failed due to the following error: 80040154 Class not registered (Exception from HRESULT: 0x80040154 (REGDB_E_CLASSNOTREG)).
Stack Trace:    at ReportDemandPerformance.btnSubmit_Click(Object sender, EventArgs e) in g:\PTT ICT\PTT-TMS\Develop\CODE\ASP.NET\ReportDemandPerformance.aspx.cs:line 71
   at DevExpress.Web.ASPxEditors.ASPxButton.OnClick(EventArgs e)
   at DevExpress.Web.ASPxEditors.ASPxButton.RaisePostBackEvent(String eventArgument)
   at DevExpress.Web.ASPxClasses.ASPxWebControl.System.Web.UI.IPostBackEventHandler.RaisePostBackEvent(String eventArgument)
   at System.Web.UI.Page.RaisePostBackEvent(IPostBackEventHandler sourceControl, String eventArgument)
   at System.Web.UI.Page.RaisePostBackEvent(NameValueCollection postData)
   at System.Web.UI.Page.ProcessRequestMain(Boolean includeStagesBeforeAsyncPoint, Boolean includeStagesAfterAsyncPoint)
 
*********************************************************************************************************************************************************************************************************************************************************************************************************************************************************************************************************************************************************************************************************************************************************************************************************************************************************************************************************************************************************************************************************************************************************************************************************************************************************************************************************************************************

[10:55:48] :: 
Error Message: Retrieving the COM class factory for component with CLSID {00024500-0000-0000-C000-000000000046} failed due to the following error: 80040154 Class not registered (Exception from HRESULT: 0x80040154 (REGDB_E_CLASSNOTREG)).
Stack Trace:    at ReportDemandPerformance.btnSubmit_Click(Object sender, EventArgs e) in g:\PTT ICT\PTT-TMS\Develop\CODE\ASP.NET\ReportDemandPerformance.aspx.cs:line 71
   at DevExpress.Web.ASPxEditors.ASPxButton.OnClick(EventArgs e)
   at DevExpress.Web.ASPxEditors.ASPxButton.RaisePostBackEvent(String eventArgument)
   at DevExpress.Web.ASPxClasses.ASPxWebControl.System.Web.UI.IPostBackEventHandler.RaisePostBackEvent(String eventArgument)
   at System.Web.UI.Page.RaisePostBackEvent(IPostBackEventHandler sourceControl, String eventArgument)
   at System.Web.UI.Page.RaisePostBackEvent(NameValueCollection postData)
   at System.Web.UI.Page.ProcessRequestMain(Boolean includeStagesBeforeAsyncPoint, Boolean includeStagesAfterAsyncPoint)
 
*********************************************************************************************************************************************************************************************************************************************************************************************************************************************************************************************************************************************************************************************************************************************************************************************************************************************************************************************************************************************************************************************************************************************************************************************************************************************************************************************************************************************

