[13:51:00] :: 
Error Message: There is no row at position 0.
Stack Trace:    at System.Data.RBTree`1.GetNodeByIndex(Int32 userIndex)
   at System.Data.DataRowCollection.get_Item(Int32 index)
   at truck_edit.bindDataForm(String TTRUCKID, DataTable TableDataHeader, DataTable TableDataInsurance, DataTable TableDataCompart) in c:\Work\PTT\TMS\SourceCode\WEB_TMS\TMS_DEV\WEB_TMS\truck_edit.aspx.cs:line 307
   at truck_edit.Page_Load(Object sender, EventArgs e) in c:\Work\PTT\TMS\SourceCode\WEB_TMS\TMS_DEV\WEB_TMS\truck_edit.aspx.cs:line 267
   at System.Web.Util.CalliEventHandlerDelegateProxy.Callback(Object sender, EventArgs e)
   at System.Web.UI.Control.OnLoad(EventArgs e)
   at System.Web.UI.Control.LoadRecursive()
   at System.Web.UI.Page.ProcessRequestMain(Boolean includeStagesBeforeAsyncPoint, Boolean includeStagesAfterAsyncPoint)
 
****************************************************************************************************************************************************************************************************************************************************************************************************************************************************************************************************************************************************************************************************************************************************************************************************************************************************************************************************************************************************************************************************************************************************************************************

[13:51:11] :: 
Error Message: There is no row at position 0.
Stack Trace:    at System.Data.RBTree`1.GetNodeByIndex(Int32 userIndex)
   at System.Data.DataRowCollection.get_Item(Int32 index)
   at truck_edit.bindDataForm(String TTRUCKID, DataTable TableDataHeader, DataTable TableDataInsurance, DataTable TableDataCompart) in c:\Work\PTT\TMS\SourceCode\WEB_TMS\TMS_DEV\WEB_TMS\truck_edit.aspx.cs:line 307
   at truck_edit.Page_Load(Object sender, EventArgs e) in c:\Work\PTT\TMS\SourceCode\WEB_TMS\TMS_DEV\WEB_TMS\truck_edit.aspx.cs:line 267
   at System.Web.Util.CalliEventHandlerDelegateProxy.Callback(Object sender, EventArgs e)
   at System.Web.UI.Control.OnLoad(EventArgs e)
   at System.Web.UI.Control.LoadRecursive()
   at System.Web.UI.Page.ProcessRequestMain(Boolean includeStagesBeforeAsyncPoint, Boolean includeStagesAfterAsyncPoint)
 
****************************************************************************************************************************************************************************************************************************************************************************************************************************************************************************************************************************************************************************************************************************************************************************************************************************************************************************************************************************************************************************************************************************************************************************************

[15:39:55] :: 
Error Message: Both DataSource and DataSourceID are defined on 'gvw'.  Remove one definition.
Stack Trace:    at DevExpress.Web.ASPxClasses.Internal.DataHelperCore.GetView()
   at DevExpress.Web.ASPxClasses.Internal.DataHelper.GetData()
   at DevExpress.Web.ASPxClasses.Internal.DataHelper.PerformSelect()
   at DevExpress.Web.ASPxGridView.GridViewDataHelper.PerformSelect()
   at DevExpress.Web.ASPxClasses.Internal.DataContainer.PerformSelect()
   at DevExpress.Web.ASPxClasses.ASPxDataWebControlBase.DataBindCore()
   at DevExpress.Web.ASPxClasses.ASPxDataWebControlBase.DataBindInternal()
   at DevExpress.Web.ASPxClasses.ASPxWebControl.DataBind()
   at DevExpress.Web.ASPxGridView.ASPxGridView.DataBind()
   at DevExpress.Web.ASPxClasses.Internal.DataHelperBase.EnsureDataBound(Boolean ensureChildControls)
   at DevExpress.Web.ASPxClasses.Internal.DataHelperBase.EnsureDataBound()
   at DevExpress.Web.ASPxClasses.Internal.DataContainer.EnsureDataBound()
   at DevExpress.Web.ASPxClasses.ASPxDataWebControlBase.OnPreRender(EventArgs e)
   at System.Web.UI.Control.PreRenderRecursiveInternal()
   at System.Web.UI.Control.PreRenderRecursiveInternal()
   at System.Web.UI.Control.PreRenderRecursiveInternal()
   at System.Web.UI.Control.PreRenderRecursiveInternal()
   at System.Web.UI.Control.PreRenderRecursiveInternal()
   at System.Web.UI.Control.PreRenderRecursiveInternal()
   at System.Web.UI.Control.PreRenderRecursiveInternal()
   at System.Web.UI.Control.PreRenderRecursiveInternal()
   at System.Web.UI.Control.PreRenderRecursiveInternal()
   at System.Web.UI.Page.ProcessRequestMain(Boolean includeStagesBeforeAsyncPoint, Boolean includeStagesAfterAsyncPoint)
 
*************************************************************************************************************************************************************************************************************************************************************************************************************************************************************************************************************************************************************************************************************************************************************************************************************************************************************************************************************************************************************************************************************************************************************************************************************************************************************************************************************************************************************************************************************************************************************************************************************************************************************************************************************************************************************************************************************************************************************************************************************************************************************************************************************************************************************************************************************************************************************************************

[15:43:30] :: 
Error Message: Both DataSource and DataSourceID are defined on 'gvw'.  Remove one definition.
Stack Trace:    at DevExpress.Web.ASPxClasses.Internal.DataHelperCore.GetView()
   at DevExpress.Web.ASPxClasses.Internal.DataHelper.ConnectToData()
   at DevExpress.Web.ASPxClasses.Internal.DataHelperBase.Load()
   at DevExpress.Web.ASPxClasses.Internal.DataContainer.Load()
   at DevExpress.Web.ASPxClasses.ASPxDataWebControlBase.OnLoad(EventArgs e)
   at DevExpress.Web.ASPxGridView.ASPxGridView.OnLoad(EventArgs e)
   at System.Web.UI.Control.LoadRecursive()
   at System.Web.UI.Control.LoadRecursive()
   at System.Web.UI.Control.LoadRecursive()
   at System.Web.UI.Control.LoadRecursive()
   at System.Web.UI.Control.LoadRecursive()
   at System.Web.UI.Control.LoadRecursive()
   at System.Web.UI.Control.LoadRecursive()
   at System.Web.UI.Control.LoadRecursive()
   at System.Web.UI.Control.LoadRecursive()
   at System.Web.UI.Page.ProcessRequestMain(Boolean includeStagesBeforeAsyncPoint, Boolean includeStagesAfterAsyncPoint)
 
********************************************************************************************************************************************************************************************************************************************************************************************************************************************************************************************************************************************************************************************************************************************************************************************************************************************************************************************************************************************************************************************************************************************************************************************************************************************************************************************************************************************************************************************************

[15:43:30] :: 
Error Message: Both DataSource and DataSourceID are defined on 'gvw'.  Remove one definition.
Stack Trace:    at DevExpress.Web.ASPxClasses.Internal.DataHelperCore.GetView()
   at DevExpress.Web.ASPxClasses.Internal.DataHelper.ConnectToData()
   at DevExpress.Web.ASPxClasses.Internal.DataHelperBase.Load()
   at DevExpress.Web.ASPxClasses.Internal.DataContainer.Load()
   at DevExpress.Web.ASPxClasses.ASPxDataWebControlBase.OnLoad(EventArgs e)
   at DevExpress.Web.ASPxGridView.ASPxGridView.OnLoad(EventArgs e)
   at System.Web.UI.Control.LoadRecursive()
   at System.Web.UI.Control.LoadRecursive()
   at System.Web.UI.Control.LoadRecursive()
   at System.Web.UI.Control.LoadRecursive()
   at System.Web.UI.Control.LoadRecursive()
   at System.Web.UI.Control.LoadRecursive()
   at System.Web.UI.Control.LoadRecursive()
   at System.Web.UI.Control.LoadRecursive()
   at System.Web.UI.Control.LoadRecursive()
   at System.Web.UI.Page.ProcessRequestMain(Boolean includeStagesBeforeAsyncPoint, Boolean includeStagesAfterAsyncPoint)
 
********************************************************************************************************************************************************************************************************************************************************************************************************************************************************************************************************************************************************************************************************************************************************************************************************************************************************************************************************************************************************************************************************************************************************************************************************************************************************************************************************************************************************************************************************

[15:50:39] :: 
Error Message: A field or property with name 'DCHECK' was not found in the selected data source. Possible causes of this error may be the following: an incorrect or case-insensitive spelling of the grid column name; assigning a wrong or not properly initialized data source to the grid.
Stack Trace:    at DevExpress.Web.Data.WebDataControllerProvider.GetRowValueByControllerRow(Int32 controllerRow, String fieldName, Boolean isDesignTime)
   at DevExpress.Web.Data.WebDataControllerProvider.GetRowValue(Int32 visibleIndex, String fieldName, Boolean isDesignTime)
   at DevExpress.Web.Data.WebDataProxy.GetRowValue(Int32 visibleIndex, String fieldName)
   at DevExpress.Web.ASPxGridView.Rendering.ASPxGridViewTextBuilder.GetDisplayControlArgs(GridViewDataColumn column, Int32 visibleIndex, IValueProvider provider, ASPxGridView grid)
   at DevExpress.Web.ASPxGridView.Rendering.ASPxGridViewRenderHelper.CreateDataCellDisplayControl(GridViewDataColumn column, Int32 visibleIndex, IValueProvider row)
   at DevExpress.Web.ASPxGridView.Rendering.ASPxGridViewRenderHelper.AddDisplayControlToDataCell(Control cell, GridViewDataColumn column, Int32 visibleIndex, IValueProvider row)
   at DevExpress.Web.ASPxGridView.Rendering.GridViewTableDataCell.CreateControlHierarchy()
   at DevExpress.Web.ASPxClasses.Internal.InternalTableCell.CreateChildControls()
   at System.Web.UI.Control.EnsureChildControls()
   at DevExpress.Web.ASPxClasses.Internal.InternalTableCell.DevExpress.Web.ASPxClasses.Internal.IASPxWebControl.EnsureChildControls()
   at DevExpress.Web.ASPxClasses.Internal.RenderUtils.EnsureChildControlsRecursive(Control control, Boolean skipContentContainers)
   at DevExpress.Web.ASPxClasses.Internal.RenderUtils.EnsureChildControlsRecursive(Control control, Boolean skipContentContainers)
   at DevExpress.Web.ASPxClasses.Internal.RenderUtils.EnsureChildControlsRecursive(Control control, Boolean skipContentContainers)
   at DevExpress.Web.ASPxClasses.Internal.RenderUtils.EnsureChildControlsRecursive(Control control, Boolean skipContentContainers)
   at DevExpress.Web.ASPxClasses.ASPxWebControlBase.EnsureChildControlsRecursive(Control control, Boolean skipContentContainers)
   at DevExpress.Web.ASPxClasses.ASPxWebControlBase.EnsureChildControlsRecursive(Control control)
   at DevExpress.Web.ASPxClasses.ASPxWebControlBase.CreateChildControls()
   at System.Web.UI.Control.EnsureChildControls()
   at DevExpress.Web.ASPxClasses.ASPxWebControlBase.EnsureChildControls()
   at DevExpress.Web.ASPxClasses.ASPxWebControlBase.DevExpress.Web.ASPxClasses.Internal.IASPxWebControl.EnsureChildControls()
   at DevExpress.Web.ASPxClasses.Internal.RenderUtils.EnsureChildControlsRecursive(Control control, Boolean skipContentContainers)
   at DevExpress.Web.ASPxClasses.Internal.RenderUtils.EnsureChildControlsRecursive(Control control, Boolean skipContentContainers)
   at DevExpress.Web.ASPxClasses.Internal.RenderUtils.EnsureChildControlsRecursive(Control control, Boolean skipContentContainers)
   at DevExpress.Web.ASPxClasses.Internal.RenderUtils.EnsureChildControlsRecursive(Control control, Boolean skipContentContainers)
   at DevExpress.Web.ASPxClasses.Internal.RenderUtils.EnsureChildControlsRecursive(Control control, Boolean skipContentContainers)
   at DevExpress.Web.ASPxClasses.ASPxWebControlBase.EnsureChildControlsRecursive(Control control, Boolean skipContentContainers)
   at DevExpress.Web.ASPxClasses.ASPxWebControlBase.EnsureChildControlsRecursive(Control control)
   at DevExpress.Web.ASPxClasses.ASPxWebControlBase.CreateChildControls()
   at DevExpress.Web.ASPxClasses.ASPxWebControl.CreateChildControls()
   at System.Web.UI.Control.EnsureChildControls()
   at DevExpress.Web.ASPxClasses.ASPxWebControlBase.EnsureChildControls()
   at DevExpress.Web.ASPxClasses.ASPxWebControlBase.get_Controls()
   at DevExpress.Web.ASPxEditors.ASPxEdit.ProcessEditorsInContainer(Control container, EditorsProcessingProc processingProc, EditorsChoiceCondition choiceCondition, String validationGroup, Boolean processInvisibleEditors, Boolean processDisabledEditors, EditorProcessingContext context)
   at DevExpress.Web.ASPxEditors.ASPxEdit.ProcessEditorsInContainer(Control container, EditorsProcessingProc processingProc, EditorsChoiceCondition choiceCondition, String validationGroup, Boolean processInvisibleEditors, Boolean processDisabledEditors, EditorProcessingContext context)
   at DevExpress.Web.ASPxEditors.ASPxEdit.ProcessEditorsInContainer(Control container, EditorsProcessingProc processingProc, EditorsChoiceCondition choiceCondition, String validationGroup, Boolean processInvisibleEditors, Boolean processDisabledEditors, EditorProcessingContext context)
   at DevExpress.Web.ASPxEditors.ASPxEdit.ProcessEditorsInContainer(Control container, EditorsProcessingProc processingProc, EditorsChoiceCondition choiceCondition, String validationGroup, Boolean processInvisibleEditors, Boolean processDisabledEditors, EditorProcessingContext context)
   at DevExpress.Web.ASPxEditors.ASPxEdit.ProcessEditorsInContainer(Control container, EditorsProcessingProc processingProc, EditorsChoiceCondition choiceCondition, String validationGroup, Boolean processInvisibleEditors, Boolean processDisabledEditors, EditorProcessingContext context)
   at DevExpress.Web.ASPxEditors.ASPxEdit.ProcessEditorsInContainer(Control container, EditorsProcessingProc processingProc, EditorsChoiceCondition choiceCondition, String validationGroup, Boolean processInvisibleEditors, Boolean processDisabledEditors, EditorProcessingContext context)
   at DevExpress.Web.ASPxEditors.ASPxEdit.ProcessEditorsInContainer(Control container, EditorsProcessingProc processingProc, EditorsChoiceCondition choiceCondition, String validationGroup, Boolean processInvisibleEditors, Boolean processDisabledEditors, EditorProcessingContext context)
   at DevExpress.Web.ASPxEditors.ASPxEdit.ProcessEditorsInContainer(Control container, EditorsProcessingProc processingProc, EditorsChoiceCondition choiceCondition, String validationGroup, Boolean processInvisibleEditors, Boolean processDisabledEditors, EditorProcessingContext context)
   at DevExpress.Web.ASPxEditors.ASPxEdit.ProcessEditorsInContainer(Control container, EditorsProcessingProc processingProc, EditorsChoiceCondition choiceCondition, String validationGroup, Boolean processInvisibleEditors, Boolean processDisabledEditors, EditorProcessingContext context)
   at DevExpress.Web.ASPxEditors.ASPxEdit.ValidateEditorsInContainer(Control container, String validationGroup, Boolean validateInvisibleEditors)
   at DevExpress.Web.ASPxEditors.ASPxButton.RaisePostBackEvent(String eventArgument)
   at DevExpress.Web.ASPxClasses.ASPxWebControl.System.Web.UI.IPostBackEventHandler.RaisePostBackEvent(String eventArgument)
   at System.Web.UI.Page.RaisePostBackEvent(IPostBackEventHandler sourceControl, String eventArgument)
   at System.Web.UI.Page.RaisePostBackEvent(NameValueCollection postData)
   at System.Web.UI.Page.ProcessRequestMain(Boolean includeStagesBeforeAsyncPoint, Boolean includeStagesAfterAsyncPoint)
 
************************************************************************************************************************************************************************************************************************************************************************************************************************************************************************************************************************************************************************************************************************************************************************************************************************************************************************************************************************************************************************************************************************************************************************************************************************************************************************************************************************************************************************************************************************************************************************************************************************************************************************************************************************************************************************************************************************************************************************************************************************************************************************************************************************************************************************************************************************************************************************************************************************************************************************************************************************************************************************************************************************************************************************************************************************************************************************************************************************************************************************************************************************************************************************************************************************************************************************************************************************************************************************************************************************************************************************************************************************************************************************************************************************************************************************************************************************************************************************************************************************************************************************************************************************************************************************************************************************************************************************************************************************************************************************************************************************************************************************************************************************************************************************************************************************************************************************************************************************************************************************************************************************************************************************************************************************************************************************************************************************************************************************************************************************************************************************************************************************************************************************************************************************************************************************************************************************************************************************************************************************************************************************************************************************************************************************************************************************************************************************************************************************************************************************************************************************************************************************************************************************************************************************************************************************************************************************************************************************************************************************************************************************************************************************************************************************************************************************************************************************************************************************************************************************************************************************************************************************************************************************************************************************************************************************************************************************************************************************************************************************************************************************************************************************************************************************************************************************************************************************************************************************************************************************************************************************************************************************************************************************************************************************************************************************************************************************************************************************************************************************************************************************************************************************************************************************************************************************************************************************************************************************************************************************************************************************************************************************************************************************************************************************************************************************************************************************

[16:05:07] :: 
Error Message: Invalid viewstate. 
	Client IP: 10.237.72.28
	Port: 2854
	Referer: http://ping-nb/TMS_DEV/admin_Complain_lst.aspx
	Path: /TMS_DEV/admin_Complain_lst.aspx
	User-Agent: Mozilla/5.0 (Windows NT 10.0; WOW64) AppleWebKit/537.36 (KHTML, like Gecko) Chrome/47.0.2526.80 Safari/537.36
	ViewState: F96RM+3y6UOVnQdPa2JvEWMnezZUr2m9vFCX4t9GqwdwXw8ZbtmJ0GMv1tcyj3FvCQPLT0mIU0ds0B0RpqNP3RVBjABlb78XVWfbMh234351bmk6SIRYW+v0ePssyd9CabINXc0ti7xjaE/GTcEWhiu4M2I1jTjdm0ZbTXg3Bwp8HaXccdZi8OZt0/AAoGGeTmbpQ3Rxkfr3zjpUUdNB095T/dsgNAl0HzszMfMkC4WEYRUY6TwLYuS+19BzqsXHFIJfd9kLV0sfTdjMaeJh2njKRfd/7A0+/248bxyDLBB3swVr0fSvbLmG6afdBy15I5yY+GtuzzC+m4RVq4wQZPAjs0d9OYpda1OAGwSv79X8vZKj66PHdXFYpmi4f3DWdqZaG0bRpamhRt3VksNK57U//iBcREma4A7XdDCqYdLhsTRhEcXKjNPAZ5B7ZdoCfvjB3FG34pBLLXcCqJCJuY/N9AD+/4xQJ7qVH6FRjfGh1+AYQW7khGM048l128zJiH0KG6dtxd1kqbAGbETiIsCqx9IfgP0jEpL52gfqlNglfUFyLp8L+QyczbYiCZ5nxit8GRQRdyy9UfCHr82j9Tpmr62KGzjWDxUpURX9mLGq0Rn9nbwxwA2EkQCGku3NvApxTaQwpVQzY8tLaVDqUzDhYikm3qi0x10wb0gRCwkdJ+MnzU5VNsLMVhB+/QZ0hXv5lbCF0qnTSjXlMVitRKfSuM2yPk+kQE1/uKHb+...
Stack Trace: 
 
************************************************************************************************************************************************************************************************************************************************************************************************************************************************************************************************************************************************************************************************************************************************************************************************************************************************************************************************************************************************************************************************************************************************************************************************************************************************************************************************************************************************************************************************************************************

[16:05:07] :: 
Error Message: Invalid viewstate. 
	Client IP: 10.237.72.28
	Port: 2851
	Referer: http://ping-nb/TMS_DEV/admin_Complain_lst.aspx
	Path: /TMS_DEV/admin_Complain_lst.aspx
	User-Agent: Mozilla/5.0 (Windows NT 10.0; WOW64) AppleWebKit/537.36 (KHTML, like Gecko) Chrome/47.0.2526.80 Safari/537.36
	ViewState: F96RM+3y6UOVnQdPa2JvEWMnezZUr2m9vFCX4t9GqwdwXw8ZbtmJ0GMv1tcyj3FvCQPLT0mIU0ds0B0RpqNP3RVBjABlb78XVWfbMh234351bmk6SIRYW+v0ePssyd9CabINXc0ti7xjaE/GTcEWhiu4M2I1jTjdm0ZbTXg3Bwp8HaXccdZi8OZt0/AAoGGeTmbpQ3Rxkfr3zjpUUdNB095T/dsgNAl0HzszMfMkC4WEYRUY6TwLYuS+19BzqsXHFIJfd9kLV0sfTdjMaeJh2njKRfd/7A0+/248bxyDLBB3swVr0fSvbLmG6afdBy15I5yY+GtuzzC+m4RVq4wQZPAjs0d9OYpda1OAGwSv79X8vZKj66PHdXFYpmi4f3DWdqZaG0bRpamhRt3VksNK57U//iBcREma4A7XdDCqYdLhsTRhEcXKjNPAZ5B7ZdoCfvjB3FG34pBLLXcCqJCJuY/N9AD+/4xQJ7qVH6FRjfGh1+AYQW7khGM048l128zJiH0KG6dtxd1kqbAGbETiIsCqx9IfgP0jEpL52gfqlNglfUFyLp8L+QyczbYiCZ5nxit8GRQRdyy9UfCHr82j9Tpmr62KGzjWDxUpURX9mLGq0Rn9nbwxwA2EkQCGku3NvApxTaQwpVQzY8tLaVDqUzDhYikm3qi0x10wb0gRCwkdJ+MnzU5VNsLMVhB+/QZ0hXv5lbCF0qnTSjXlMVitRKfSuM2yPk+kQE1/uKHb+...
Stack Trace: 
 
************************************************************************************************************************************************************************************************************************************************************************************************************************************************************************************************************************************************************************************************************************************************************************************************************************************************************************************************************************************************************************************************************************************************************************************************************************************************************************************************************************************************************************************************************************************

