[16:36:37] :: 
Error Message: Maximum request length exceeded.
Stack Trace:    at System.Web.HttpRequest.GetEntireRawContent()
   at System.Web.HttpRequest.GetMultipartContent()
   at System.Web.HttpRequest.FillInFormCollection()
   at System.Web.HttpRequest.get_Form()
   at System.Web.HttpRequest.get_HasForm()
   at System.Web.UI.Page.GetCollectionBasedOnMethod(Boolean dontReturnNull)
   at System.Web.UI.Page.DeterminePostBackMode()
   at System.Web.UI.Page.ProcessRequestMain(Boolean includeStagesBeforeAsyncPoint, Boolean includeStagesAfterAsyncPoint)
 
******************************************************************************************************************************************************************************************************************************************************************************************************************************************************************************************************************************************************************************************************************************************************************************************

