[10:39:39] :: 
Error Message: Content ('<ClientSideEvents Click='') does not match any properties within a 'DevExpress.Web.ASPxEditors.ASPxButton', make sure it is well-formed.
Stack Trace:    at System.Web.UI.TemplateParser.ProcessException(Exception ex)
   at System.Web.UI.TemplateParser.ProcessLiteral()
   at System.Web.UI.TemplateParser.ProcessCodeBlock(Match match, CodeBlockType blockType, String text)
   at System.Web.UI.TemplateParser.ParseStringInternal(String text, Encoding fileEncoding)
   at System.Web.UI.TemplateParser.ParseString(String text, VirtualPath virtualPath, Encoding fileEncoding)
 
******************************************************************************************************************************************************************************************************************************************************************************************************************************************************************************************************************************************************************************************************************************************************************************************************************************************

[10:41:11] :: 
Error Message: Content ('<ClientSideEvents Click='') does not match any properties within a 'DevExpress.Web.ASPxEditors.ASPxButton', make sure it is well-formed.
Stack Trace:    at System.Web.UI.TemplateParser.ProcessException(Exception ex)
   at System.Web.UI.TemplateParser.ProcessLiteral()
   at System.Web.UI.TemplateParser.ProcessCodeBlock(Match match, CodeBlockType blockType, String text)
   at System.Web.UI.TemplateParser.ParseStringInternal(String text, Encoding fileEncoding)
   at System.Web.UI.TemplateParser.ParseString(String text, VirtualPath virtualPath, Encoding fileEncoding)
 
******************************************************************************************************************************************************************************************************************************************************************************************************************************************************************************************************************************************************************************************************************************************************************************************************************************************

[10:41:12] :: 
Error Message: Content ('<ClientSideEvents Click='') does not match any properties within a 'DevExpress.Web.ASPxEditors.ASPxButton', make sure it is well-formed.
Stack Trace:    at System.Web.UI.TemplateParser.ProcessException(Exception ex)
   at System.Web.UI.TemplateParser.ProcessLiteral()
   at System.Web.UI.TemplateParser.ProcessCodeBlock(Match match, CodeBlockType blockType, String text)
   at System.Web.UI.TemplateParser.ParseStringInternal(String text, Encoding fileEncoding)
   at System.Web.UI.TemplateParser.ParseString(String text, VirtualPath virtualPath, Encoding fileEncoding)
 
******************************************************************************************************************************************************************************************************************************************************************************************************************************************************************************************************************************************************************************************************************************************************************************************************************************************

[10:41:13] :: 
Error Message: Content ('<ClientSideEvents Click='') does not match any properties within a 'DevExpress.Web.ASPxEditors.ASPxButton', make sure it is well-formed.
Stack Trace:    at System.Web.UI.TemplateParser.ProcessException(Exception ex)
   at System.Web.UI.TemplateParser.ProcessLiteral()
   at System.Web.UI.TemplateParser.ProcessCodeBlock(Match match, CodeBlockType blockType, String text)
   at System.Web.UI.TemplateParser.ParseStringInternal(String text, Encoding fileEncoding)
   at System.Web.UI.TemplateParser.ParseString(String text, VirtualPath virtualPath, Encoding fileEncoding)
 
******************************************************************************************************************************************************************************************************************************************************************************************************************************************************************************************************************************************************************************************************************************************************************************************************************************************

[10:41:14] :: 
Error Message: Content ('<ClientSideEvents Click='') does not match any properties within a 'DevExpress.Web.ASPxEditors.ASPxButton', make sure it is well-formed.
Stack Trace:    at System.Web.UI.TemplateParser.ProcessException(Exception ex)
   at System.Web.UI.TemplateParser.ProcessLiteral()
   at System.Web.UI.TemplateParser.ProcessCodeBlock(Match match, CodeBlockType blockType, String text)
   at System.Web.UI.TemplateParser.ParseStringInternal(String text, Encoding fileEncoding)
   at System.Web.UI.TemplateParser.ParseString(String text, VirtualPath virtualPath, Encoding fileEncoding)
 
******************************************************************************************************************************************************************************************************************************************************************************************************************************************************************************************************************************************************************************************************************************************************************************************************************************************

[10:52:46] :: 
Error Message: A primary key field specified via the KeyFieldName property is not found in the underlying data source. Make sure the field name is spelled correctly. Pay attention to the character case.
Stack Trace:    at DevExpress.Web.Data.WebDataProxy.ThrowMissingPrimaryKey()
   at DevExpress.Web.Data.WebDataProxy.CheckKeyFieldName()
   at DevExpress.Web.Data.WebDataProxy.GetKeyValueCore(Int32 index, GetKeyValueCallback getKeyValue)
   at DevExpress.Web.Data.WebDataProxy.GetRowKeyValue(Int32 visibleIndex)
   at DevExpress.Web.ASPxGridView.GridViewBaseRowTemplateContainer.get_KeyValue()
   at DevExpress.Web.ASPxGridView.GridViewBaseRowTemplateContainer.OnBubbleEvent(Object source, EventArgs args)
   at System.Web.UI.Control.RaiseBubbleEvent(Object source, EventArgs args)
   at DevExpress.Web.ASPxEditors.ASPxButton.OnCommand(CommandEventArgs e)
   at DevExpress.Web.ASPxEditors.ASPxButton.RaisePostBackEvent(String eventArgument)
   at DevExpress.Web.ASPxClasses.ASPxWebControl.System.Web.UI.IPostBackEventHandler.RaisePostBackEvent(String eventArgument)
   at System.Web.UI.Page.RaisePostBackEvent(IPostBackEventHandler sourceControl, String eventArgument)
   at System.Web.UI.Page.RaisePostBackEvent(NameValueCollection postData)
   at System.Web.UI.Page.ProcessRequestMain(Boolean includeStagesBeforeAsyncPoint, Boolean includeStagesAfterAsyncPoint)
 
*****************************************************************************************************************************************************************************************************************************************************************************************************************************************************************************************************************************************************************************************************************************************************************************************************************************************************************************************************************************************************************************************************************************************************************************************************************************************************************************************************************************************************************************************************************************************************************************************************************************************************************************************************************************************************************************************************************************************************

[11:07:54] :: 
Error Message: The tag contains duplicate 'ClientVisible' attributes.
Stack Trace:    at System.Web.UI.TemplateParser.ProcessException(Exception ex)
   at System.Web.UI.TemplateParser.ParseStringInternal(String text, Encoding fileEncoding)
   at System.Web.UI.TemplateParser.ParseString(String text, VirtualPath virtualPath, Encoding fileEncoding)
 
*********************************************************************************************************************************************************************************************************************************************************************************************************************************************************************************

[11:34:28] :: 
Error Message: DataBinding: 'DevExpress.Web.Data.WebDataRow' does not contain a property with the name 'CHARGE'.
Stack Trace:    at System.Web.UI.DataBinder.GetPropertyValue(Object container, String propName)
   at System.Web.UI.DataBinder.Eval(Object container, String[] expressionParts)
   at System.Web.UI.DataBinder.Eval(Object container, String expression)
   at System.Web.UI.TemplateControl.Eval(String expression)
   at ASP.reportresultwater_aspx.__DataBinding__control29(Object sender, EventArgs e) in d:\Project\TMS\ASP.NET\ReportResultWater.aspx:line 149
   at System.Web.UI.Control.OnDataBinding(EventArgs e)
   at DevExpress.Web.ASPxClasses.ASPxWebControl.DataBindInternal()
   at DevExpress.Web.ASPxClasses.ASPxWebControl.DataBind()
   at System.Web.UI.Control.DataBindChildren()
   at System.Web.UI.Control.DataBind(Boolean raiseOnDataBinding)
   at System.Web.UI.Control.DataBind()
   at DevExpress.Web.ASPxGridView.GridViewBaseTemplateContainer.DataBind()
   at DevExpress.Web.ASPxClasses.ASPxWebControlBase.DataBindContainers(Control parent, Boolean bindContents, Boolean bindTemplates)
   at DevExpress.Web.ASPxClasses.ASPxWebControlBase.DataBindContainers(Control parent, Boolean bindContents, Boolean bindTemplates)
   at DevExpress.Web.ASPxClasses.ASPxWebControlBase.DataBindContainers(Control parent, Boolean bindContents, Boolean bindTemplates)
   at DevExpress.Web.ASPxClasses.ASPxWebControlBase.DataBindContainers(Control parent, Boolean bindContents, Boolean bindTemplates)
   at DevExpress.Web.ASPxClasses.ASPxWebControlBase.DataBindContainers(Control parent, Boolean bindContents, Boolean bindTemplates)
   at DevExpress.Web.ASPxClasses.ASPxWebControlBase.DataBindContainers(Control parent, Boolean bindContents, Boolean bindTemplates)
   at DevExpress.Web.ASPxClasses.ASPxWebControlBase.DataBindContainers(Control parent, Boolean bindContents, Boolean bindTemplates)
   at DevExpress.Web.ASPxClasses.ASPxWebControlBase.DataBindContainers(Control parent, Boolean bindContents, Boolean bindTemplates)
   at DevExpress.Web.ASPxClasses.ASPxWebControlBase.DataBindContainers(Control parent, Boolean bindContents, Boolean bindTemplates)
   at DevExpress.Web.ASPxClasses.ASPxWebControlBase.DataBindContainers(Control parent, Boolean bindContents, Boolean bindTemplates)
   at DevExpress.Web.ASPxClasses.ASPxDataWebControlBase.DataBindInternal()
   at DevExpress.Web.ASPxClasses.ASPxWebControl.DataBind()
   at DevExpress.Web.ASPxGridView.ASPxGridView.DataBind()
   at ReportResultWater.ListData() in d:\Project\TMS\ASP.NET\ReportResultWater.aspx.cs:line 119
   at ReportResultWater.Page_Load(Object sender, EventArgs e) in d:\Project\TMS\ASP.NET\ReportResultWater.aspx.cs:line 23
   at System.Web.Util.CalliEventHandlerDelegateProxy.Callback(Object sender, EventArgs e)
   at System.Web.UI.Control.OnLoad(EventArgs e)
   at System.Web.UI.Control.LoadRecursive()
   at System.Web.UI.Page.ProcessRequestMain(Boolean includeStagesBeforeAsyncPoint, Boolean includeStagesAfterAsyncPoint)
 
*******************************************************************************************************************************************************************************************************************************************************************************************************************************************************************************************************************************************************************************************************************************************************************************************************************************************************************************************************************************************************************************************************************************************************************************************************************************************************************************************************************************************************************************************************************************************************************************************************************************************************************************************************************************************************************************************************************************************************************************************************************************************************************************************************************************************************************************************************************************************************************************************************************************************************************************************************************************************************************************************************************************************************************************************************************************************************************************************************************************************************************************************************************************************************************************************************************************************************************************************************************************************************************************************************************************************************************************************************************************************************************************************************************************************************************************************************************************************************************************************************************************************************************************************************************************************************************************

[16:58:37] :: 
Error Message: Invalid viewstate. 
	Client IP: ::1
	Port: 
	Referer: http://localhost:3155/ASP.NET/result-add3.aspx?strRQID=AQAAANCMnd8BFdERjHoAwE%2fCl%2bsBAAAADklPm1wYJUmzKpW3iqZX%2bQAAAAACAAAAAAAQZgAAAAEAACAAAABCk1ekmvRKBkgIyYPmwzrTuNKGWkjzdeoy9w%2fXcQwqYAAAAAAOgAAAAAIAACAAAABR9tkpatIRWgz0c1UyRi%2fIpsmMH44EKiIeN8xlswQqtRAAAABJgz36XYRkokzzH6b1d2SXQAAAADKAwxgIgB98IoN8tz7NFIiYyVjOQ67yBIyoKRnpOwK44ZrfD21OT12XIwc%2bB7WD%2bjTaOW%2fsHCGHIDONTIVhlCc%3d
	Path: /ASP.NET/result-add3.aspx
	User-Agent: Mozilla/5.0 (compatible; MSIE 9.0; Windows NT 6.1; Trident/5.0)
	ViewState: /wEPDwULLTIwOTA4NTQzODQPZBYCZg9kFgoCAg8WAh4EaHJlZgUPYWRtaW5faG9tZS5hc3B4ZAIDDxYCHgV0aXRsZQWFAjx0YWJsZSA+DQo8dHIgPjx0ZCBzdHlsZT0iY29sb3I6I2ZmZmZmZiI+4LiE4Li44LiTIHN5c3RlbSBhZG1pbjwvdGQ+PC90cj4NCiAgICAgICAgICAgICAgICAgICAgICAgICAgICAgICA8dHI+PHRkICBzdHlsZT0iY29sb3I6I2ZmZmZmZiI+4Lir4LiZ4LmI4Lin4Lii4LiH4Liy4LiZIOC4quC5iOC4p+C4meC4o+C4sOC4muC4muC5geC4peC4sOC4m+C4o+C4sOC4oeC4p+C4peC4nOC4peC4geC4suC4o+C4guC4meC4quC5iOC4hzwvdGQ+PC90cj48L3RhYmxlPmQCBA8WAh4EVGV4dAXYATx0YWJsZSA+PHRy...
Stack Trace: 
 
************************************************************************************************************************************************************************************************************************************************************************************************************************************************************************************************************************************************************************************************************************************************************************************************************************************************************************************************************************************************************************************************************************************************************************************************************************************************************************************************************************************************************************************************************************************

[17:36:29] :: 
Error Message: There is no row at position 0.
Stack Trace:    at System.Data.RBTree`1.GetNodeByIndex(Int32 userIndex)
   at System.Data.DataRowCollection.get_Item(Int32 index)
   at SystemFunction.GenCARNUM(String STRUCK_ID) in d:\Project\TMS\ASP.NET\App_Code\SystemFunction.cs:line 1209
   at result_add5.SendMailToUser(String sREQID) in d:\Project\TMS\ASP.NET\result-add5.aspx.cs:line 598
   at result_add5.Page_Load(Object sender, EventArgs e) in d:\Project\TMS\ASP.NET\result-add5.aspx.cs:line 46
   at System.Web.Util.CalliEventHandlerDelegateProxy.Callback(Object sender, EventArgs e)
   at System.Web.UI.Control.OnLoad(EventArgs e)
   at System.Web.UI.Control.LoadRecursive()
   at System.Web.UI.Page.ProcessRequestMain(Boolean includeStagesBeforeAsyncPoint, Boolean includeStagesAfterAsyncPoint)
 
***************************************************************************************************************************************************************************************************************************************************************************************************************************************************************************************************************************************************************************************************************************************************************************************************************************************************************************************************************************************************************************************************************************************************************

[17:44:17] :: 
Error Message: ORA-01704: สตริงลิเทอรัลยาวเกินไป

Stack Trace:    at System.Data.OracleClient.OracleConnection.CheckError(OciErrorHandle errorHandle, Int32 rc)
   at System.Data.OracleClient.OracleCommand.Execute(OciStatementHandle statementHandle, CommandBehavior behavior, Boolean needRowid, OciRowidDescriptor& rowidDescriptor, ArrayList& resultParameterOrdinals)
   at System.Data.OracleClient.OracleCommand.ExecuteNonQueryInternal(Boolean needRowid, OciRowidDescriptor& rowidDescriptor)
   at System.Data.OracleClient.OracleCommand.ExecuteNonQuery()
   at CommonFunction.SendNetMail(String sfrom, String sto, String subject, String message, OracleConnection ORA_Connection, String _sfilepath, String[] _param) in d:\Project\TMS\ASP.NET\App_Code\CommonFunction.cs:line 322
   at result_add5.SendMailToUser(String sREQID) in d:\Project\TMS\ASP.NET\result-add5.aspx.cs:line 608
   at result_add5.Page_Load(Object sender, EventArgs e) in d:\Project\TMS\ASP.NET\result-add5.aspx.cs:line 46
   at System.Web.Util.CalliEventHandlerDelegateProxy.Callback(Object sender, EventArgs e)
   at System.Web.UI.Control.OnLoad(EventArgs e)
   at System.Web.UI.Control.LoadRecursive()
   at System.Web.UI.Page.ProcessRequestMain(Boolean includeStagesBeforeAsyncPoint, Boolean includeStagesAfterAsyncPoint)
 
**************************************************************************************************************************************************************************************************************************************************************************************************************************************************************************************************************************************************************************************************************************************************************************************************************************************************************************************************************************************************************************************************************************************************************************************************************************************************************************************************************************************************************************************************************************************************************************************************************************************************************************************************************************************************************************

[17:45:40] :: 
Error Message: ORA-01704: สตริงลิเทอรัลยาวเกินไป

Stack Trace:    at System.Data.OracleClient.OracleConnection.CheckError(OciErrorHandle errorHandle, Int32 rc)
   at System.Data.OracleClient.OracleCommand.Execute(OciStatementHandle statementHandle, CommandBehavior behavior, Boolean needRowid, OciRowidDescriptor& rowidDescriptor, ArrayList& resultParameterOrdinals)
   at System.Data.OracleClient.OracleCommand.ExecuteNonQueryInternal(Boolean needRowid, OciRowidDescriptor& rowidDescriptor)
   at System.Data.OracleClient.OracleCommand.ExecuteNonQuery()
   at CommonFunction.SendNetMail(String sfrom, String sto, String subject, String message, OracleConnection ORA_Connection, String _sfilepath, String[] _param) in d:\Project\TMS\ASP.NET\App_Code\CommonFunction.cs:line 322
   at result_add5.SendMailToUser(String sREQID) in d:\Project\TMS\ASP.NET\result-add5.aspx.cs:line 608
   at result_add5.Page_Load(Object sender, EventArgs e) in d:\Project\TMS\ASP.NET\result-add5.aspx.cs:line 46
   at System.Web.Util.CalliEventHandlerDelegateProxy.Callback(Object sender, EventArgs e)
   at System.Web.UI.Control.OnLoad(EventArgs e)
   at System.Web.UI.Control.LoadRecursive()
   at System.Web.UI.Page.ProcessRequestMain(Boolean includeStagesBeforeAsyncPoint, Boolean includeStagesAfterAsyncPoint)
 
**************************************************************************************************************************************************************************************************************************************************************************************************************************************************************************************************************************************************************************************************************************************************************************************************************************************************************************************************************************************************************************************************************************************************************************************************************************************************************************************************************************************************************************************************************************************************************************************************************************************************************************************************************************************************************************

[18:03:37] :: 
Error Message: ORA-01704: สตริงลิเทอรัลยาวเกินไป

Stack Trace:    at System.Data.OracleClient.OracleConnection.CheckError(OciErrorHandle errorHandle, Int32 rc)
   at System.Data.OracleClient.OracleCommand.Execute(OciStatementHandle statementHandle, CommandBehavior behavior, Boolean needRowid, OciRowidDescriptor& rowidDescriptor, ArrayList& resultParameterOrdinals)
   at System.Data.OracleClient.OracleCommand.ExecuteNonQueryInternal(Boolean needRowid, OciRowidDescriptor& rowidDescriptor)
   at System.Data.OracleClient.OracleCommand.ExecuteNonQuery()
   at CommonFunction.SendNetMail(String sfrom, String sto, String subject, String message, OracleConnection ORA_Connection, String _sfilepath, String[] _param) in d:\Project\TMS\ASP.NET\App_Code\CommonFunction.cs:line 322
   at result_add5.SendMailToUser(String sREQID) in d:\Project\TMS\ASP.NET\result-add5.aspx.cs:line 608
   at result_add5.Page_Load(Object sender, EventArgs e) in d:\Project\TMS\ASP.NET\result-add5.aspx.cs:line 46
   at System.Web.Util.CalliEventHandlerDelegateProxy.Callback(Object sender, EventArgs e)
   at System.Web.UI.Control.OnLoad(EventArgs e)
   at System.Web.UI.Control.LoadRecursive()
   at System.Web.UI.Page.ProcessRequestMain(Boolean includeStagesBeforeAsyncPoint, Boolean includeStagesAfterAsyncPoint)
 
**************************************************************************************************************************************************************************************************************************************************************************************************************************************************************************************************************************************************************************************************************************************************************************************************************************************************************************************************************************************************************************************************************************************************************************************************************************************************************************************************************************************************************************************************************************************************************************************************************************************************************************************************************************************************************************

[18:08:19] :: 
Error Message: ORA-00917: ไม่มีคอมมา

Stack Trace:    at System.Data.OracleClient.OracleConnection.CheckError(OciErrorHandle errorHandle, Int32 rc)
   at System.Data.OracleClient.OracleCommand.Execute(OciStatementHandle statementHandle, CommandBehavior behavior, Boolean needRowid, OciRowidDescriptor& rowidDescriptor, ArrayList& resultParameterOrdinals)
   at System.Data.OracleClient.OracleCommand.ExecuteNonQueryInternal(Boolean needRowid, OciRowidDescriptor& rowidDescriptor)
   at System.Data.OracleClient.OracleCommand.ExecuteNonQuery()
   at CommonFunction.SendNetMail(String sfrom, String sto, String subject, String message, OracleConnection ORA_Connection, String _sfilepath, String[] _param) in d:\Project\TMS\ASP.NET\App_Code\CommonFunction.cs:line 331
   at result_add5.SendMailToUser(String sREQID) in d:\Project\TMS\ASP.NET\result-add5.aspx.cs:line 608
   at result_add5.Page_Load(Object sender, EventArgs e) in d:\Project\TMS\ASP.NET\result-add5.aspx.cs:line 46
   at System.Web.Util.CalliEventHandlerDelegateProxy.Callback(Object sender, EventArgs e)
   at System.Web.UI.Control.OnLoad(EventArgs e)
   at System.Web.UI.Control.LoadRecursive()
   at System.Web.UI.Page.ProcessRequestMain(Boolean includeStagesBeforeAsyncPoint, Boolean includeStagesAfterAsyncPoint)
 
**************************************************************************************************************************************************************************************************************************************************************************************************************************************************************************************************************************************************************************************************************************************************************************************************************************************************************************************************************************************************************************************************************************************************************************************************************************************************************************************************************************************************************************************************************************************************************************************************************************************************************************************************************************************************************

[18:13:28] :: 
Error Message: ORA-00917: ไม่มีคอมมา

Stack Trace:    at System.Data.OracleClient.OracleConnection.CheckError(OciErrorHandle errorHandle, Int32 rc)
   at System.Data.OracleClient.OracleCommand.Execute(OciStatementHandle statementHandle, CommandBehavior behavior, Boolean needRowid, OciRowidDescriptor& rowidDescriptor, ArrayList& resultParameterOrdinals)
   at System.Data.OracleClient.OracleCommand.ExecuteNonQueryInternal(Boolean needRowid, OciRowidDescriptor& rowidDescriptor)
   at System.Data.OracleClient.OracleCommand.ExecuteNonQuery()
   at CommonFunction.SendNetMail(String sfrom, String sto, String subject, String message, OracleConnection ORA_Connection, String _sfilepath, String[] _param) in d:\Project\TMS\ASP.NET\App_Code\CommonFunction.cs:line 331
   at result_add5.SendMailToUser(String sREQID) in d:\Project\TMS\ASP.NET\result-add5.aspx.cs:line 608
   at result_add5.Page_Load(Object sender, EventArgs e) in d:\Project\TMS\ASP.NET\result-add5.aspx.cs:line 46
   at System.Web.Util.CalliEventHandlerDelegateProxy.Callback(Object sender, EventArgs e)
   at System.Web.UI.Control.OnLoad(EventArgs e)
   at System.Web.UI.Control.LoadRecursive()
   at System.Web.UI.Page.ProcessRequestMain(Boolean includeStagesBeforeAsyncPoint, Boolean includeStagesAfterAsyncPoint)
 
**************************************************************************************************************************************************************************************************************************************************************************************************************************************************************************************************************************************************************************************************************************************************************************************************************************************************************************************************************************************************************************************************************************************************************************************************************************************************************************************************************************************************************************************************************************************************************************************************************************************************************************************************************************************************************

[18:15:26] :: 
Error Message: ORA-00917: ไม่มีคอมมา

Stack Trace:    at System.Data.OracleClient.OracleConnection.CheckError(OciErrorHandle errorHandle, Int32 rc)
   at System.Data.OracleClient.OracleCommand.Execute(OciStatementHandle statementHandle, CommandBehavior behavior, Boolean needRowid, OciRowidDescriptor& rowidDescriptor, ArrayList& resultParameterOrdinals)
   at System.Data.OracleClient.OracleCommand.ExecuteNonQueryInternal(Boolean needRowid, OciRowidDescriptor& rowidDescriptor)
   at System.Data.OracleClient.OracleCommand.ExecuteNonQuery()
   at CommonFunction.SendNetMail(String sfrom, String sto, String subject, String message, OracleConnection ORA_Connection, String _sfilepath, String[] _param) in d:\Project\TMS\ASP.NET\App_Code\CommonFunction.cs:line 332
   at result_add5.SendMailToUser(String sREQID) in d:\Project\TMS\ASP.NET\result-add5.aspx.cs:line 608
   at result_add5.Page_Load(Object sender, EventArgs e) in d:\Project\TMS\ASP.NET\result-add5.aspx.cs:line 46
   at System.Web.Util.CalliEventHandlerDelegateProxy.Callback(Object sender, EventArgs e)
   at System.Web.UI.Control.OnLoad(EventArgs e)
   at System.Web.UI.Control.LoadRecursive()
   at System.Web.UI.Page.ProcessRequestMain(Boolean includeStagesBeforeAsyncPoint, Boolean includeStagesAfterAsyncPoint)
 
**************************************************************************************************************************************************************************************************************************************************************************************************************************************************************************************************************************************************************************************************************************************************************************************************************************************************************************************************************************************************************************************************************************************************************************************************************************************************************************************************************************************************************************************************************************************************************************************************************************************************************************************************************************************************************

[18:20:17] :: 
Error Message: ORA-00917: ไม่มีคอมมา

Stack Trace:    at System.Data.OracleClient.OracleConnection.CheckError(OciErrorHandle errorHandle, Int32 rc)
   at System.Data.OracleClient.OracleCommand.Execute(OciStatementHandle statementHandle, CommandBehavior behavior, Boolean needRowid, OciRowidDescriptor& rowidDescriptor, ArrayList& resultParameterOrdinals)
   at System.Data.OracleClient.OracleCommand.ExecuteNonQueryInternal(Boolean needRowid, OciRowidDescriptor& rowidDescriptor)
   at System.Data.OracleClient.OracleCommand.ExecuteNonQuery()
   at CommonFunction.SendNetMail(String sfrom, String sto, String subject, String message, OracleConnection ORA_Connection, String _sfilepath, String[] _param) in d:\Project\TMS\ASP.NET\App_Code\CommonFunction.cs:line 332
   at result_add5.SendMailToUser(String sREQID) in d:\Project\TMS\ASP.NET\result-add5.aspx.cs:line 608
   at result_add5.Page_Load(Object sender, EventArgs e) in d:\Project\TMS\ASP.NET\result-add5.aspx.cs:line 46
   at System.Web.Util.CalliEventHandlerDelegateProxy.Callback(Object sender, EventArgs e)
   at System.Web.UI.Control.OnLoad(EventArgs e)
   at System.Web.UI.Control.LoadRecursive()
   at System.Web.UI.Page.ProcessRequestMain(Boolean includeStagesBeforeAsyncPoint, Boolean includeStagesAfterAsyncPoint)
 
**************************************************************************************************************************************************************************************************************************************************************************************************************************************************************************************************************************************************************************************************************************************************************************************************************************************************************************************************************************************************************************************************************************************************************************************************************************************************************************************************************************************************************************************************************************************************************************************************************************************************************************************************************************************************************

[18:26:04] :: 
Error Message: ORA-00917: ไม่มีคอมมา

Stack Trace:    at System.Data.OracleClient.OracleConnection.CheckError(OciErrorHandle errorHandle, Int32 rc)
   at System.Data.OracleClient.OracleCommand.Execute(OciStatementHandle statementHandle, CommandBehavior behavior, Boolean needRowid, OciRowidDescriptor& rowidDescriptor, ArrayList& resultParameterOrdinals)
   at System.Data.OracleClient.OracleCommand.ExecuteNonQueryInternal(Boolean needRowid, OciRowidDescriptor& rowidDescriptor)
   at System.Data.OracleClient.OracleCommand.ExecuteNonQuery()
   at CommonFunction.SendNetMail(String sfrom, String sto, String subject, String message, OracleConnection ORA_Connection, String _sfilepath, String[] _param) in d:\Project\TMS\ASP.NET\App_Code\CommonFunction.cs:line 332
   at result_add5.SendMailToUser(String sREQID) in d:\Project\TMS\ASP.NET\result-add5.aspx.cs:line 608
   at result_add5.Page_Load(Object sender, EventArgs e) in d:\Project\TMS\ASP.NET\result-add5.aspx.cs:line 46
   at System.Web.Util.CalliEventHandlerDelegateProxy.Callback(Object sender, EventArgs e)
   at System.Web.UI.Control.OnLoad(EventArgs e)
   at System.Web.UI.Control.LoadRecursive()
   at System.Web.UI.Page.ProcessRequestMain(Boolean includeStagesBeforeAsyncPoint, Boolean includeStagesAfterAsyncPoint)
 
**************************************************************************************************************************************************************************************************************************************************************************************************************************************************************************************************************************************************************************************************************************************************************************************************************************************************************************************************************************************************************************************************************************************************************************************************************************************************************************************************************************************************************************************************************************************************************************************************************************************************************************************************************************************************************

[18:27:10] :: 
Error Message: ORA-00917: ไม่มีคอมมา

Stack Trace:    at System.Data.OracleClient.OracleConnection.CheckError(OciErrorHandle errorHandle, Int32 rc)
   at System.Data.OracleClient.OracleCommand.Execute(OciStatementHandle statementHandle, CommandBehavior behavior, Boolean needRowid, OciRowidDescriptor& rowidDescriptor, ArrayList& resultParameterOrdinals)
   at System.Data.OracleClient.OracleCommand.ExecuteNonQueryInternal(Boolean needRowid, OciRowidDescriptor& rowidDescriptor)
   at System.Data.OracleClient.OracleCommand.ExecuteNonQuery()
   at CommonFunction.SendNetMail(String sfrom, String sto, String subject, String message, OracleConnection ORA_Connection, String _sfilepath, String[] _param) in d:\Project\TMS\ASP.NET\App_Code\CommonFunction.cs:line 332
   at result_add5.SendMailToUser(String sREQID) in d:\Project\TMS\ASP.NET\result-add5.aspx.cs:line 608
   at result_add5.Page_Load(Object sender, EventArgs e) in d:\Project\TMS\ASP.NET\result-add5.aspx.cs:line 46
   at System.Web.Util.CalliEventHandlerDelegateProxy.Callback(Object sender, EventArgs e)
   at System.Web.UI.Control.OnLoad(EventArgs e)
   at System.Web.UI.Control.LoadRecursive()
   at System.Web.UI.Page.ProcessRequestMain(Boolean includeStagesBeforeAsyncPoint, Boolean includeStagesAfterAsyncPoint)
 
**************************************************************************************************************************************************************************************************************************************************************************************************************************************************************************************************************************************************************************************************************************************************************************************************************************************************************************************************************************************************************************************************************************************************************************************************************************************************************************************************************************************************************************************************************************************************************************************************************************************************************************************************************************************************************

