[11:11:50] :: 
Error Message: ORA-00923: ไม่พบคำหลัก FROM ในที่ที่ต้องการ

Stack Trace:    at System.Data.OracleClient.OracleConnection.CheckError(OciErrorHandle errorHandle, Int32 rc)
   at System.Data.OracleClient.OracleCommand.Execute(OciStatementHandle statementHandle, CommandBehavior behavior, Boolean needRowid, OciRowidDescriptor& rowidDescriptor, ArrayList& resultParameterOrdinals)
   at System.Data.OracleClient.OracleCommand.Execute(OciStatementHandle statementHandle, CommandBehavior behavior, ArrayList& resultParameterOrdinals)
   at System.Data.OracleClient.OracleCommand.ExecuteReader(CommandBehavior behavior)
   at System.Data.OracleClient.OracleCommand.ExecuteDbDataReader(CommandBehavior behavior)
   at System.Data.Common.DbCommand.System.Data.IDbCommand.ExecuteReader(CommandBehavior behavior)
   at System.Data.Common.DbDataAdapter.FillInternal(DataSet dataset, DataTable[] datatables, Int32 startRecord, Int32 maxRecords, String srcTable, IDbCommand command, CommandBehavior behavior)
   at System.Data.Common.DbDataAdapter.Fill(DataTable[] dataTables, Int32 startRecord, Int32 maxRecords, IDbCommand command, CommandBehavior behavior)
   at System.Data.Common.DbDataAdapter.Fill(DataTable dataTable)
   at CommonFunction.Get_Data(String Conn, String _sql) in d:\Project\TMS\ASP.NET\App_Code\CommonFunction.cs:line 122
   at ReportDateProcess.ListData() in d:\Project\TMS\ASP.NET\ReportDateProcess.aspx.cs:line 114
   at ReportDateProcess.Page_Load(Object sender, EventArgs e) in d:\Project\TMS\ASP.NET\ReportDateProcess.aspx.cs:line 25
   at System.Web.Util.CalliEventHandlerDelegateProxy.Callback(Object sender, EventArgs e)
   at System.Web.UI.Control.OnLoad(EventArgs e)
   at System.Web.UI.Control.LoadRecursive()
   at System.Web.UI.Page.ProcessRequestMain(Boolean includeStagesBeforeAsyncPoint, Boolean includeStagesAfterAsyncPoint)
 
************************************************************************************************************************************************************************************************************************************************************************************************************************************************************************************************************************************************************************************************************************************************************************************************************************************************************************************************************************************************************************************************************************************************************************************************************************************************************************************************************************************************************************************************************************************************************************************************************************************************************************************************************************************************************************************************************************************************************************************************************************************************************************************************************************************************************************************************************************************************************************************************************************************************************************************************************************************************************

[11:12:39] :: 
Error Message: ORA-00923: ไม่พบคำหลัก FROM ในที่ที่ต้องการ

Stack Trace:    at System.Data.OracleClient.OracleConnection.CheckError(OciErrorHandle errorHandle, Int32 rc)
   at System.Data.OracleClient.OracleCommand.Execute(OciStatementHandle statementHandle, CommandBehavior behavior, Boolean needRowid, OciRowidDescriptor& rowidDescriptor, ArrayList& resultParameterOrdinals)
   at System.Data.OracleClient.OracleCommand.Execute(OciStatementHandle statementHandle, CommandBehavior behavior, ArrayList& resultParameterOrdinals)
   at System.Data.OracleClient.OracleCommand.ExecuteReader(CommandBehavior behavior)
   at System.Data.OracleClient.OracleCommand.ExecuteDbDataReader(CommandBehavior behavior)
   at System.Data.Common.DbCommand.System.Data.IDbCommand.ExecuteReader(CommandBehavior behavior)
   at System.Data.Common.DbDataAdapter.FillInternal(DataSet dataset, DataTable[] datatables, Int32 startRecord, Int32 maxRecords, String srcTable, IDbCommand command, CommandBehavior behavior)
   at System.Data.Common.DbDataAdapter.Fill(DataTable[] dataTables, Int32 startRecord, Int32 maxRecords, IDbCommand command, CommandBehavior behavior)
   at System.Data.Common.DbDataAdapter.Fill(DataTable dataTable)
   at CommonFunction.Get_Data(String Conn, String _sql) in d:\Project\TMS\ASP.NET\App_Code\CommonFunction.cs:line 122
   at ReportDateProcess.ListData() in d:\Project\TMS\ASP.NET\ReportDateProcess.aspx.cs:line 114
   at ReportDateProcess.Page_Load(Object sender, EventArgs e) in d:\Project\TMS\ASP.NET\ReportDateProcess.aspx.cs:line 25
   at System.Web.Util.CalliEventHandlerDelegateProxy.Callback(Object sender, EventArgs e)
   at System.Web.UI.Control.OnLoad(EventArgs e)
   at System.Web.UI.Control.LoadRecursive()
   at System.Web.UI.Page.ProcessRequestMain(Boolean includeStagesBeforeAsyncPoint, Boolean includeStagesAfterAsyncPoint)
 
************************************************************************************************************************************************************************************************************************************************************************************************************************************************************************************************************************************************************************************************************************************************************************************************************************************************************************************************************************************************************************************************************************************************************************************************************************************************************************************************************************************************************************************************************************************************************************************************************************************************************************************************************************************************************************************************************************************************************************************************************************************************************************************************************************************************************************************************************************************************************************************************************************************************************************************************************************************************************

[11:13:45] :: 
Error Message: The server tag is not well formed.
Stack Trace:    at System.Web.UI.TemplateParser.ProcessError(String message)
   at System.Web.UI.TemplateParser.DetectSpecialServerTagError(String text, Int32 textPos)
   at System.Web.UI.TemplateParser.ParseStringInternal(String text, Encoding fileEncoding)
   at System.Web.UI.TemplateParser.ParseString(String text, VirtualPath virtualPath, Encoding fileEncoding)
 
*******************************************************************************************************************************************************************************************************************************************************************************************************************************************************************************************************************************************************

[11:13:57] :: 
Error Message: The server tag is not well formed.
Stack Trace:    at System.Web.UI.TemplateParser.ProcessError(String message)
   at System.Web.UI.TemplateParser.DetectSpecialServerTagError(String text, Int32 textPos)
   at System.Web.UI.TemplateParser.ParseStringInternal(String text, Encoding fileEncoding)
   at System.Web.UI.TemplateParser.ParseString(String text, VirtualPath virtualPath, Encoding fileEncoding)
 
*******************************************************************************************************************************************************************************************************************************************************************************************************************************************************************************************************************************************************

[11:30:11] :: 
Error Message: ORA-00907: ไม่มีวงเล็บปิด

Stack Trace:    at System.Data.OracleClient.OracleConnection.CheckError(OciErrorHandle errorHandle, Int32 rc)
   at System.Data.OracleClient.OracleCommand.Execute(OciStatementHandle statementHandle, CommandBehavior behavior, Boolean needRowid, OciRowidDescriptor& rowidDescriptor, ArrayList& resultParameterOrdinals)
   at System.Data.OracleClient.OracleCommand.Execute(OciStatementHandle statementHandle, CommandBehavior behavior, ArrayList& resultParameterOrdinals)
   at System.Data.OracleClient.OracleCommand.ExecuteReader(CommandBehavior behavior)
   at System.Data.OracleClient.OracleCommand.ExecuteDbDataReader(CommandBehavior behavior)
   at System.Data.Common.DbCommand.System.Data.IDbCommand.ExecuteReader(CommandBehavior behavior)
   at System.Data.Common.DbDataAdapter.FillInternal(DataSet dataset, DataTable[] datatables, Int32 startRecord, Int32 maxRecords, String srcTable, IDbCommand command, CommandBehavior behavior)
   at System.Data.Common.DbDataAdapter.Fill(DataTable[] dataTables, Int32 startRecord, Int32 maxRecords, IDbCommand command, CommandBehavior behavior)
   at System.Data.Common.DbDataAdapter.Fill(DataTable dataTable)
   at CommonFunction.Get_Data(String Conn, String _sql) in d:\Project\TMS\ASP.NET\App_Code\CommonFunction.cs:line 122
   at ReportDateProcess.ListData() in d:\Project\TMS\ASP.NET\ReportDateProcess.aspx.cs:line 114
   at ReportDateProcess.Page_Load(Object sender, EventArgs e) in d:\Project\TMS\ASP.NET\ReportDateProcess.aspx.cs:line 25
   at System.Web.Util.CalliEventHandlerDelegateProxy.Callback(Object sender, EventArgs e)
   at System.Web.UI.Control.OnLoad(EventArgs e)
   at System.Web.UI.Control.LoadRecursive()
   at System.Web.UI.Page.ProcessRequestMain(Boolean includeStagesBeforeAsyncPoint, Boolean includeStagesAfterAsyncPoint)
 
******************************************************************************************************************************************************************************************************************************************************************************************************************************************************************************************************************************************************************************************************************************************************************************************************************************************************************************************************************************************************************************************************************************************************************************************************************************************************************************************************************************************************************************************************************************************************************************************************************************************************************************************************************************************************************************************************************************************************************************************************************************************************************************************************************************************************************************************************************************************************************************************************************************************************************************************************************************************

[14:34:02] :: 
Error Message: Invalid viewstate. 
	Client IP: ::1
	Port: 
	Referer: http://localhost:3155/ASP.NET/ReportDateProcess.aspx
	Path: /ASP.NET/ReportDateProcess.aspx
	User-Agent: Mozilla/5.0 (compatible; MSIE 9.0; Windows NT 6.1; Trident/5.0)
	ViewState: /wEPDwULLTE5MzE4NjY2MTgPZBYCZg9kFgoCAg8WAh4EaHJlZgUPYWRtaW5faG9tZS5hc3B4ZAIDDxYCHgV0aXRsZQWFAjx0YWJsZSA+DQo8dHIgPjx0ZCBzdHlsZT0iY29sb3I6I2ZmZmZmZiI+4LiE4Li44LiTIHN5c3RlbSBhZG1pbjwvdGQ+PC90cj4NCiAgICAgICAgICAgICAgICAgICAgICAgICAgICAgICA8dHI+PHRkICBzdHlsZT0iY29sb3I6I2ZmZmZmZiI+4Lir4LiZ4LmI4Lin4Lii4LiH4Liy4LiZIOC4quC5iOC4p+C4meC4o+C4sOC4muC4muC5geC4peC4sOC4m+C4o+C4sOC4oeC4p+C4peC4nOC4peC4geC4suC4o+C4guC4meC4quC5iOC4hzwvdGQ+PC90cj48L3RhYmxlPmQCBA8WAh4EVGV4dAXYATx0YWJsZSA+PHRyID48dGQgPuC4hOC4uOC4kyBzeXN0ZW0gYWRtaW48L3RkPjwvdHI+DQogICAgICAgICAgICAgICAgICAgICAgICAgICAgICAgPHRyPjx0ZCA+4Lir4LiZ4LmI4Lin4Lii4LiH4Liy4LiZIOC4quC5iOC4p+C4meC4o+C4sOC4muC4muC5geC4peC4sOC4m+C4o+C4sOC4oeC4p+C4peC4nOC4peC4geC4suC4o+C4guC4meC4quC5iOC4hzwvdGQ+PC90cj48L3RhYmxlPmQCBg9kFgJmD2QWAmYPZBYCAgEPFgIfAgXKMw0KICAgICAgICA...
Stack Trace: 
 
************************************************************************************************************************************************************************************************************************************************************************************************************************************************************************************************************************************************************************************************************************************************************************************************************************************************************************************************************************************************************************************************************************************************************************************************************************************************************************************************************************************************************************************************************************************

[14:37:03] :: 
Error Message: Invalid viewstate. 
	Client IP: ::1
	Port: 
	Referer: http://localhost:3155/ASP.NET/ReportDateProcess.aspx
	Path: /ASP.NET/ReportDateProcess.aspx
	User-Agent: Mozilla/5.0 (compatible; MSIE 9.0; Windows NT 6.1; Trident/5.0)
	ViewState: /wEPDwULLTE5MzE4NjY2MTgPZBYCZg9kFgoCAg8WAh4EaHJlZgUPYWRtaW5faG9tZS5hc3B4ZAIDDxYCHgV0aXRsZQWFAjx0YWJsZSA+DQo8dHIgPjx0ZCBzdHlsZT0iY29sb3I6I2ZmZmZmZiI+4LiE4Li44LiTIHN5c3RlbSBhZG1pbjwvdGQ+PC90cj4NCiAgICAgICAgICAgICAgICAgICAgICAgICAgICAgICA8dHI+PHRkICBzdHlsZT0iY29sb3I6I2ZmZmZmZiI+4Lir4LiZ4LmI4Lin4Lii4LiH4Liy4LiZIOC4quC5iOC4p+C4meC4o+C4sOC4muC4muC5geC4peC4sOC4m+C4o+C4sOC4oeC4p+C4peC4nOC4peC4geC4suC4o+C4guC4meC4quC5iOC4hzwvdGQ+PC90cj48L3RhYmxlPmQCBA8WAh4EVGV4dAXYATx0YWJsZSA+PHRyID48dGQgPuC4hOC4uOC4kyBzeXN0ZW0gYWRtaW48L3RkPjwvdHI+DQogICAgICAgICAgICAgICAgICAgICAgICAgICAgICAgPHRyPjx0ZCA+4Lir4LiZ4LmI4Lin4Lii4LiH4Liy4LiZIOC4quC5iOC4p+C4meC4o+C4sOC4muC4muC5geC4peC4sOC4m+C4o+C4sOC4oeC4p+C4peC4nOC4peC4geC4suC4o+C4guC4meC4quC5iOC4hzwvdGQ+PC90cj48L3RhYmxlPmQCBg9kFgJmD2QWAmYPZBYCAgEPFgIfAgXKMw0KICAgICAgICA...
Stack Trace: 
 
************************************************************************************************************************************************************************************************************************************************************************************************************************************************************************************************************************************************************************************************************************************************************************************************************************************************************************************************************************************************************************************************************************************************************************************************************************************************************************************************************************************************************************************************************************************

[14:50:18] :: 
Error Message: Cannot remove the specified item because it was not found in the specified Collection.
Stack Trace:    at System.Collections.CollectionBase.System.Collections.IList.Remove(Object value)
   at DevExpress.XtraReports.UI.XRControlCollectionBase.RemoveInternal(XRControl item)
   at DevExpress.XtraReports.UI.XRControlCollection.Remove(XRControl item)
   at rpt_DateProcess.xrTableCell31_BeforePrint(Object sender, PrintEventArgs e) in d:\Project\TMS\ASP.NET\App_Code\rpt_DateProcess.cs:line 583
   at DevExpress.XtraReports.UI.XRControl.OnBeforePrint(PrintEventArgs e)
   at DevExpress.XtraReports.UI.XRControl.GetPrintableBrick(XRWriteInfo writeInfo)
   at DevExpress.XtraReports.UI.XRControl.GetPrintableBrick(XRWriteInfo writeInfo)
   at DevExpress.XtraReports.UI.XRControl.GetPrintableBrick(XRWriteInfo writeInfo)
   at DevExpress.XtraReports.UI.XRControl.WriteContentTo(XRWriteInfo writeInfo)
   at DevExpress.XtraReports.UI.Band.GenerateContent(DocumentBand docBand, Int32 rowIndex, Boolean fireBeforePrint)
   at DevExpress.XtraReports.UI.Band.GenerateWithSubreports(DocumentBand docBand, Int32 rowIndex, Boolean fireBeforePrint, PageBuildInfo pageBuildInfo)
   at DevExpress.XtraReports.Native.SelfGeneratedDocumentBand..ctor(RootDocumentBand root, DocumentBandKind kind, Band band, Int32 rowIndex, Boolean fireBeforePrint, PageBuildInfo pageBuildInfo)
   at DevExpress.XtraReports.UI.Band.CreateDocumentBand(Int32 rowIndex, RootDocumentBand rootDocBand, PageBuildInfo pageBuildInfo)
   at DevExpress.XtraReports.UI.DetailBand.CreateDocumentBand(Int32 rowIndex, Int32 rowCount, RootDocumentBand rootDocBand, PageBuildInfo pageBuildInfo)
   at DevExpress.XtraReports.Native.Printing.DetailWriterBase.WriteDetailCore(PageBuildInfo pageBuildInfo)
   at DevExpress.XtraReports.Native.Printing.DetailWriterBase.Write(DocumentBand rootBand, PageBuildInfo pageBuildInfo)
   at DevExpress.XtraReports.Native.Printing.DocumentBuilder.GetBand(DocumentBand rootBand, PageBuildInfo pageBuildInfo)
   at DevExpress.XtraPrinting.Native.DocumentBand.GetBand(Int32 index, RectangleF bounds, PointF offset, Boolean forNextPage)
   at DevExpress.XtraPrinting.Native.DocumentBand.GetBand(Int32 index, RectangleF bounds, PointF offset)
   at DevExpress.XtraPrinting.Native.DocumentBand.GetBand(Int32 index)
   at DevExpress.XtraPrinting.Native.BuildInfoContainer.GetDetailContainer(DocumentBand rootBand, PageRowBuilderBase pageRowBuilderBase, RectangleF bounds)
   at DevExpress.XtraPrinting.Native.PageHeaderFooterRowBuilder.GetHeaderRowIndex(DocumentBand rootBand)
   at DevExpress.XtraPrinting.Native.PageHeaderFooterRowBuilderBase.FillPageHeader(DocumentBand rootBand, RectangleF bounds)
   at DevExpress.XtraPrinting.Native.PageHeaderFooterRowBuilderBase.FillReportDetailsAndFooter(DocumentBand rootBand, RectangleF bounds)
   at DevExpress.XtraPrinting.Native.PageRowBuilderBase.FillPage(DocumentBand rootBand, RectangleF bounds)
   at DevExpress.XtraPrinting.Native.PageBuildEngine.Build()
   at DevExpress.XtraPrinting.Native.PageBuildEngine.BuildPages(DocumentBand rootBand)
   at DevExpress.XtraPrinting.Native.DocumentHelper.BuildPagesCore()
   at DevExpress.XtraPrinting.Native.DocumentHelper.BuildPages()
   at DevExpress.XtraPrinting.Native.PrintingDocument.BuildPages()
   at DevExpress.XtraPrinting.Native.PrintingDocument.End(Boolean buildPagesInBackground)
   at DevExpress.XtraPrinting.PrintingSystemBase.End(Boolean buildPagesInBackground)
   at DevExpress.XtraReports.UI.XtraReport.CreateDocumentCore2(PrintingSystemBase ps, Single progressRange, Boolean buildPagesInBackground)
   at DevExpress.XtraReports.UI.XtraReport.CreateDocumentCore(Single progressRange, Boolean buildPagesInBackground)
   at DevExpress.XtraReports.UI.XtraReport.CreateDocument(Single progressRange, Boolean buildPagesInBackground)
   at DevExpress.XtraReports.UI.XtraReport.CreateIfEmpty(Single progressRange, Boolean buildPagesInBackground)
   at DevExpress.XtraReports.UI.XtraReport.CreateIfEmpty(Single progressRange)
   at DevExpress.XtraReports.UI.XtraReport.ExportToPdf(Stream stream, PdfExportOptions options)
   at DevExpress.XtraReports.UI.XtraReport.ExportToPdf(Stream stream)
   at ReportDateProcess.ListReport(String Type) in d:\Project\TMS\ASP.NET\ReportDateProcess.aspx.cs:line 205
   at ReportDateProcess.btnPDF_Click(Object sender, EventArgs e) in d:\Project\TMS\ASP.NET\ReportDateProcess.aspx.cs:line 228
   at DevExpress.Web.ASPxEditors.ASPxButton.OnClick(EventArgs e)
   at DevExpress.Web.ASPxEditors.ASPxButton.RaisePostBackEvent(String eventArgument)
   at DevExpress.Web.ASPxClasses.ASPxWebControl.System.Web.UI.IPostBackEventHandler.RaisePostBackEvent(String eventArgument)
   at System.Web.UI.Page.RaisePostBackEvent(IPostBackEventHandler sourceControl, String eventArgument)
   at System.Web.UI.Page.RaisePostBackEvent(NameValueCollection postData)
   at System.Web.UI.Page.ProcessRequestMain(Boolean includeStagesBeforeAsyncPoint, Boolean includeStagesAfterAsyncPoint)
 
******************************************************************************************************************************************************************************************************************************************************************************************************************************************************************************************************************************************************************************************************************************************************************************************************************************************************************************************************************************************************************************************************************************************************************************************************************************************************************************************************************************************************************************************************************************************************************************************************************************************************************************************************************************************************************************************************************************************************************************************************************************************************************************************************************************************************************************************************************************************************************************************************************************************************************************************************************************************************************************************************************************************************************************************************************************************************************************************************************************************************************************************************************************************************************************************************************************************************************************************************************************************************************************************************************************************************************************************************************************************************************************************************************************************************************************************************************************************************************************************************************************************************************************************************************************************************************************************************************************************************************************************************************************************************************************************************************************************************************************************************************************************************************************************************************************************************************************************************************************************************************************************************************************************************************************************************************************************************************************************************************************************************************************************************************************************************************************************************************************************************************************************************************************************************************************************************************************************************************************************************************************************************************************************************************************************************************************************************************************************************************************************************************************************************************************************************************************************************************************************************************************************************************************************************************************************************************************************************************************************************************

[15:51:49] :: 
Error Message: Invalid viewstate. 
	Client IP: ::1
	Port: 
	Referer: http://localhost:3155/ASP.NET/ReportDateProcess.aspx
	Path: /ASP.NET/ReportDateProcess.aspx
	User-Agent: Mozilla/5.0 (compatible; MSIE 9.0; Windows NT 6.1; Trident/5.0)
	ViewState: /wEPDwULLTE5MzE4NjY2MTgPZBYCZg9kFgoCAg8WAh4EaHJlZgUPYWRtaW5faG9tZS5hc3B4ZAIDDxYCHgV0aXRsZQWFAjx0YWJsZSA+DQo8dHIgPjx0ZCBzdHlsZT0iY29sb3I6I2ZmZmZmZiI+4LiE4Li44LiTIHN5c3RlbSBhZG1pbjwvdGQ+PC90cj4NCiAgICAgICAgICAgICAgICAgICAgICAgICAgICAgICA8dHI+PHRkICBzdHlsZT0iY29sb3I6I2ZmZmZmZiI+4Lir4LiZ4LmI4Lin4Lii4LiH4Liy4LiZIOC4quC5iOC4p+C4meC4o+C4sOC4muC4muC5geC4peC4sOC4m+C4o+C4sOC4oeC4p+C4peC4nOC4peC4geC4suC4o+C4guC4meC4quC5iOC4hzwvdGQ+PC90cj48L3RhYmxlPmQCBA8WAh4EVGV4dAXYATx0YWJsZSA+PHRyID48dGQgPuC4hOC4uOC4kyBzeXN0ZW0gYWRtaW48L3RkPjwvdHI+DQogICAgICAgICAgICAgICAgICAgICAgICAgICAgICAgPHRyPjx0ZCA+4Lir4LiZ4LmI4Lin4Lii4LiH4Liy4LiZIOC4quC5iOC4p+C4meC4o+C4sOC4muC4muC5geC4peC4sOC4m+C4o+C4sOC4oeC4p+C4peC4nOC4peC4geC4suC4o+C4guC4meC4quC5iOC4hzwvdGQ+PC90cj48L3RhYmxlPmQCBg9kFgJmD2QWAmYPZBYCAgEPFgIfAgXKMw0KICAgICAgICA...
Stack Trace: 
 
************************************************************************************************************************************************************************************************************************************************************************************************************************************************************************************************************************************************************************************************************************************************************************************************************************************************************************************************************************************************************************************************************************************************************************************************************************************************************************************************************************************************************************************************************************************

[18:30:56] :: 
Error Message: d:\Project\TMS\ASP.NET\Font\cordia.ttf not found as file or resource.
Stack Trace:    at iTextSharp.text.pdf.RandomAccessFileOrArray..ctor(String filename, Boolean forceRead)
   at iTextSharp.text.pdf.TrueTypeFont.Process(Byte[] ttfAfm)
   at iTextSharp.text.pdf.TrueTypeFontUnicode..ctor(String ttFile, String enc, Boolean emb, Byte[] ttfAfm)
   at iTextSharp.text.pdf.BaseFont.CreateFont(String name, String encoding, Boolean embedded, Boolean cached, Byte[] ttfAfm, Byte[] pfb)
   at iTextSharp.text.pdf.BaseFont.CreateFont(String name, String encoding, Boolean embedded)
   at ReportDateProcess.ExportToPdf() in d:\Project\TMS\ASP.NET\ReportDateProcess.aspx.cs:line 452
   at ReportDateProcess.btnPDF_Click(Object sender, EventArgs e) in d:\Project\TMS\ASP.NET\ReportDateProcess.aspx.cs:line 232
   at DevExpress.Web.ASPxEditors.ASPxButton.OnClick(EventArgs e)
   at DevExpress.Web.ASPxEditors.ASPxButton.RaisePostBackEvent(String eventArgument)
   at DevExpress.Web.ASPxClasses.ASPxWebControl.System.Web.UI.IPostBackEventHandler.RaisePostBackEvent(String eventArgument)
   at System.Web.UI.Page.RaisePostBackEvent(IPostBackEventHandler sourceControl, String eventArgument)
   at System.Web.UI.Page.RaisePostBackEvent(NameValueCollection postData)
   at System.Web.UI.Page.ProcessRequestMain(Boolean includeStagesBeforeAsyncPoint, Boolean includeStagesAfterAsyncPoint)
 
***************************************************************************************************************************************************************************************************************************************************************************************************************************************************************************************************************************************************************************************************************************************************************************************************************************************************************************************************************************************************************************************************************************************************************************************************************************************************************************************************************************************************************************************************************************************************************************************************************************************************************************************************************************************************************************************************************************************************************************

[18:34:05] :: 
Error Message: Font 'tahoma' with 'Identity-H' is not recognized.
Stack Trace:    at iTextSharp.text.pdf.BaseFont.CreateFont(String name, String encoding, Boolean embedded, Boolean cached, Byte[] ttfAfm, Byte[] pfb)
   at iTextSharp.text.pdf.BaseFont.CreateFont(String name, String encoding, Boolean embedded)
   at ReportDateProcess.ExportToPdf() in d:\Project\TMS\ASP.NET\ReportDateProcess.aspx.cs:line 452
   at ReportDateProcess.btnPDF_Click(Object sender, EventArgs e) in d:\Project\TMS\ASP.NET\ReportDateProcess.aspx.cs:line 232
   at DevExpress.Web.ASPxEditors.ASPxButton.OnClick(EventArgs e)
   at DevExpress.Web.ASPxEditors.ASPxButton.RaisePostBackEvent(String eventArgument)
   at DevExpress.Web.ASPxClasses.ASPxWebControl.System.Web.UI.IPostBackEventHandler.RaisePostBackEvent(String eventArgument)
   at System.Web.UI.Page.RaisePostBackEvent(IPostBackEventHandler sourceControl, String eventArgument)
   at System.Web.UI.Page.RaisePostBackEvent(NameValueCollection postData)
   at System.Web.UI.Page.ProcessRequestMain(Boolean includeStagesBeforeAsyncPoint, Boolean includeStagesAfterAsyncPoint)
 
********************************************************************************************************************************************************************************************************************************************************************************************************************************************************************************************************************************************************************************************************************************************************************************************************************************************************************************************************************************************************************************************************************************************************************************************************************************************************************************************************************************************************************************************************************************************************************************

[18:36:09] :: 
Error Message: Font 'tahoma' with 'Identity-H' is not recognized.
Stack Trace:    at iTextSharp.text.pdf.BaseFont.CreateFont(String name, String encoding, Boolean embedded, Boolean cached, Byte[] ttfAfm, Byte[] pfb)
   at iTextSharp.text.pdf.BaseFont.CreateFont(String name, String encoding, Boolean embedded)
   at ReportDateProcess.ExportToPdf() in d:\Project\TMS\ASP.NET\ReportDateProcess.aspx.cs:line 452
   at ReportDateProcess.btnPDF_Click(Object sender, EventArgs e) in d:\Project\TMS\ASP.NET\ReportDateProcess.aspx.cs:line 232
   at DevExpress.Web.ASPxEditors.ASPxButton.OnClick(EventArgs e)
   at DevExpress.Web.ASPxEditors.ASPxButton.RaisePostBackEvent(String eventArgument)
   at DevExpress.Web.ASPxClasses.ASPxWebControl.System.Web.UI.IPostBackEventHandler.RaisePostBackEvent(String eventArgument)
   at System.Web.UI.Page.RaisePostBackEvent(IPostBackEventHandler sourceControl, String eventArgument)
   at System.Web.UI.Page.RaisePostBackEvent(NameValueCollection postData)
   at System.Web.UI.Page.ProcessRequestMain(Boolean includeStagesBeforeAsyncPoint, Boolean includeStagesAfterAsyncPoint)
 
********************************************************************************************************************************************************************************************************************************************************************************************************************************************************************************************************************************************************************************************************************************************************************************************************************************************************************************************************************************************************************************************************************************************************************************************************************************************************************************************************************************************************************************************************************************************************************************

[18:36:26] :: 
Error Message: Font 'Tahoma' with 'Identity-H' is not recognized.
Stack Trace:    at iTextSharp.text.pdf.BaseFont.CreateFont(String name, String encoding, Boolean embedded, Boolean cached, Byte[] ttfAfm, Byte[] pfb)
   at iTextSharp.text.pdf.BaseFont.CreateFont(String name, String encoding, Boolean embedded)
   at ReportDateProcess.ExportToPdf() in d:\Project\TMS\ASP.NET\ReportDateProcess.aspx.cs:line 452
   at ReportDateProcess.btnPDF_Click(Object sender, EventArgs e) in d:\Project\TMS\ASP.NET\ReportDateProcess.aspx.cs:line 232
   at DevExpress.Web.ASPxEditors.ASPxButton.OnClick(EventArgs e)
   at DevExpress.Web.ASPxEditors.ASPxButton.RaisePostBackEvent(String eventArgument)
   at DevExpress.Web.ASPxClasses.ASPxWebControl.System.Web.UI.IPostBackEventHandler.RaisePostBackEvent(String eventArgument)
   at System.Web.UI.Page.RaisePostBackEvent(IPostBackEventHandler sourceControl, String eventArgument)
   at System.Web.UI.Page.RaisePostBackEvent(NameValueCollection postData)
   at System.Web.UI.Page.ProcessRequestMain(Boolean includeStagesBeforeAsyncPoint, Boolean includeStagesAfterAsyncPoint)
 
********************************************************************************************************************************************************************************************************************************************************************************************************************************************************************************************************************************************************************************************************************************************************************************************************************************************************************************************************************************************************************************************************************************************************************************************************************************************************************************************************************************************************************************************************************************************************************************

[19:06:09] :: 
Error Message: A page can have only one server-side Form tag.
Stack Trace:    at System.Web.UI.Page.OnFormRender()
   at System.Web.UI.HtmlControls.HtmlForm.RenderChildren(HtmlTextWriter writer)
   at System.Web.UI.HtmlControls.HtmlContainerControl.Render(HtmlTextWriter writer)
   at System.Web.UI.HtmlControls.HtmlForm.Render(HtmlTextWriter output)
   at System.Web.UI.Control.RenderControlInternal(HtmlTextWriter writer, ControlAdapter adapter)
   at System.Web.UI.Control.RenderControl(HtmlTextWriter writer, ControlAdapter adapter)
   at System.Web.UI.HtmlControls.HtmlForm.RenderControl(HtmlTextWriter writer)
   at ASP.mp_master.__Render__control1(HtmlTextWriter __w, Control parameterContainer) in d:\Project\TMS\ASP.NET\MP.master:line 76
   at System.Web.UI.Control.RenderChildrenInternal(HtmlTextWriter writer, ICollection children)
   at System.Web.UI.Control.RenderChildren(HtmlTextWriter writer)
   at System.Web.UI.Control.Render(HtmlTextWriter writer)
   at System.Web.UI.Control.RenderControlInternal(HtmlTextWriter writer, ControlAdapter adapter)
   at System.Web.UI.Control.RenderControl(HtmlTextWriter writer, ControlAdapter adapter)
   at System.Web.UI.Control.RenderControl(HtmlTextWriter writer)
   at System.Web.UI.Control.RenderChildrenInternal(HtmlTextWriter writer, ICollection children)
   at System.Web.UI.Control.RenderChildren(HtmlTextWriter writer)
   at System.Web.UI.Page.Render(HtmlTextWriter writer)
   at System.Web.UI.Control.RenderControlInternal(HtmlTextWriter writer, ControlAdapter adapter)
   at System.Web.UI.Control.RenderControl(HtmlTextWriter writer, ControlAdapter adapter)
   at System.Web.UI.Control.RenderControl(HtmlTextWriter writer)
   at System.Web.UI.Page.ProcessRequestMain(Boolean includeStagesBeforeAsyncPoint, Boolean includeStagesAfterAsyncPoint)
 
**********************************************************************************************************************************************************************************************************************************************************************************************************************************************************************************************************************************************************************************************************************************************************************************************************************************************************************************************************************************************************************************************************************************************************************************************************************************************************************************************************************************************************************************************************************************************************************************************************************************************************************************************************************************************************************************************************************************************************************************************************************************************************************************************************************************************************************************************************************************************************************************************************************************************************************************************************************

[19:06:29] :: 
Error Message: A page can have only one server-side Form tag.
Stack Trace:    at System.Web.UI.Page.OnFormRender()
   at System.Web.UI.HtmlControls.HtmlForm.RenderChildren(HtmlTextWriter writer)
   at System.Web.UI.HtmlControls.HtmlContainerControl.Render(HtmlTextWriter writer)
   at System.Web.UI.HtmlControls.HtmlForm.Render(HtmlTextWriter output)
   at System.Web.UI.Control.RenderControlInternal(HtmlTextWriter writer, ControlAdapter adapter)
   at System.Web.UI.Control.RenderControl(HtmlTextWriter writer, ControlAdapter adapter)
   at System.Web.UI.HtmlControls.HtmlForm.RenderControl(HtmlTextWriter writer)
   at ASP.mp_master.__Render__control1(HtmlTextWriter __w, Control parameterContainer) in d:\Project\TMS\ASP.NET\MP.master:line 76
   at System.Web.UI.Control.RenderChildrenInternal(HtmlTextWriter writer, ICollection children)
   at System.Web.UI.Control.RenderChildren(HtmlTextWriter writer)
   at System.Web.UI.Control.Render(HtmlTextWriter writer)
   at System.Web.UI.Control.RenderControlInternal(HtmlTextWriter writer, ControlAdapter adapter)
   at System.Web.UI.Control.RenderControl(HtmlTextWriter writer, ControlAdapter adapter)
   at System.Web.UI.Control.RenderControl(HtmlTextWriter writer)
   at System.Web.UI.Control.RenderChildrenInternal(HtmlTextWriter writer, ICollection children)
   at System.Web.UI.Control.RenderChildren(HtmlTextWriter writer)
   at System.Web.UI.Page.Render(HtmlTextWriter writer)
   at System.Web.UI.Control.RenderControlInternal(HtmlTextWriter writer, ControlAdapter adapter)
   at System.Web.UI.Control.RenderControl(HtmlTextWriter writer, ControlAdapter adapter)
   at System.Web.UI.Control.RenderControl(HtmlTextWriter writer)
   at System.Web.UI.Page.ProcessRequestMain(Boolean includeStagesBeforeAsyncPoint, Boolean includeStagesAfterAsyncPoint)
 
**********************************************************************************************************************************************************************************************************************************************************************************************************************************************************************************************************************************************************************************************************************************************************************************************************************************************************************************************************************************************************************************************************************************************************************************************************************************************************************************************************************************************************************************************************************************************************************************************************************************************************************************************************************************************************************************************************************************************************************************************************************************************************************************************************************************************************************************************************************************************************************************************************************************************************************************************************************

[19:07:12] :: 
Error Message: A page can have only one server-side Form tag.
Stack Trace:    at System.Web.UI.Page.OnFormRender()
   at System.Web.UI.HtmlControls.HtmlForm.RenderChildren(HtmlTextWriter writer)
   at System.Web.UI.HtmlControls.HtmlContainerControl.Render(HtmlTextWriter writer)
   at System.Web.UI.HtmlControls.HtmlForm.Render(HtmlTextWriter output)
   at System.Web.UI.Control.RenderControlInternal(HtmlTextWriter writer, ControlAdapter adapter)
   at System.Web.UI.Control.RenderControl(HtmlTextWriter writer, ControlAdapter adapter)
   at System.Web.UI.HtmlControls.HtmlForm.RenderControl(HtmlTextWriter writer)
   at ASP.mp_master.__Render__control1(HtmlTextWriter __w, Control parameterContainer) in d:\Project\TMS\ASP.NET\MP.master:line 76
   at System.Web.UI.Control.RenderChildrenInternal(HtmlTextWriter writer, ICollection children)
   at System.Web.UI.Control.RenderChildren(HtmlTextWriter writer)
   at System.Web.UI.Control.Render(HtmlTextWriter writer)
   at System.Web.UI.Control.RenderControlInternal(HtmlTextWriter writer, ControlAdapter adapter)
   at System.Web.UI.Control.RenderControl(HtmlTextWriter writer, ControlAdapter adapter)
   at System.Web.UI.Control.RenderControl(HtmlTextWriter writer)
   at System.Web.UI.Control.RenderChildrenInternal(HtmlTextWriter writer, ICollection children)
   at System.Web.UI.Control.RenderChildren(HtmlTextWriter writer)
   at System.Web.UI.Page.Render(HtmlTextWriter writer)
   at System.Web.UI.Control.RenderControlInternal(HtmlTextWriter writer, ControlAdapter adapter)
   at System.Web.UI.Control.RenderControl(HtmlTextWriter writer, ControlAdapter adapter)
   at System.Web.UI.Control.RenderControl(HtmlTextWriter writer)
   at System.Web.UI.Page.ProcessRequestMain(Boolean includeStagesBeforeAsyncPoint, Boolean includeStagesAfterAsyncPoint)
 
**********************************************************************************************************************************************************************************************************************************************************************************************************************************************************************************************************************************************************************************************************************************************************************************************************************************************************************************************************************************************************************************************************************************************************************************************************************************************************************************************************************************************************************************************************************************************************************************************************************************************************************************************************************************************************************************************************************************************************************************************************************************************************************************************************************************************************************************************************************************************************************************************************************************************************************************************************************

[19:07:16] :: 
Error Message: A page can have only one server-side Form tag.
Stack Trace:    at System.Web.UI.Page.OnFormRender()
   at System.Web.UI.HtmlControls.HtmlForm.RenderChildren(HtmlTextWriter writer)
   at System.Web.UI.HtmlControls.HtmlContainerControl.Render(HtmlTextWriter writer)
   at System.Web.UI.HtmlControls.HtmlForm.Render(HtmlTextWriter output)
   at System.Web.UI.Control.RenderControlInternal(HtmlTextWriter writer, ControlAdapter adapter)
   at System.Web.UI.Control.RenderControl(HtmlTextWriter writer, ControlAdapter adapter)
   at System.Web.UI.HtmlControls.HtmlForm.RenderControl(HtmlTextWriter writer)
   at ASP.mp_master.__Render__control1(HtmlTextWriter __w, Control parameterContainer) in d:\Project\TMS\ASP.NET\MP.master:line 76
   at System.Web.UI.Control.RenderChildrenInternal(HtmlTextWriter writer, ICollection children)
   at System.Web.UI.Control.RenderChildren(HtmlTextWriter writer)
   at System.Web.UI.Control.Render(HtmlTextWriter writer)
   at System.Web.UI.Control.RenderControlInternal(HtmlTextWriter writer, ControlAdapter adapter)
   at System.Web.UI.Control.RenderControl(HtmlTextWriter writer, ControlAdapter adapter)
   at System.Web.UI.Control.RenderControl(HtmlTextWriter writer)
   at System.Web.UI.Control.RenderChildrenInternal(HtmlTextWriter writer, ICollection children)
   at System.Web.UI.Control.RenderChildren(HtmlTextWriter writer)
   at System.Web.UI.Page.Render(HtmlTextWriter writer)
   at System.Web.UI.Control.RenderControlInternal(HtmlTextWriter writer, ControlAdapter adapter)
   at System.Web.UI.Control.RenderControl(HtmlTextWriter writer, ControlAdapter adapter)
   at System.Web.UI.Control.RenderControl(HtmlTextWriter writer)
   at System.Web.UI.Page.ProcessRequestMain(Boolean includeStagesBeforeAsyncPoint, Boolean includeStagesAfterAsyncPoint)
 
**********************************************************************************************************************************************************************************************************************************************************************************************************************************************************************************************************************************************************************************************************************************************************************************************************************************************************************************************************************************************************************************************************************************************************************************************************************************************************************************************************************************************************************************************************************************************************************************************************************************************************************************************************************************************************************************************************************************************************************************************************************************************************************************************************************************************************************************************************************************************************************************************************************************************************************************************************************

[19:08:05] :: 
Error Message: A page can have only one server-side Form tag.
Stack Trace:    at System.Web.UI.Page.OnFormRender()
   at System.Web.UI.HtmlControls.HtmlForm.RenderChildren(HtmlTextWriter writer)
   at System.Web.UI.HtmlControls.HtmlContainerControl.Render(HtmlTextWriter writer)
   at System.Web.UI.HtmlControls.HtmlForm.Render(HtmlTextWriter output)
   at System.Web.UI.Control.RenderControlInternal(HtmlTextWriter writer, ControlAdapter adapter)
   at System.Web.UI.Control.RenderControl(HtmlTextWriter writer, ControlAdapter adapter)
   at System.Web.UI.HtmlControls.HtmlForm.RenderControl(HtmlTextWriter writer)
   at ASP.mp_master.__Render__control1(HtmlTextWriter __w, Control parameterContainer) in d:\Project\TMS\ASP.NET\MP.master:line 76
   at System.Web.UI.Control.RenderChildrenInternal(HtmlTextWriter writer, ICollection children)
   at System.Web.UI.Control.RenderChildren(HtmlTextWriter writer)
   at System.Web.UI.Control.Render(HtmlTextWriter writer)
   at System.Web.UI.Control.RenderControlInternal(HtmlTextWriter writer, ControlAdapter adapter)
   at System.Web.UI.Control.RenderControl(HtmlTextWriter writer, ControlAdapter adapter)
   at System.Web.UI.Control.RenderControl(HtmlTextWriter writer)
   at System.Web.UI.Control.RenderChildrenInternal(HtmlTextWriter writer, ICollection children)
   at System.Web.UI.Control.RenderChildren(HtmlTextWriter writer)
   at System.Web.UI.Page.Render(HtmlTextWriter writer)
   at System.Web.UI.Control.RenderControlInternal(HtmlTextWriter writer, ControlAdapter adapter)
   at System.Web.UI.Control.RenderControl(HtmlTextWriter writer, ControlAdapter adapter)
   at System.Web.UI.Control.RenderControl(HtmlTextWriter writer)
   at System.Web.UI.Page.ProcessRequestMain(Boolean includeStagesBeforeAsyncPoint, Boolean includeStagesAfterAsyncPoint)
 
**********************************************************************************************************************************************************************************************************************************************************************************************************************************************************************************************************************************************************************************************************************************************************************************************************************************************************************************************************************************************************************************************************************************************************************************************************************************************************************************************************************************************************************************************************************************************************************************************************************************************************************************************************************************************************************************************************************************************************************************************************************************************************************************************************************************************************************************************************************************************************************************************************************************************************************************************************************

[19:10:07] :: 
Error Message: A page can have only one server-side Form tag.
Stack Trace:    at System.Web.UI.Page.OnFormRender()
   at System.Web.UI.HtmlControls.HtmlForm.RenderChildren(HtmlTextWriter writer)
   at System.Web.UI.HtmlControls.HtmlContainerControl.Render(HtmlTextWriter writer)
   at System.Web.UI.HtmlControls.HtmlForm.Render(HtmlTextWriter output)
   at System.Web.UI.Control.RenderControlInternal(HtmlTextWriter writer, ControlAdapter adapter)
   at System.Web.UI.Control.RenderControl(HtmlTextWriter writer, ControlAdapter adapter)
   at System.Web.UI.HtmlControls.HtmlForm.RenderControl(HtmlTextWriter writer)
   at ASP.mp_master.__Render__control1(HtmlTextWriter __w, Control parameterContainer) in d:\Project\TMS\ASP.NET\MP.master:line 76
   at System.Web.UI.Control.RenderChildrenInternal(HtmlTextWriter writer, ICollection children)
   at System.Web.UI.Control.RenderChildren(HtmlTextWriter writer)
   at System.Web.UI.Control.Render(HtmlTextWriter writer)
   at System.Web.UI.Control.RenderControlInternal(HtmlTextWriter writer, ControlAdapter adapter)
   at System.Web.UI.Control.RenderControl(HtmlTextWriter writer, ControlAdapter adapter)
   at System.Web.UI.Control.RenderControl(HtmlTextWriter writer)
   at System.Web.UI.Control.RenderChildrenInternal(HtmlTextWriter writer, ICollection children)
   at System.Web.UI.Control.RenderChildren(HtmlTextWriter writer)
   at System.Web.UI.Page.Render(HtmlTextWriter writer)
   at System.Web.UI.Control.RenderControlInternal(HtmlTextWriter writer, ControlAdapter adapter)
   at System.Web.UI.Control.RenderControl(HtmlTextWriter writer, ControlAdapter adapter)
   at System.Web.UI.Control.RenderControl(HtmlTextWriter writer)
   at System.Web.UI.Page.ProcessRequestMain(Boolean includeStagesBeforeAsyncPoint, Boolean includeStagesAfterAsyncPoint)
 
**********************************************************************************************************************************************************************************************************************************************************************************************************************************************************************************************************************************************************************************************************************************************************************************************************************************************************************************************************************************************************************************************************************************************************************************************************************************************************************************************************************************************************************************************************************************************************************************************************************************************************************************************************************************************************************************************************************************************************************************************************************************************************************************************************************************************************************************************************************************************************************************************************************************************************************************************************************

[19:10:20] :: 
Error Message: A page can have only one server-side Form tag.
Stack Trace:    at System.Web.UI.Page.OnFormRender()
   at System.Web.UI.HtmlControls.HtmlForm.RenderChildren(HtmlTextWriter writer)
   at System.Web.UI.HtmlControls.HtmlContainerControl.Render(HtmlTextWriter writer)
   at System.Web.UI.HtmlControls.HtmlForm.Render(HtmlTextWriter output)
   at System.Web.UI.Control.RenderControlInternal(HtmlTextWriter writer, ControlAdapter adapter)
   at System.Web.UI.Control.RenderControl(HtmlTextWriter writer, ControlAdapter adapter)
   at System.Web.UI.HtmlControls.HtmlForm.RenderControl(HtmlTextWriter writer)
   at ASP.mp_master.__Render__control1(HtmlTextWriter __w, Control parameterContainer) in d:\Project\TMS\ASP.NET\MP.master:line 76
   at System.Web.UI.Control.RenderChildrenInternal(HtmlTextWriter writer, ICollection children)
   at System.Web.UI.Control.RenderChildren(HtmlTextWriter writer)
   at System.Web.UI.Control.Render(HtmlTextWriter writer)
   at System.Web.UI.Control.RenderControlInternal(HtmlTextWriter writer, ControlAdapter adapter)
   at System.Web.UI.Control.RenderControl(HtmlTextWriter writer, ControlAdapter adapter)
   at System.Web.UI.Control.RenderControl(HtmlTextWriter writer)
   at System.Web.UI.Control.RenderChildrenInternal(HtmlTextWriter writer, ICollection children)
   at System.Web.UI.Control.RenderChildren(HtmlTextWriter writer)
   at System.Web.UI.Page.Render(HtmlTextWriter writer)
   at System.Web.UI.Control.RenderControlInternal(HtmlTextWriter writer, ControlAdapter adapter)
   at System.Web.UI.Control.RenderControl(HtmlTextWriter writer, ControlAdapter adapter)
   at System.Web.UI.Control.RenderControl(HtmlTextWriter writer)
   at System.Web.UI.Page.ProcessRequestMain(Boolean includeStagesBeforeAsyncPoint, Boolean includeStagesAfterAsyncPoint)
 
**********************************************************************************************************************************************************************************************************************************************************************************************************************************************************************************************************************************************************************************************************************************************************************************************************************************************************************************************************************************************************************************************************************************************************************************************************************************************************************************************************************************************************************************************************************************************************************************************************************************************************************************************************************************************************************************************************************************************************************************************************************************************************************************************************************************************************************************************************************************************************************************************************************************************************************************************************************

[19:10:49] :: 
Error Message: A page can have only one server-side Form tag.
Stack Trace:    at System.Web.UI.Page.OnFormRender()
   at System.Web.UI.HtmlControls.HtmlForm.RenderChildren(HtmlTextWriter writer)
   at System.Web.UI.HtmlControls.HtmlContainerControl.Render(HtmlTextWriter writer)
   at System.Web.UI.HtmlControls.HtmlForm.Render(HtmlTextWriter output)
   at System.Web.UI.Control.RenderControlInternal(HtmlTextWriter writer, ControlAdapter adapter)
   at System.Web.UI.Control.RenderControl(HtmlTextWriter writer, ControlAdapter adapter)
   at System.Web.UI.HtmlControls.HtmlForm.RenderControl(HtmlTextWriter writer)
   at ASP.mp_master.__Render__control1(HtmlTextWriter __w, Control parameterContainer) in d:\Project\TMS\ASP.NET\MP.master:line 76
   at System.Web.UI.Control.RenderChildrenInternal(HtmlTextWriter writer, ICollection children)
   at System.Web.UI.Control.RenderChildren(HtmlTextWriter writer)
   at System.Web.UI.Control.Render(HtmlTextWriter writer)
   at System.Web.UI.Control.RenderControlInternal(HtmlTextWriter writer, ControlAdapter adapter)
   at System.Web.UI.Control.RenderControl(HtmlTextWriter writer, ControlAdapter adapter)
   at System.Web.UI.Control.RenderControl(HtmlTextWriter writer)
   at System.Web.UI.Control.RenderChildrenInternal(HtmlTextWriter writer, ICollection children)
   at System.Web.UI.Control.RenderChildren(HtmlTextWriter writer)
   at System.Web.UI.Page.Render(HtmlTextWriter writer)
   at System.Web.UI.Control.RenderControlInternal(HtmlTextWriter writer, ControlAdapter adapter)
   at System.Web.UI.Control.RenderControl(HtmlTextWriter writer, ControlAdapter adapter)
   at System.Web.UI.Control.RenderControl(HtmlTextWriter writer)
   at System.Web.UI.Page.ProcessRequestMain(Boolean includeStagesBeforeAsyncPoint, Boolean includeStagesAfterAsyncPoint)
 
**********************************************************************************************************************************************************************************************************************************************************************************************************************************************************************************************************************************************************************************************************************************************************************************************************************************************************************************************************************************************************************************************************************************************************************************************************************************************************************************************************************************************************************************************************************************************************************************************************************************************************************************************************************************************************************************************************************************************************************************************************************************************************************************************************************************************************************************************************************************************************************************************************************************************************************************************************************

[19:11:29] :: 
Error Message: A page can have only one server-side Form tag.
Stack Trace:    at System.Web.UI.Page.OnFormRender()
   at System.Web.UI.HtmlControls.HtmlForm.RenderChildren(HtmlTextWriter writer)
   at System.Web.UI.HtmlControls.HtmlContainerControl.Render(HtmlTextWriter writer)
   at System.Web.UI.HtmlControls.HtmlForm.Render(HtmlTextWriter output)
   at System.Web.UI.Control.RenderControlInternal(HtmlTextWriter writer, ControlAdapter adapter)
   at System.Web.UI.Control.RenderControl(HtmlTextWriter writer, ControlAdapter adapter)
   at System.Web.UI.HtmlControls.HtmlForm.RenderControl(HtmlTextWriter writer)
   at ASP.mp_master.__Render__control1(HtmlTextWriter __w, Control parameterContainer) in d:\Project\TMS\ASP.NET\MP.master:line 76
   at System.Web.UI.Control.RenderChildrenInternal(HtmlTextWriter writer, ICollection children)
   at System.Web.UI.Control.RenderChildren(HtmlTextWriter writer)
   at System.Web.UI.Control.Render(HtmlTextWriter writer)
   at System.Web.UI.Control.RenderControlInternal(HtmlTextWriter writer, ControlAdapter adapter)
   at System.Web.UI.Control.RenderControl(HtmlTextWriter writer, ControlAdapter adapter)
   at System.Web.UI.Control.RenderControl(HtmlTextWriter writer)
   at System.Web.UI.Control.RenderChildrenInternal(HtmlTextWriter writer, ICollection children)
   at System.Web.UI.Control.RenderChildren(HtmlTextWriter writer)
   at System.Web.UI.Page.Render(HtmlTextWriter writer)
   at System.Web.UI.Control.RenderControlInternal(HtmlTextWriter writer, ControlAdapter adapter)
   at System.Web.UI.Control.RenderControl(HtmlTextWriter writer, ControlAdapter adapter)
   at System.Web.UI.Control.RenderControl(HtmlTextWriter writer)
   at System.Web.UI.Page.ProcessRequestMain(Boolean includeStagesBeforeAsyncPoint, Boolean includeStagesAfterAsyncPoint)
 
**********************************************************************************************************************************************************************************************************************************************************************************************************************************************************************************************************************************************************************************************************************************************************************************************************************************************************************************************************************************************************************************************************************************************************************************************************************************************************************************************************************************************************************************************************************************************************************************************************************************************************************************************************************************************************************************************************************************************************************************************************************************************************************************************************************************************************************************************************************************************************************************************************************************************************************************************************************

