[11:16:13] :: 
Error Message: ORA-00905: missing keyword

Stack Trace:    at System.Data.OracleClient.OracleConnection.CheckError(OciErrorHandle errorHandle, Int32 rc)
   at System.Data.OracleClient.OracleCommand.Execute(OciStatementHandle statementHandle, CommandBehavior behavior, Boolean needRowid, OciRowidDescriptor& rowidDescriptor, ArrayList& resultParameterOrdinals)
   at System.Data.OracleClient.OracleCommand.Execute(OciStatementHandle statementHandle, CommandBehavior behavior, ArrayList& resultParameterOrdinals)
   at System.Data.OracleClient.OracleCommand.ExecuteReader(CommandBehavior behavior)
   at System.Data.OracleClient.OracleCommand.ExecuteDbDataReader(CommandBehavior behavior)
   at System.Data.Common.DbCommand.System.Data.IDbCommand.ExecuteReader(CommandBehavior behavior)
   at System.Data.Common.DbDataAdapter.FillInternal(DataSet dataset, DataTable[] datatables, Int32 startRecord, Int32 maxRecords, String srcTable, IDbCommand command, CommandBehavior behavior)
   at System.Data.Common.DbDataAdapter.Fill(DataSet dataSet, Int32 startRecord, Int32 maxRecords, String srcTable, IDbCommand command, CommandBehavior behavior)
   at System.Data.Common.DbDataAdapter.Fill(DataSet dataSet, String srcTable)
   at System.Web.UI.WebControls.SqlDataSourceView.ExecuteSelect(DataSourceSelectArguments arguments)
   at System.Web.UI.DataSourceView.Select(DataSourceSelectArguments arguments, DataSourceViewSelectCallback callback)
   at DevExpress.Web.ASPxClasses.Internal.DataHelper.PerformSelect()
   at DevExpress.Web.ASPxGridView.GridViewDataHelper.PerformSelect()
   at DevExpress.Web.ASPxClasses.Internal.DataContainer.PerformSelect()
   at DevExpress.Web.ASPxClasses.ASPxDataWebControlBase.DataBindCore()
   at DevExpress.Web.ASPxClasses.ASPxDataWebControlBase.DataBindInternal()
   at DevExpress.Web.ASPxClasses.ASPxWebControl.DataBind()
   at DevExpress.Web.ASPxGridView.ASPxGridView.DataBind()
   at admin_Complain_lst.BindData() in c:\Work\PTT\TMS\SourceCode\WEB_TMS\WEB_TMS\admin_Complain_lst.aspx.cs:line 318
   at admin_Complain_lst.xcpn_Load(Object sender, EventArgs e) in c:\Work\PTT\TMS\SourceCode\WEB_TMS\WEB_TMS\admin_Complain_lst.aspx.cs:line 117
   at System.Web.UI.Control.OnLoad(EventArgs e)
   at DevExpress.Web.ASPxClasses.ASPxWebControlBase.OnLoad(EventArgs e)
   at DevExpress.Web.ASPxClasses.ASPxWebControl.OnLoad(EventArgs e)
   at System.Web.UI.Control.LoadRecursive()
   at System.Web.UI.Control.LoadRecursive()
   at System.Web.UI.Control.LoadRecursive()
   at System.Web.UI.Control.LoadRecursive()
   at System.Web.UI.Control.LoadRecursive()
   at System.Web.UI.Page.ProcessRequestMain(Boolean includeStagesBeforeAsyncPoint, Boolean includeStagesAfterAsyncPoint)
 
************************************************************************************************************************************************************************************************************************************************************************************************************************************************************************************************************************************************************************************************************************************************************************************************************************************************************************************************************************************************************************************************************************************************************************************************************************************************************************************************************************************************************************************************************************************************************************************************************************************************************************************************************************************************************************************************************************************************************************************************************************************************************************************************************************************************************************************************************************************************************************************************************************************************************************************************************************************************************************************************************************************************************************************************************************************************************************************************************************************************************************************************************************************************************************************************************************************************************************************************************************************************************************************************************************************************************************************************************************************************************************************************************************************************************

[11:16:46] :: 
Error Message: ORA-00905: missing keyword

Stack Trace:    at System.Data.OracleClient.OracleConnection.CheckError(OciErrorHandle errorHandle, Int32 rc)
   at System.Data.OracleClient.OracleCommand.Execute(OciStatementHandle statementHandle, CommandBehavior behavior, Boolean needRowid, OciRowidDescriptor& rowidDescriptor, ArrayList& resultParameterOrdinals)
   at System.Data.OracleClient.OracleCommand.Execute(OciStatementHandle statementHandle, CommandBehavior behavior, ArrayList& resultParameterOrdinals)
   at System.Data.OracleClient.OracleCommand.ExecuteReader(CommandBehavior behavior)
   at System.Data.OracleClient.OracleCommand.ExecuteDbDataReader(CommandBehavior behavior)
   at System.Data.Common.DbCommand.System.Data.IDbCommand.ExecuteReader(CommandBehavior behavior)
   at System.Data.Common.DbDataAdapter.FillInternal(DataSet dataset, DataTable[] datatables, Int32 startRecord, Int32 maxRecords, String srcTable, IDbCommand command, CommandBehavior behavior)
   at System.Data.Common.DbDataAdapter.Fill(DataSet dataSet, Int32 startRecord, Int32 maxRecords, String srcTable, IDbCommand command, CommandBehavior behavior)
   at System.Data.Common.DbDataAdapter.Fill(DataSet dataSet, String srcTable)
   at System.Web.UI.WebControls.SqlDataSourceView.ExecuteSelect(DataSourceSelectArguments arguments)
   at System.Web.UI.DataSourceView.Select(DataSourceSelectArguments arguments, DataSourceViewSelectCallback callback)
   at DevExpress.Web.ASPxClasses.Internal.DataHelper.PerformSelect()
   at DevExpress.Web.ASPxGridView.GridViewDataHelper.PerformSelect()
   at DevExpress.Web.ASPxClasses.Internal.DataContainer.PerformSelect()
   at DevExpress.Web.ASPxClasses.ASPxDataWebControlBase.DataBindCore()
   at DevExpress.Web.ASPxClasses.ASPxDataWebControlBase.DataBindInternal()
   at DevExpress.Web.ASPxClasses.ASPxWebControl.DataBind()
   at DevExpress.Web.ASPxGridView.ASPxGridView.DataBind()
   at admin_Complain_lst.BindData() in c:\Work\PTT\TMS\SourceCode\WEB_TMS\WEB_TMS\admin_Complain_lst.aspx.cs:line 318
   at admin_Complain_lst.xcpn_Load(Object sender, EventArgs e) in c:\Work\PTT\TMS\SourceCode\WEB_TMS\WEB_TMS\admin_Complain_lst.aspx.cs:line 117
   at System.Web.UI.Control.OnLoad(EventArgs e)
   at DevExpress.Web.ASPxClasses.ASPxWebControlBase.OnLoad(EventArgs e)
   at DevExpress.Web.ASPxClasses.ASPxWebControl.OnLoad(EventArgs e)
   at System.Web.UI.Control.LoadRecursive()
   at System.Web.UI.Control.LoadRecursive()
   at System.Web.UI.Control.LoadRecursive()
   at System.Web.UI.Control.LoadRecursive()
   at System.Web.UI.Control.LoadRecursive()
   at System.Web.UI.Page.ProcessRequestMain(Boolean includeStagesBeforeAsyncPoint, Boolean includeStagesAfterAsyncPoint)
 
************************************************************************************************************************************************************************************************************************************************************************************************************************************************************************************************************************************************************************************************************************************************************************************************************************************************************************************************************************************************************************************************************************************************************************************************************************************************************************************************************************************************************************************************************************************************************************************************************************************************************************************************************************************************************************************************************************************************************************************************************************************************************************************************************************************************************************************************************************************************************************************************************************************************************************************************************************************************************************************************************************************************************************************************************************************************************************************************************************************************************************************************************************************************************************************************************************************************************************************************************************************************************************************************************************************************************************************************************************************************************************************************************************************************************

[11:39:13] :: 
Error Message: A field or property with name 'SDETAIL' was not found in the selected data source. Possible causes of this error may be the following: an incorrect or case-insensitive spelling of the grid column name; assigning a wrong or not properly initialized data source to the grid.
Stack Trace:    at DevExpress.Web.Data.WebDataControllerProvider.GetRowValueByControllerRow(Int32 controllerRow, String fieldName, Boolean isDesignTime)
   at DevExpress.Web.Data.WebDataControllerProvider.GetRowValue(Int32 visibleIndex, String fieldName, Boolean isDesignTime)
   at DevExpress.Web.Data.WebDataProxy.GetRowValue(Int32 visibleIndex, String fieldName)
   at DevExpress.Web.ASPxGridView.Rendering.ASPxGridViewTextBuilder.GetDisplayControlArgs(GridViewDataColumn column, Int32 visibleIndex, IValueProvider provider, ASPxGridView grid)
   at DevExpress.Web.ASPxGridView.Rendering.ASPxGridViewRenderHelper.CreateDataCellDisplayControl(GridViewDataColumn column, Int32 visibleIndex, IValueProvider row)
   at DevExpress.Web.ASPxGridView.Rendering.ASPxGridViewRenderHelper.AddDisplayControlToDataCell(Control cell, GridViewDataColumn column, Int32 visibleIndex, IValueProvider row)
   at DevExpress.Web.ASPxGridView.Rendering.GridViewTableDataCell.CreateControlHierarchy()
   at DevExpress.Web.ASPxClasses.Internal.InternalTableCell.CreateChildControls()
   at System.Web.UI.Control.EnsureChildControls()
   at DevExpress.Web.ASPxClasses.Internal.InternalTableCell.DevExpress.Web.ASPxClasses.Internal.IASPxWebControl.EnsureChildControls()
   at DevExpress.Web.ASPxClasses.Internal.RenderUtils.EnsureChildControlsRecursive(Control control, Boolean skipContentContainers)
   at DevExpress.Web.ASPxClasses.Internal.RenderUtils.EnsureChildControlsRecursive(Control control, Boolean skipContentContainers)
   at DevExpress.Web.ASPxClasses.Internal.RenderUtils.EnsureChildControlsRecursive(Control control, Boolean skipContentContainers)
   at DevExpress.Web.ASPxClasses.Internal.RenderUtils.EnsureChildControlsRecursive(Control control, Boolean skipContentContainers)
   at DevExpress.Web.ASPxClasses.ASPxWebControlBase.EnsureChildControlsRecursive(Control control, Boolean skipContentContainers)
   at DevExpress.Web.ASPxClasses.ASPxWebControlBase.EnsureChildControlsRecursive(Control control)
   at DevExpress.Web.ASPxClasses.ASPxWebControlBase.CreateChildControls()
   at System.Web.UI.Control.EnsureChildControls()
   at DevExpress.Web.ASPxClasses.ASPxWebControlBase.EnsureChildControls()
   at DevExpress.Web.ASPxClasses.ASPxWebControlBase.DevExpress.Web.ASPxClasses.Internal.IASPxWebControl.EnsureChildControls()
   at DevExpress.Web.ASPxClasses.Internal.RenderUtils.EnsureChildControlsRecursive(Control control, Boolean skipContentContainers)
   at DevExpress.Web.ASPxClasses.Internal.RenderUtils.EnsureChildControlsRecursive(Control control, Boolean skipContentContainers)
   at DevExpress.Web.ASPxClasses.Internal.RenderUtils.EnsureChildControlsRecursive(Control control, Boolean skipContentContainers)
   at DevExpress.Web.ASPxClasses.Internal.RenderUtils.EnsureChildControlsRecursive(Control control, Boolean skipContentContainers)
   at DevExpress.Web.ASPxClasses.Internal.RenderUtils.EnsureChildControlsRecursive(Control control, Boolean skipContentContainers)
   at DevExpress.Web.ASPxClasses.ASPxWebControlBase.EnsureChildControlsRecursive(Control control, Boolean skipContentContainers)
   at DevExpress.Web.ASPxClasses.ASPxWebControlBase.EnsureChildControlsRecursive(Control control)
   at DevExpress.Web.ASPxClasses.ASPxWebControlBase.CreateChildControls()
   at DevExpress.Web.ASPxClasses.ASPxWebControl.CreateChildControls()
   at System.Web.UI.Control.EnsureChildControls()
   at DevExpress.Web.ASPxClasses.ASPxWebControlBase.EnsureChildControls()
   at DevExpress.Web.ASPxClasses.ASPxDataWebControlBase.DataBindInternal()
   at DevExpress.Web.ASPxClasses.ASPxWebControl.DataBind()
   at DevExpress.Web.ASPxGridView.ASPxGridView.DataBind()
   at TopicView.Page_Load(Object sender, EventArgs e) in c:\Work\PTT\TMS\SourceCode\WEB_TMS\WEB_TMS\TopicView.aspx.cs:line 76
   at System.Web.Util.CalliEventHandlerDelegateProxy.Callback(Object sender, EventArgs e)
   at System.Web.UI.Control.OnLoad(EventArgs e)
   at System.Web.UI.Control.LoadRecursive()
   at System.Web.UI.Page.ProcessRequestMain(Boolean includeStagesBeforeAsyncPoint, Boolean includeStagesAfterAsyncPoint)
 
**********************************************************************************************************************************************************************************************************************************************************************************************************************************************************************************************************************************************************************************************************************************************************************************************************************************************************************************************************************************************************************************************************************************************************************************************************************************************************************************************************************************************************************************************************************************************************************************************************************************************************************************************************************************************************************************************************************************************************************************************************************************************************************************************************************************************************************************************************************************************************************************************************************************************************************************************************************************************************************************************************************************************************************************************************************************************************************************************************************************************************************************************************************************************************************************************************************************************************************************************************************************************************************************************************************************************************************************************************************************************************************************************************************************************************************************************************************************************************************************************************************************************************************************************************************************************************************************************************************************************************************************************************************************************************************************************************************************************************************************************************************************************************************************************************************************************************************************************************************************************************************************************************************************************************************************************************************************************************************************************************************************************************************************************************************************************************************************************************************************************************************************************************************************************************************************************************************************************************************************************************************************************************************************************************************

[14:10:43] :: 
Error Message: ORA-03113: end-of-file on communication channel
Process ID: 0
Session ID: 601 Serial number: 11725

Stack Trace:    at System.Data.OracleClient.OracleConnection.CheckError(OciErrorHandle errorHandle, Int32 rc)
   at System.Data.OracleClient.OracleCommand.Execute(OciStatementHandle statementHandle, CommandBehavior behavior, Boolean needRowid, OciRowidDescriptor& rowidDescriptor, ArrayList& resultParameterOrdinals)
   at System.Data.OracleClient.OracleCommand.Execute(OciStatementHandle statementHandle, CommandBehavior behavior, ArrayList& resultParameterOrdinals)
   at System.Data.OracleClient.OracleCommand.ExecuteReader(CommandBehavior behavior)
   at System.Data.OracleClient.OracleCommand.ExecuteDbDataReader(CommandBehavior behavior)
   at System.Data.Common.DbCommand.System.Data.IDbCommand.ExecuteReader(CommandBehavior behavior)
   at System.Data.Common.DbDataAdapter.FillInternal(DataSet dataset, DataTable[] datatables, Int32 startRecord, Int32 maxRecords, String srcTable, IDbCommand command, CommandBehavior behavior)
   at System.Data.Common.DbDataAdapter.Fill(DataSet dataSet, Int32 startRecord, Int32 maxRecords, String srcTable, IDbCommand command, CommandBehavior behavior)
   at System.Data.Common.DbDataAdapter.Fill(DataSet dataSet, String srcTable)
   at System.Web.UI.WebControls.SqlDataSourceView.ExecuteSelect(DataSourceSelectArguments arguments)
   at System.Web.UI.DataSourceView.Select(DataSourceSelectArguments arguments, DataSourceViewSelectCallback callback)
   at DevExpress.Web.ASPxClasses.Internal.DataHelper.PerformSelect()
   at DevExpress.Web.ASPxClasses.Internal.DataContainer.PerformSelect()
   at DevExpress.Web.ASPxClasses.ASPxDataWebControlBase.DataBindCore()
   at DevExpress.Web.ASPxClasses.ASPxDataWebControlBase.DataBindInternal()
   at DevExpress.Web.ASPxClasses.ASPxWebControl.DataBind()
   at DevExpress.Web.ASPxEditors.ASPxComboBox.DataBind()
   at _default.cmbSWWCODE_ItemsRequestedByFilterCondition(Object source, ListEditItemsRequestedByFilterConditionEventArgs e) in c:\Work\PTT\TMS\SourceCode\WEB_TMS\WEB_TMS\Default.aspx.cs:line 94
   at DevExpress.Web.ASPxEditors.ASPxComboBox.RaiseItemsRequestedByFilterCondition(ListEditItemsRequestedByFilterConditionEventArgs e)
   at DevExpress.Web.ASPxEditors.Internal.ComboBoxItemRequestEventHelper.RequestItemsPageWithFilter(String filter, Int32 beginIndex, Int32 endIndex)
   at DevExpress.Web.ASPxEditors.ASPxComboBox.LoadFirstItemsPage()
   at DevExpress.Web.ASPxEditors.ASPxComboBox.LoadFirstItemsPageIfRequired()
   at DevExpress.Web.ASPxEditors.ASPxComboBox.EnsurePreRender()
   at DevExpress.Web.ASPxClasses.ASPxWebControlBase.OnPreRender(EventArgs e)
   at DevExpress.Web.ASPxClasses.ASPxWebControl.OnPreRender(EventArgs e)
   at DevExpress.Web.ASPxClasses.ASPxDataWebControlBase.OnPreRender(EventArgs e)
   at System.Web.UI.Control.PreRenderRecursiveInternal()
   at System.Web.UI.Control.PreRenderRecursiveInternal()
   at System.Web.UI.Control.PreRenderRecursiveInternal()
   at System.Web.UI.Control.PreRenderRecursiveInternal()
   at System.Web.UI.Control.PreRenderRecursiveInternal()
   at System.Web.UI.Control.PreRenderRecursiveInternal()
   at System.Web.UI.Control.PreRenderRecursiveInternal()
   at System.Web.UI.Control.PreRenderRecursiveInternal()
   at System.Web.UI.Control.PreRenderRecursiveInternal()
   at System.Web.UI.Control.PreRenderRecursiveInternal()
   at System.Web.UI.Control.PreRenderRecursiveInternal()
   at System.Web.UI.Control.PreRenderRecursiveInternal()
   at System.Web.UI.Control.PreRenderRecursiveInternal()
   at System.Web.UI.Control.PreRenderRecursiveInternal()
   at System.Web.UI.Control.PreRenderRecursiveInternal()
   at System.Web.UI.Control.PreRenderRecursiveInternal()
   at System.Web.UI.Control.PreRenderRecursiveInternal()
   at System.Web.UI.Control.PreRenderRecursiveInternal()
   at System.Web.UI.Control.PreRenderRecursiveInternal()
   at System.Web.UI.Control.PreRenderRecursiveInternal()
   at System.Web.UI.Control.PreRenderRecursiveInternal()
   at System.Web.UI.Control.PreRenderRecursiveInternal()
   at System.Web.UI.Control.PreRenderRecursiveInternal()
   at System.Web.UI.Control.PreRenderRecursiveInternal()
   at System.Web.UI.Control.PreRenderRecursiveInternal()
   at System.Web.UI.Page.ProcessRequestMain(Boolean includeStagesBeforeAsyncPoint, Boolean includeStagesAfterAsyncPoint)
 
*****************************************************************************************************************************************************************************************************************************************************************************************************************************************************************************************************************************************************************************************************************************************************************************************************************************************************************************************************************************************************************************************************************************************************************************************************************************************************************************************************************************************************************************************************************************************************************************************************************************************************************************************************************************************************************************************************************************************************************************************************************************************************************************************************************************************************************************************************************************************************************************************************************************************************************************************************************************************************************************************************************************************************************************************************************************************************************************************************************************************************************************************************************************************************************************************************************************************************************************************************************************************************************************************************************************************************************************************************************************************************************************************************************************************************************************************************************************************************************************************************************************************************************************************************************************************************************************************************************************************************************************************************************************************************************************************************************************************************************************************************************************************************************************************************************************************************************************************************************************************************************************************************************************************************************************************************************************************************************************************************************************************************************************************************************************************************************************************************************************************************************************************************************************************************************************************************************************************************************************************************************************************************************************************************************************

[14:20:06] :: 
Error Message: ORA-12547: TNS:lost contact

Stack Trace:    at System.Data.OracleClient.OracleException.Check(OciErrorHandle errorHandle, Int32 rc)
   at System.Data.OracleClient.OracleInternalConnection.OpenOnLocalTransaction(String userName, String password, String serverName, Boolean integratedSecurity, Boolean unicode, Boolean omitOracleConnectionName)
   at System.Data.OracleClient.OracleInternalConnection..ctor(OracleConnectionString connectionOptions)
   at System.Data.OracleClient.OracleConnectionFactory.CreateConnection(DbConnectionOptions options, Object poolGroupProviderInfo, DbConnectionPool pool, DbConnection owningObject)
   at System.Data.ProviderBase.DbConnectionFactory.CreatePooledConnection(DbConnection owningConnection, DbConnectionPool pool, DbConnectionOptions options)
   at System.Data.ProviderBase.DbConnectionPool.CreateObject(DbConnection owningObject)
   at System.Data.ProviderBase.DbConnectionPool.UserCreateRequest(DbConnection owningObject)
   at System.Data.ProviderBase.DbConnectionPool.GetConnection(DbConnection owningObject)
   at System.Data.ProviderBase.DbConnectionFactory.GetConnection(DbConnection owningConnection)
   at System.Data.ProviderBase.DbConnectionClosed.OpenConnection(DbConnection outerConnection, DbConnectionFactory connectionFactory)
   at System.Data.OracleClient.OracleConnection.Open()
   at CommonFunction.Get_Data(OracleConnection Conn, String _sql) in c:\Work\PTT\TMS\SourceCode\WEB_TMS\WEB_TMS\App_Code\CommonFunction.cs:line 137
   at MP.Page_Load(Object sender, EventArgs e) in c:\Work\PTT\TMS\SourceCode\WEB_TMS\WEB_TMS\MP.master.cs:line 52
   at System.Web.Util.CalliEventHandlerDelegateProxy.Callback(Object sender, EventArgs e)
   at System.Web.UI.Control.OnLoad(EventArgs e)
   at System.Web.UI.Control.LoadRecursive()
   at System.Web.UI.Control.LoadRecursive()
   at System.Web.UI.Page.ProcessRequestMain(Boolean includeStagesBeforeAsyncPoint, Boolean includeStagesAfterAsyncPoint)
 
*********************************************************************************************************************************************************************************************************************************************************************************************************************************************************************************************************************************************************************************************************************************************************************************************************************************************************************************************************************************************************************************************************************************************************************************************************************************************************************************************************************************************************************************************************************************************************************************************************************************************************************************************************************************************************************************************************************************************************************************************************************************************************************************************************************************************************************************************************************************************************************************************************************************************************************************************************************************************************************************************************************************************************************************

[14:32:23] :: 
Error Message: ORA-03113: end-of-file on communication channel
Process ID: 0
Session ID: 322 Serial number: 4082

Stack Trace:    at System.Data.OracleClient.OracleConnection.CheckError(OciErrorHandle errorHandle, Int32 rc)
   at System.Data.OracleClient.OracleCommand.Execute(OciStatementHandle statementHandle, CommandBehavior behavior, Boolean needRowid, OciRowidDescriptor& rowidDescriptor, ArrayList& resultParameterOrdinals)
   at System.Data.OracleClient.OracleCommand.Execute(OciStatementHandle statementHandle, CommandBehavior behavior, ArrayList& resultParameterOrdinals)
   at System.Data.OracleClient.OracleCommand.ExecuteReader(CommandBehavior behavior)
   at System.Data.OracleClient.OracleCommand.ExecuteDbDataReader(CommandBehavior behavior)
   at System.Data.Common.DbCommand.System.Data.IDbCommand.ExecuteReader(CommandBehavior behavior)
   at System.Data.Common.DbDataAdapter.FillInternal(DataSet dataset, DataTable[] datatables, Int32 startRecord, Int32 maxRecords, String srcTable, IDbCommand command, CommandBehavior behavior)
   at System.Data.Common.DbDataAdapter.Fill(DataTable[] dataTables, Int32 startRecord, Int32 maxRecords, IDbCommand command, CommandBehavior behavior)
   at System.Data.Common.DbDataAdapter.Fill(DataTable dataTable)
   at CommonFunction.Get_Data(OracleConnection Conn, String _sql) in c:\Work\PTT\TMS\SourceCode\WEB_TMS\WEB_TMS\App_Code\CommonFunction.cs:line 138
   at MP.Page_Load(Object sender, EventArgs e) in c:\Work\PTT\TMS\SourceCode\WEB_TMS\WEB_TMS\MP.master.cs:line 52
   at System.Web.Util.CalliEventHandlerDelegateProxy.Callback(Object sender, EventArgs e)
   at System.Web.UI.Control.OnLoad(EventArgs e)
   at System.Web.UI.Control.LoadRecursive()
   at System.Web.UI.Control.LoadRecursive()
   at System.Web.UI.Page.ProcessRequestMain(Boolean includeStagesBeforeAsyncPoint, Boolean includeStagesAfterAsyncPoint)
 
************************************************************************************************************************************************************************************************************************************************************************************************************************************************************************************************************************************************************************************************************************************************************************************************************************************************************************************************************************************************************************************************************************************************************************************************************************************************************************************************************************************************************************************************************************************************************************************************************************************************************************************************************************************************************************************************************************************************************************************************************************************************************************************************************************************************************************************************************************************************************************************************************************************************************************************************************************************************************************************

[14:32:25] :: 
Error Message: ORA-12547: TNS:lost contact

Stack Trace:    at System.Data.ProviderBase.DbConnectionPool.GetConnection(DbConnection owningObject)
   at System.Data.ProviderBase.DbConnectionFactory.GetConnection(DbConnection owningConnection)
   at System.Data.ProviderBase.DbConnectionClosed.OpenConnection(DbConnection outerConnection, DbConnectionFactory connectionFactory)
   at System.Data.OracleClient.OracleConnection.Open()
   at CommonFunction.Get_Data(OracleConnection Conn, String _sql) in c:\Work\PTT\TMS\SourceCode\WEB_TMS\WEB_TMS\App_Code\CommonFunction.cs:line 137
   at MP.Page_Load(Object sender, EventArgs e) in c:\Work\PTT\TMS\SourceCode\WEB_TMS\WEB_TMS\MP.master.cs:line 52
   at System.Web.Util.CalliEventHandlerDelegateProxy.Callback(Object sender, EventArgs e)
   at System.Web.UI.Control.OnLoad(EventArgs e)
   at System.Web.UI.Control.LoadRecursive()
   at System.Web.UI.Control.LoadRecursive()
   at System.Web.UI.Page.ProcessRequestMain(Boolean includeStagesBeforeAsyncPoint, Boolean includeStagesAfterAsyncPoint)
 
*************************************************************************************************************************************************************************************************************************************************************************************************************************************************************************************************************************************************************************************************************************************************************************************************************************************************************************************************************************************************************************************************************************************************************************************************************************************************************************************************************************************************************************************************************

[14:32:25] :: 
Error Message: ORA-12547: TNS:lost contact

Stack Trace:    at System.Data.ProviderBase.DbConnectionPool.GetConnection(DbConnection owningObject)
   at System.Data.ProviderBase.DbConnectionFactory.GetConnection(DbConnection owningConnection)
   at System.Data.ProviderBase.DbConnectionClosed.OpenConnection(DbConnection outerConnection, DbConnectionFactory connectionFactory)
   at System.Data.OracleClient.OracleConnection.Open()
   at CommonFunction.Get_Data(OracleConnection Conn, String _sql) in c:\Work\PTT\TMS\SourceCode\WEB_TMS\WEB_TMS\App_Code\CommonFunction.cs:line 137
   at MP.Page_Load(Object sender, EventArgs e) in c:\Work\PTT\TMS\SourceCode\WEB_TMS\WEB_TMS\MP.master.cs:line 52
   at System.Web.Util.CalliEventHandlerDelegateProxy.Callback(Object sender, EventArgs e)
   at System.Web.UI.Control.OnLoad(EventArgs e)
   at System.Web.UI.Control.LoadRecursive()
   at System.Web.UI.Control.LoadRecursive()
   at System.Web.UI.Page.ProcessRequestMain(Boolean includeStagesBeforeAsyncPoint, Boolean includeStagesAfterAsyncPoint)
 
*************************************************************************************************************************************************************************************************************************************************************************************************************************************************************************************************************************************************************************************************************************************************************************************************************************************************************************************************************************************************************************************************************************************************************************************************************************************************************************************************************************************************************************************************************

[14:48:38] :: 
Error Message: ORA-12547: TNS:lost contact

Stack Trace:    at System.Data.OracleClient.OracleException.Check(OciErrorHandle errorHandle, Int32 rc)
   at System.Data.OracleClient.OracleInternalConnection.OpenOnLocalTransaction(String userName, String password, String serverName, Boolean integratedSecurity, Boolean unicode, Boolean omitOracleConnectionName)
   at System.Data.OracleClient.OracleInternalConnection..ctor(OracleConnectionString connectionOptions)
   at System.Data.OracleClient.OracleConnectionFactory.CreateConnection(DbConnectionOptions options, Object poolGroupProviderInfo, DbConnectionPool pool, DbConnection owningObject)
   at System.Data.ProviderBase.DbConnectionFactory.CreatePooledConnection(DbConnection owningConnection, DbConnectionPool pool, DbConnectionOptions options)
   at System.Data.ProviderBase.DbConnectionPool.CreateObject(DbConnection owningObject)
   at System.Data.ProviderBase.DbConnectionPool.UserCreateRequest(DbConnection owningObject)
   at System.Data.ProviderBase.DbConnectionPool.GetConnection(DbConnection owningObject)
   at System.Data.ProviderBase.DbConnectionFactory.GetConnection(DbConnection owningConnection)
   at System.Data.ProviderBase.DbConnectionClosed.OpenConnection(DbConnection outerConnection, DbConnectionFactory connectionFactory)
   at System.Data.OracleClient.OracleConnection.Open()
   at CommonFunction.Get_Data(OracleConnection Conn, String _sql) in c:\Work\PTT\TMS\SourceCode\WEB_TMS\WEB_TMS\App_Code\CommonFunction.cs:line 137
   at admin_Complain_add.Page_Load(Object sender, EventArgs e) in c:\Work\PTT\TMS\SourceCode\WEB_TMS\WEB_TMS\admin_Complain_add.aspx.cs:line 149
   at System.Web.Util.CalliEventHandlerDelegateProxy.Callback(Object sender, EventArgs e)
   at System.Web.UI.Control.OnLoad(EventArgs e)
   at System.Web.UI.Control.LoadRecursive()
   at System.Web.UI.Page.ProcessRequestMain(Boolean includeStagesBeforeAsyncPoint, Boolean includeStagesAfterAsyncPoint)
 
*******************************************************************************************************************************************************************************************************************************************************************************************************************************************************************************************************************************************************************************************************************************************************************************************************************************************************************************************************************************************************************************************************************************************************************************************************************************************************************************************************************************************************************************************************************************************************************************************************************************************************************************************************************************************************************************************************************************************************************************************************************************************************************************************************************************************************************************************************************************************************************************************************************************************************************************************************************************************************************************************************************************************************************

[14:48:59] :: 
Error Message: ORA-03113: end-of-file on communication channel
Process ID: 0
Session ID: 439 Serial number: 6281

Stack Trace:    at System.Data.OracleClient.OracleConnection.CheckError(OciErrorHandle errorHandle, Int32 rc)
   at System.Data.OracleClient.OracleCommand.Execute(OciStatementHandle statementHandle, CommandBehavior behavior, Boolean needRowid, OciRowidDescriptor& rowidDescriptor, ArrayList& resultParameterOrdinals)
   at System.Data.OracleClient.OracleCommand.Execute(OciStatementHandle statementHandle, CommandBehavior behavior, ArrayList& resultParameterOrdinals)
   at System.Data.OracleClient.OracleCommand.ExecuteReader(CommandBehavior behavior)
   at System.Data.OracleClient.OracleCommand.ExecuteDbDataReader(CommandBehavior behavior)
   at System.Data.Common.DbCommand.System.Data.IDbCommand.ExecuteReader(CommandBehavior behavior)
   at System.Data.Common.DbDataAdapter.FillInternal(DataSet dataset, DataTable[] datatables, Int32 startRecord, Int32 maxRecords, String srcTable, IDbCommand command, CommandBehavior behavior)
   at System.Data.Common.DbDataAdapter.Fill(DataTable[] dataTables, Int32 startRecord, Int32 maxRecords, IDbCommand command, CommandBehavior behavior)
   at System.Data.Common.DbDataAdapter.Fill(DataTable dataTable)
   at CommonFunction.Get_Data(OracleConnection Conn, String _sql) in c:\Work\PTT\TMS\SourceCode\WEB_TMS\WEB_TMS\App_Code\CommonFunction.cs:line 138
   at admin_Complain_add.Page_Load(Object sender, EventArgs e) in c:\Work\PTT\TMS\SourceCode\WEB_TMS\WEB_TMS\admin_Complain_add.aspx.cs:line 149
   at System.Web.Util.CalliEventHandlerDelegateProxy.Callback(Object sender, EventArgs e)
   at System.Web.UI.Control.OnLoad(EventArgs e)
   at System.Web.UI.Control.LoadRecursive()
   at System.Web.UI.Page.ProcessRequestMain(Boolean includeStagesBeforeAsyncPoint, Boolean includeStagesAfterAsyncPoint)
 
**********************************************************************************************************************************************************************************************************************************************************************************************************************************************************************************************************************************************************************************************************************************************************************************************************************************************************************************************************************************************************************************************************************************************************************************************************************************************************************************************************************************************************************************************************************************************************************************************************************************************************************************************************************************************************************************************************************************************************************************************************************************************************************************************************************************************************************************************************************************************************************************************************************************************************************************************************************************************************************

[14:49:26] :: 
Error Message: ORA-12547: TNS:lost contact

Stack Trace:    at System.Data.OracleClient.OracleException.Check(OciErrorHandle errorHandle, Int32 rc)
   at System.Data.OracleClient.OracleInternalConnection.OpenOnLocalTransaction(String userName, String password, String serverName, Boolean integratedSecurity, Boolean unicode, Boolean omitOracleConnectionName)
   at System.Data.OracleClient.OracleInternalConnection..ctor(OracleConnectionString connectionOptions)
   at System.Data.OracleClient.OracleConnectionFactory.CreateConnection(DbConnectionOptions options, Object poolGroupProviderInfo, DbConnectionPool pool, DbConnection owningObject)
   at System.Data.ProviderBase.DbConnectionFactory.CreatePooledConnection(DbConnection owningConnection, DbConnectionPool pool, DbConnectionOptions options)
   at System.Data.ProviderBase.DbConnectionPool.CreateObject(DbConnection owningObject)
   at System.Data.ProviderBase.DbConnectionPool.UserCreateRequest(DbConnection owningObject)
   at System.Data.ProviderBase.DbConnectionPool.GetConnection(DbConnection owningObject)
   at System.Data.ProviderBase.DbConnectionFactory.GetConnection(DbConnection owningConnection)
   at System.Data.ProviderBase.DbConnectionClosed.OpenConnection(DbConnection outerConnection, DbConnectionFactory connectionFactory)
   at System.Data.OracleClient.OracleConnection.Open()
   at CommonFunction.Get_Data(OracleConnection Conn, String _sql) in c:\Work\PTT\TMS\SourceCode\WEB_TMS\WEB_TMS\App_Code\CommonFunction.cs:line 137
   at admin_Complain_add.Page_Load(Object sender, EventArgs e) in c:\Work\PTT\TMS\SourceCode\WEB_TMS\WEB_TMS\admin_Complain_add.aspx.cs:line 149
   at System.Web.Util.CalliEventHandlerDelegateProxy.Callback(Object sender, EventArgs e)
   at System.Web.UI.Control.OnLoad(EventArgs e)
   at System.Web.UI.Control.LoadRecursive()
   at System.Web.UI.Page.ProcessRequestMain(Boolean includeStagesBeforeAsyncPoint, Boolean includeStagesAfterAsyncPoint)
 
*******************************************************************************************************************************************************************************************************************************************************************************************************************************************************************************************************************************************************************************************************************************************************************************************************************************************************************************************************************************************************************************************************************************************************************************************************************************************************************************************************************************************************************************************************************************************************************************************************************************************************************************************************************************************************************************************************************************************************************************************************************************************************************************************************************************************************************************************************************************************************************************************************************************************************************************************************************************************************************************************************************************************************************

[16:07:15] :: 
Error Message: Object reference not set to an instance of an object.
Stack Trace:    at admin_Complain_add.Page_Load(Object sender, EventArgs e) in c:\Work\PTT\TMS\SourceCode\WEB_TMS\WEB_TMS\admin_Complain_add.aspx.cs:line 75
   at System.Web.Util.CalliEventHandlerDelegateProxy.Callback(Object sender, EventArgs e)
   at System.Web.UI.Control.OnLoad(EventArgs e)
   at System.Web.UI.Control.LoadRecursive()
   at System.Web.UI.Page.ProcessRequestMain(Boolean includeStagesBeforeAsyncPoint, Boolean includeStagesAfterAsyncPoint)
 
************************************************************************************************************************************************************************************************************************************************************************************************************************************************************************************************************************************************************************************************************************************************************************

[16:07:28] :: 
Error Message: Object reference not set to an instance of an object.
Stack Trace:    at admin_Complain_add.Page_Load(Object sender, EventArgs e) in c:\Work\PTT\TMS\SourceCode\WEB_TMS\WEB_TMS\admin_Complain_add.aspx.cs:line 75
   at System.Web.Util.CalliEventHandlerDelegateProxy.Callback(Object sender, EventArgs e)
   at System.Web.UI.Control.OnLoad(EventArgs e)
   at System.Web.UI.Control.LoadRecursive()
   at System.Web.UI.Page.ProcessRequestMain(Boolean includeStagesBeforeAsyncPoint, Boolean includeStagesAfterAsyncPoint)
 
************************************************************************************************************************************************************************************************************************************************************************************************************************************************************************************************************************************************************************************************************************************************************************

[16:07:51] :: 
Error Message: Object reference not set to an instance of an object.
Stack Trace:    at admin_Complain_add.Page_Load(Object sender, EventArgs e) in c:\Work\PTT\TMS\SourceCode\WEB_TMS\WEB_TMS\admin_Complain_add.aspx.cs:line 75
   at System.Web.Util.CalliEventHandlerDelegateProxy.Callback(Object sender, EventArgs e)
   at System.Web.UI.Control.OnLoad(EventArgs e)
   at System.Web.UI.Control.LoadRecursive()
   at System.Web.UI.Page.ProcessRequestMain(Boolean includeStagesBeforeAsyncPoint, Boolean includeStagesAfterAsyncPoint)
 
************************************************************************************************************************************************************************************************************************************************************************************************************************************************************************************************************************************************************************************************************************************************************************

[16:08:00] :: 
Error Message: Object reference not set to an instance of an object.
Stack Trace:    at admin_Complain_add.Page_Load(Object sender, EventArgs e) in c:\Work\PTT\TMS\SourceCode\WEB_TMS\WEB_TMS\admin_Complain_add.aspx.cs:line 75
   at System.Web.Util.CalliEventHandlerDelegateProxy.Callback(Object sender, EventArgs e)
   at System.Web.UI.Control.OnLoad(EventArgs e)
   at System.Web.UI.Control.LoadRecursive()
   at System.Web.UI.Page.ProcessRequestMain(Boolean includeStagesBeforeAsyncPoint, Boolean includeStagesAfterAsyncPoint)
 
************************************************************************************************************************************************************************************************************************************************************************************************************************************************************************************************************************************************************************************************************************************************************************

