[15:21:29] :: 
Error Message: Object reference not set to an instance of an object.
Stack Trace:    at result_add3.ListReportTeabpan(String sReqID) in d:\Project\TMS\ASP.NET\result-add3.aspx.cs:line 2791
   at result_add3.btnReportTeabapn_Click(Object sender, EventArgs e) in d:\Project\TMS\ASP.NET\result-add3.aspx.cs:line 2633
   at DevExpress.Web.ASPxEditors.ASPxButton.OnClick(EventArgs e)
   at DevExpress.Web.ASPxEditors.ASPxButton.RaisePostBackEvent(String eventArgument)
   at DevExpress.Web.ASPxClasses.ASPxWebControl.System.Web.UI.IPostBackEventHandler.RaisePostBackEvent(String eventArgument)
   at System.Web.UI.Page.RaisePostBackEvent(IPostBackEventHandler sourceControl, String eventArgument)
   at System.Web.UI.Page.RaisePostBackEvent(NameValueCollection postData)
   at System.Web.UI.Page.ProcessRequestMain(Boolean includeStagesBeforeAsyncPoint, Boolean includeStagesAfterAsyncPoint)
 
*************************************************************************************************************************************************************************************************************************************************************************************************************************************************************************************************************************************************************************************************************************************************************************************************************************************************************************************************************************************************************************************************************************************************************************************************************************************************

[18:39:30] :: 
Error Message: Column 'NWHEELS' does not belong to table .
Stack Trace:    at System.Data.DataRow.GetDataColumn(String columnName)
   at System.Data.DataRow.get_Item(String columnName)
   at result_add2.ListReportNoPass(String sReqID) in d:\Project\TMS\ASP.NET\result-add2.aspx.cs:line 2523
   at result_add2.btnPrintT2_Click(Object sender, EventArgs e) in d:\Project\TMS\ASP.NET\result-add2.aspx.cs:line 1941
   at DevExpress.Web.ASPxEditors.ASPxButton.OnClick(EventArgs e)
   at DevExpress.Web.ASPxEditors.ASPxButton.RaisePostBackEvent(String eventArgument)
   at DevExpress.Web.ASPxClasses.ASPxWebControl.System.Web.UI.IPostBackEventHandler.RaisePostBackEvent(String eventArgument)
   at System.Web.UI.Page.RaisePostBackEvent(IPostBackEventHandler sourceControl, String eventArgument)
   at System.Web.UI.Page.RaisePostBackEvent(NameValueCollection postData)
   at System.Web.UI.Page.ProcessRequestMain(Boolean includeStagesBeforeAsyncPoint, Boolean includeStagesAfterAsyncPoint)
 
***************************************************************************************************************************************************************************************************************************************************************************************************************************************************************************************************************************************************************************************************************************************************************************************************************************************************************************************************************************************************************************************************************************************************************************************************************************************************************************************************************************************************

