[18:42:15] :: 
Error Message: ORA-01861: literal does not match format string

Stack Trace:    at System.Data.OracleClient.OracleConnection.CheckError(OciErrorHandle errorHandle, Int32 rc)
   at System.Data.OracleClient.OracleCommand.Execute(OciStatementHandle statementHandle, CommandBehavior behavior, Boolean needRowid, OciRowidDescriptor& rowidDescriptor, ArrayList& resultParameterOrdinals)
   at System.Data.OracleClient.OracleCommand.Execute(OciStatementHandle statementHandle, CommandBehavior behavior, ArrayList& resultParameterOrdinals)
   at System.Data.OracleClient.OracleCommand.ExecuteReader(CommandBehavior behavior)
   at System.Data.OracleClient.OracleCommand.ExecuteDbDataReader(CommandBehavior behavior)
   at System.Data.Common.DbCommand.System.Data.IDbCommand.ExecuteReader(CommandBehavior behavior)
   at System.Data.Common.DbDataAdapter.FillInternal(DataSet dataset, DataTable[] datatables, Int32 startRecord, Int32 maxRecords, String srcTable, IDbCommand command, CommandBehavior behavior)
   at System.Data.Common.DbDataAdapter.Fill(DataSet dataSet, Int32 startRecord, Int32 maxRecords, String srcTable, IDbCommand command, CommandBehavior behavior)
   at System.Data.Common.DbDataAdapter.Fill(DataSet dataSet, String srcTable)
   at System.Web.UI.WebControls.SqlDataSourceView.ExecuteSelect(DataSourceSelectArguments arguments)
   at System.Web.UI.DataSourceView.Select(DataSourceSelectArguments arguments, DataSourceViewSelectCallback callback)
   at DevExpress.Web.ASPxClasses.Internal.DataHelper.PerformSelect()
   at DevExpress.Web.ASPxGridView.GridViewDataHelper.PerformSelect()
   at DevExpress.Web.ASPxClasses.Internal.DataContainer.PerformSelect()
   at DevExpress.Web.ASPxClasses.ASPxDataWebControlBase.DataBindCore()
   at DevExpress.Web.ASPxClasses.ASPxDataWebControlBase.DataBindInternal()
   at DevExpress.Web.ASPxClasses.ASPxWebControl.DataBind()
   at DevExpress.Web.ASPxGridView.ASPxGridView.DataBind()
   at vendor_appeal_lst.BindData() in c:\Work\PTT\TMS\SourceCode\WEB_TMS\TMS_DEV\WEB_TMS\vendor_appeal_lst.aspx.cs:line 1118
   at vendor_appeal_lst.xcpn_Load(Object sender, EventArgs e) in c:\Work\PTT\TMS\SourceCode\WEB_TMS\TMS_DEV\WEB_TMS\vendor_appeal_lst.aspx.cs:line 172
   at System.Web.UI.Control.OnLoad(EventArgs e)
   at DevExpress.Web.ASPxClasses.ASPxWebControlBase.OnLoad(EventArgs e)
   at DevExpress.Web.ASPxClasses.ASPxWebControl.OnLoad(EventArgs e)
   at System.Web.UI.Control.LoadRecursive()
   at System.Web.UI.Control.LoadRecursive()
   at System.Web.UI.Control.LoadRecursive()
   at System.Web.UI.Control.LoadRecursive()
   at System.Web.UI.Control.LoadRecursive()
   at System.Web.UI.Page.ProcessRequestMain(Boolean includeStagesBeforeAsyncPoint, Boolean includeStagesAfterAsyncPoint)
 
**********************************************************************************************************************************************************************************************************************************************************************************************************************************************************************************************************************************************************************************************************************************************************************************************************************************************************************************************************************************************************************************************************************************************************************************************************************************************************************************************************************************************************************************************************************************************************************************************************************************************************************************************************************************************************************************************************************************************************************************************************************************************************************************************************************************************************************************************************************************************************************************************************************************************************************************************************************************************************************************************************************************************************************************************************************************************************************************************************************************************************************************************************************************************************************************************************************************************************************************************************************************************************************************************************************************************************************************************************************************************************************************************************************************************************************************************

[18:43:12] :: 
Error Message: ORA-01861: literal does not match format string

Stack Trace:    at System.Data.OracleClient.OracleConnection.CheckError(OciErrorHandle errorHandle, Int32 rc)
   at System.Data.OracleClient.OracleCommand.Execute(OciStatementHandle statementHandle, CommandBehavior behavior, Boolean needRowid, OciRowidDescriptor& rowidDescriptor, ArrayList& resultParameterOrdinals)
   at System.Data.OracleClient.OracleCommand.Execute(OciStatementHandle statementHandle, CommandBehavior behavior, ArrayList& resultParameterOrdinals)
   at System.Data.OracleClient.OracleCommand.ExecuteReader(CommandBehavior behavior)
   at System.Data.OracleClient.OracleCommand.ExecuteDbDataReader(CommandBehavior behavior)
   at System.Data.Common.DbCommand.System.Data.IDbCommand.ExecuteReader(CommandBehavior behavior)
   at System.Data.Common.DbDataAdapter.FillInternal(DataSet dataset, DataTable[] datatables, Int32 startRecord, Int32 maxRecords, String srcTable, IDbCommand command, CommandBehavior behavior)
   at System.Data.Common.DbDataAdapter.Fill(DataSet dataSet, Int32 startRecord, Int32 maxRecords, String srcTable, IDbCommand command, CommandBehavior behavior)
   at System.Data.Common.DbDataAdapter.Fill(DataSet dataSet, String srcTable)
   at System.Web.UI.WebControls.SqlDataSourceView.ExecuteSelect(DataSourceSelectArguments arguments)
   at System.Web.UI.DataSourceView.Select(DataSourceSelectArguments arguments, DataSourceViewSelectCallback callback)
   at DevExpress.Web.ASPxClasses.Internal.DataHelper.PerformSelect()
   at DevExpress.Web.ASPxGridView.GridViewDataHelper.PerformSelect()
   at DevExpress.Web.ASPxClasses.Internal.DataContainer.PerformSelect()
   at DevExpress.Web.ASPxClasses.ASPxDataWebControlBase.DataBindCore()
   at DevExpress.Web.ASPxClasses.ASPxDataWebControlBase.DataBindInternal()
   at DevExpress.Web.ASPxClasses.ASPxWebControl.DataBind()
   at DevExpress.Web.ASPxGridView.ASPxGridView.DataBind()
   at vendor_appeal_lst.BindData() in c:\Work\PTT\TMS\SourceCode\WEB_TMS\TMS_DEV\WEB_TMS\vendor_appeal_lst.aspx.cs:line 1118
   at vendor_appeal_lst.xcpn_Load(Object sender, EventArgs e) in c:\Work\PTT\TMS\SourceCode\WEB_TMS\TMS_DEV\WEB_TMS\vendor_appeal_lst.aspx.cs:line 172
   at System.Web.UI.Control.OnLoad(EventArgs e)
   at DevExpress.Web.ASPxClasses.ASPxWebControlBase.OnLoad(EventArgs e)
   at DevExpress.Web.ASPxClasses.ASPxWebControl.OnLoad(EventArgs e)
   at System.Web.UI.Control.LoadRecursive()
   at System.Web.UI.Control.LoadRecursive()
   at System.Web.UI.Control.LoadRecursive()
   at System.Web.UI.Control.LoadRecursive()
   at System.Web.UI.Control.LoadRecursive()
   at System.Web.UI.Page.ProcessRequestMain(Boolean includeStagesBeforeAsyncPoint, Boolean includeStagesAfterAsyncPoint)
 
**********************************************************************************************************************************************************************************************************************************************************************************************************************************************************************************************************************************************************************************************************************************************************************************************************************************************************************************************************************************************************************************************************************************************************************************************************************************************************************************************************************************************************************************************************************************************************************************************************************************************************************************************************************************************************************************************************************************************************************************************************************************************************************************************************************************************************************************************************************************************************************************************************************************************************************************************************************************************************************************************************************************************************************************************************************************************************************************************************************************************************************************************************************************************************************************************************************************************************************************************************************************************************************************************************************************************************************************************************************************************************************************************************************************************************************************************

[18:43:21] :: 
Error Message: ORA-01861: literal does not match format string

Stack Trace:    at System.Data.OracleClient.OracleConnection.CheckError(OciErrorHandle errorHandle, Int32 rc)
   at System.Data.OracleClient.OracleCommand.Execute(OciStatementHandle statementHandle, CommandBehavior behavior, Boolean needRowid, OciRowidDescriptor& rowidDescriptor, ArrayList& resultParameterOrdinals)
   at System.Data.OracleClient.OracleCommand.Execute(OciStatementHandle statementHandle, CommandBehavior behavior, ArrayList& resultParameterOrdinals)
   at System.Data.OracleClient.OracleCommand.ExecuteReader(CommandBehavior behavior)
   at System.Data.OracleClient.OracleCommand.ExecuteDbDataReader(CommandBehavior behavior)
   at System.Data.Common.DbCommand.System.Data.IDbCommand.ExecuteReader(CommandBehavior behavior)
   at System.Data.Common.DbDataAdapter.FillInternal(DataSet dataset, DataTable[] datatables, Int32 startRecord, Int32 maxRecords, String srcTable, IDbCommand command, CommandBehavior behavior)
   at System.Data.Common.DbDataAdapter.Fill(DataSet dataSet, Int32 startRecord, Int32 maxRecords, String srcTable, IDbCommand command, CommandBehavior behavior)
   at System.Data.Common.DbDataAdapter.Fill(DataSet dataSet, String srcTable)
   at System.Web.UI.WebControls.SqlDataSourceView.ExecuteSelect(DataSourceSelectArguments arguments)
   at System.Web.UI.DataSourceView.Select(DataSourceSelectArguments arguments, DataSourceViewSelectCallback callback)
   at DevExpress.Web.ASPxClasses.Internal.DataHelper.PerformSelect()
   at DevExpress.Web.ASPxGridView.GridViewDataHelper.PerformSelect()
   at DevExpress.Web.ASPxClasses.Internal.DataContainer.PerformSelect()
   at DevExpress.Web.ASPxClasses.ASPxDataWebControlBase.DataBindCore()
   at DevExpress.Web.ASPxClasses.ASPxDataWebControlBase.DataBindInternal()
   at DevExpress.Web.ASPxClasses.ASPxWebControl.DataBind()
   at DevExpress.Web.ASPxGridView.ASPxGridView.DataBind()
   at vendor_appeal_lst.BindData() in c:\Work\PTT\TMS\SourceCode\WEB_TMS\TMS_DEV\WEB_TMS\vendor_appeal_lst.aspx.cs:line 1118
   at vendor_appeal_lst.xcpn_Load(Object sender, EventArgs e) in c:\Work\PTT\TMS\SourceCode\WEB_TMS\TMS_DEV\WEB_TMS\vendor_appeal_lst.aspx.cs:line 172
   at System.Web.UI.Control.OnLoad(EventArgs e)
   at DevExpress.Web.ASPxClasses.ASPxWebControlBase.OnLoad(EventArgs e)
   at DevExpress.Web.ASPxClasses.ASPxWebControl.OnLoad(EventArgs e)
   at System.Web.UI.Control.LoadRecursive()
   at System.Web.UI.Control.LoadRecursive()
   at System.Web.UI.Control.LoadRecursive()
   at System.Web.UI.Control.LoadRecursive()
   at System.Web.UI.Control.LoadRecursive()
   at System.Web.UI.Page.ProcessRequestMain(Boolean includeStagesBeforeAsyncPoint, Boolean includeStagesAfterAsyncPoint)
 
**********************************************************************************************************************************************************************************************************************************************************************************************************************************************************************************************************************************************************************************************************************************************************************************************************************************************************************************************************************************************************************************************************************************************************************************************************************************************************************************************************************************************************************************************************************************************************************************************************************************************************************************************************************************************************************************************************************************************************************************************************************************************************************************************************************************************************************************************************************************************************************************************************************************************************************************************************************************************************************************************************************************************************************************************************************************************************************************************************************************************************************************************************************************************************************************************************************************************************************************************************************************************************************************************************************************************************************************************************************************************************************************************************************************************************************************************

[18:44:25] :: 
Error Message: ORA-01861: literal does not match format string

Stack Trace:    at System.Data.OracleClient.OracleConnection.CheckError(OciErrorHandle errorHandle, Int32 rc)
   at System.Data.OracleClient.OracleCommand.Execute(OciStatementHandle statementHandle, CommandBehavior behavior, Boolean needRowid, OciRowidDescriptor& rowidDescriptor, ArrayList& resultParameterOrdinals)
   at System.Data.OracleClient.OracleCommand.Execute(OciStatementHandle statementHandle, CommandBehavior behavior, ArrayList& resultParameterOrdinals)
   at System.Data.OracleClient.OracleCommand.ExecuteReader(CommandBehavior behavior)
   at System.Data.OracleClient.OracleCommand.ExecuteDbDataReader(CommandBehavior behavior)
   at System.Data.Common.DbCommand.System.Data.IDbCommand.ExecuteReader(CommandBehavior behavior)
   at System.Data.Common.DbDataAdapter.FillInternal(DataSet dataset, DataTable[] datatables, Int32 startRecord, Int32 maxRecords, String srcTable, IDbCommand command, CommandBehavior behavior)
   at System.Data.Common.DbDataAdapter.Fill(DataSet dataSet, Int32 startRecord, Int32 maxRecords, String srcTable, IDbCommand command, CommandBehavior behavior)
   at System.Data.Common.DbDataAdapter.Fill(DataSet dataSet, String srcTable)
   at System.Web.UI.WebControls.SqlDataSourceView.ExecuteSelect(DataSourceSelectArguments arguments)
   at System.Web.UI.DataSourceView.Select(DataSourceSelectArguments arguments, DataSourceViewSelectCallback callback)
   at DevExpress.Web.ASPxClasses.Internal.DataHelper.PerformSelect()
   at DevExpress.Web.ASPxGridView.GridViewDataHelper.PerformSelect()
   at DevExpress.Web.ASPxClasses.Internal.DataContainer.PerformSelect()
   at DevExpress.Web.ASPxClasses.ASPxDataWebControlBase.DataBindCore()
   at DevExpress.Web.ASPxClasses.ASPxDataWebControlBase.DataBindInternal()
   at DevExpress.Web.ASPxClasses.ASPxWebControl.DataBind()
   at DevExpress.Web.ASPxGridView.ASPxGridView.DataBind()
   at vendor_appeal_lst.BindData() in c:\Work\PTT\TMS\SourceCode\WEB_TMS\TMS_DEV\WEB_TMS\vendor_appeal_lst.aspx.cs:line 1118
   at vendor_appeal_lst.xcpn_Load(Object sender, EventArgs e) in c:\Work\PTT\TMS\SourceCode\WEB_TMS\TMS_DEV\WEB_TMS\vendor_appeal_lst.aspx.cs:line 172
   at System.Web.UI.Control.OnLoad(EventArgs e)
   at DevExpress.Web.ASPxClasses.ASPxWebControlBase.OnLoad(EventArgs e)
   at DevExpress.Web.ASPxClasses.ASPxWebControl.OnLoad(EventArgs e)
   at System.Web.UI.Control.LoadRecursive()
   at System.Web.UI.Control.LoadRecursive()
   at System.Web.UI.Control.LoadRecursive()
   at System.Web.UI.Control.LoadRecursive()
   at System.Web.UI.Control.LoadRecursive()
   at System.Web.UI.Page.ProcessRequestMain(Boolean includeStagesBeforeAsyncPoint, Boolean includeStagesAfterAsyncPoint)
 
**********************************************************************************************************************************************************************************************************************************************************************************************************************************************************************************************************************************************************************************************************************************************************************************************************************************************************************************************************************************************************************************************************************************************************************************************************************************************************************************************************************************************************************************************************************************************************************************************************************************************************************************************************************************************************************************************************************************************************************************************************************************************************************************************************************************************************************************************************************************************************************************************************************************************************************************************************************************************************************************************************************************************************************************************************************************************************************************************************************************************************************************************************************************************************************************************************************************************************************************************************************************************************************************************************************************************************************************************************************************************************************************************************************************************************************************************

[18:46:08] :: 
Error Message: ORA-01861: literal does not match format string

Stack Trace:    at System.Data.OracleClient.OracleConnection.CheckError(OciErrorHandle errorHandle, Int32 rc)
   at System.Data.OracleClient.OracleCommand.Execute(OciStatementHandle statementHandle, CommandBehavior behavior, Boolean needRowid, OciRowidDescriptor& rowidDescriptor, ArrayList& resultParameterOrdinals)
   at System.Data.OracleClient.OracleCommand.Execute(OciStatementHandle statementHandle, CommandBehavior behavior, ArrayList& resultParameterOrdinals)
   at System.Data.OracleClient.OracleCommand.ExecuteReader(CommandBehavior behavior)
   at System.Data.OracleClient.OracleCommand.ExecuteDbDataReader(CommandBehavior behavior)
   at System.Data.Common.DbCommand.System.Data.IDbCommand.ExecuteReader(CommandBehavior behavior)
   at System.Data.Common.DbDataAdapter.FillInternal(DataSet dataset, DataTable[] datatables, Int32 startRecord, Int32 maxRecords, String srcTable, IDbCommand command, CommandBehavior behavior)
   at System.Data.Common.DbDataAdapter.Fill(DataSet dataSet, Int32 startRecord, Int32 maxRecords, String srcTable, IDbCommand command, CommandBehavior behavior)
   at System.Data.Common.DbDataAdapter.Fill(DataSet dataSet, String srcTable)
   at System.Web.UI.WebControls.SqlDataSourceView.ExecuteSelect(DataSourceSelectArguments arguments)
   at System.Web.UI.DataSourceView.Select(DataSourceSelectArguments arguments, DataSourceViewSelectCallback callback)
   at DevExpress.Web.ASPxClasses.Internal.DataHelper.PerformSelect()
   at DevExpress.Web.ASPxGridView.GridViewDataHelper.PerformSelect()
   at DevExpress.Web.ASPxClasses.Internal.DataContainer.PerformSelect()
   at DevExpress.Web.ASPxClasses.ASPxDataWebControlBase.DataBindCore()
   at DevExpress.Web.ASPxClasses.ASPxDataWebControlBase.DataBindInternal()
   at DevExpress.Web.ASPxClasses.ASPxWebControl.DataBind()
   at DevExpress.Web.ASPxGridView.ASPxGridView.DataBind()
   at vendor_appeal_lst.BindData() in c:\Work\PTT\TMS\SourceCode\WEB_TMS\TMS_DEV\WEB_TMS\vendor_appeal_lst.aspx.cs:line 1118
   at vendor_appeal_lst.xcpn_Load(Object sender, EventArgs e) in c:\Work\PTT\TMS\SourceCode\WEB_TMS\TMS_DEV\WEB_TMS\vendor_appeal_lst.aspx.cs:line 172
   at System.Web.UI.Control.OnLoad(EventArgs e)
   at DevExpress.Web.ASPxClasses.ASPxWebControlBase.OnLoad(EventArgs e)
   at DevExpress.Web.ASPxClasses.ASPxWebControl.OnLoad(EventArgs e)
   at System.Web.UI.Control.LoadRecursive()
   at System.Web.UI.Control.LoadRecursive()
   at System.Web.UI.Control.LoadRecursive()
   at System.Web.UI.Control.LoadRecursive()
   at System.Web.UI.Control.LoadRecursive()
   at System.Web.UI.Page.ProcessRequestMain(Boolean includeStagesBeforeAsyncPoint, Boolean includeStagesAfterAsyncPoint)
 
**********************************************************************************************************************************************************************************************************************************************************************************************************************************************************************************************************************************************************************************************************************************************************************************************************************************************************************************************************************************************************************************************************************************************************************************************************************************************************************************************************************************************************************************************************************************************************************************************************************************************************************************************************************************************************************************************************************************************************************************************************************************************************************************************************************************************************************************************************************************************************************************************************************************************************************************************************************************************************************************************************************************************************************************************************************************************************************************************************************************************************************************************************************************************************************************************************************************************************************************************************************************************************************************************************************************************************************************************************************************************************************************************************************************************************************************************

[19:05:28] :: 
Error Message: DataBinding: 'System.Web.UI.WebControls.TextBox' does not contain a property with the name 'Value'.
Stack Trace:    at System.Web.UI.DataBinder.GetPropertyValue(Object container, String propName)
   at System.Web.UI.DataBinder.Eval(Object container, String[] expressionParts)
   at System.Web.UI.DataBinder.Eval(Object container, String expression)
   at System.Web.UI.WebControls.ControlParameter.Evaluate(HttpContext context, Control control)
   at System.Web.UI.WebControls.Parameter.UpdateValue(HttpContext context, Control control)
   at System.Web.UI.WebControls.ParameterCollection.UpdateValues(HttpContext context, Control control)
   at System.Web.UI.WebControls.SqlDataSource.LoadCompleteEventHandler(Object sender, EventArgs e)
   at System.EventHandler.Invoke(Object sender, EventArgs e)
   at System.Web.UI.Page.OnLoadComplete(EventArgs e)
   at System.Web.UI.Page.ProcessRequestMain(Boolean includeStagesBeforeAsyncPoint, Boolean includeStagesAfterAsyncPoint)
 
*********************************************************************************************************************************************************************************************************************************************************************************************************************************************************************************************************************************************************************************************************************************************************************************************************************************************************************************************************************************************************************************************************************************************************************************************************************************************************************************************************************************************************

[19:06:50] :: 
Error Message: DataBinding: 'System.Web.UI.WebControls.TextBox' does not contain a property with the name 'Value'.
Stack Trace:    at System.Web.UI.DataBinder.GetPropertyValue(Object container, String propName)
   at System.Web.UI.DataBinder.Eval(Object container, String[] expressionParts)
   at System.Web.UI.DataBinder.Eval(Object container, String expression)
   at System.Web.UI.WebControls.ControlParameter.Evaluate(HttpContext context, Control control)
   at System.Web.UI.WebControls.Parameter.UpdateValue(HttpContext context, Control control)
   at System.Web.UI.WebControls.ParameterCollection.UpdateValues(HttpContext context, Control control)
   at System.Web.UI.WebControls.SqlDataSource.LoadCompleteEventHandler(Object sender, EventArgs e)
   at System.EventHandler.Invoke(Object sender, EventArgs e)
   at System.Web.UI.Page.OnLoadComplete(EventArgs e)
   at System.Web.UI.Page.ProcessRequestMain(Boolean includeStagesBeforeAsyncPoint, Boolean includeStagesAfterAsyncPoint)
 
*********************************************************************************************************************************************************************************************************************************************************************************************************************************************************************************************************************************************************************************************************************************************************************************************************************************************************************************************************************************************************************************************************************************************************************************************************************************************************************************************************************************************************

