[13:58:14] :: 
Error Message: Multiple controls with the same ID 'DXEditingRow' were found. FindControl requires that controls have unique IDs.
Stack Trace:    at System.Web.UI.Control.FillNamedControlsTable(Control namingContainer, ControlCollection controls)
   at System.Web.UI.Control.FillNamedControlsTable(Control namingContainer, ControlCollection controls)
   at System.Web.UI.Control.FillNamedControlsTable(Control namingContainer, ControlCollection controls)
   at System.Web.UI.Control.FillNamedControlsTable(Control namingContainer, ControlCollection controls)
   at System.Web.UI.Control.FillNamedControlsTable(Control namingContainer, ControlCollection controls)
   at System.Web.UI.Control.FillNamedControlsTable(Control namingContainer, ControlCollection controls)
   at System.Web.UI.Control.FindControl(String id, Int32 pathOffset)
   at System.Web.UI.Control.FindControl(String id, Int32 pathOffset)
   at System.Web.UI.Control.FindControl(String id, Int32 pathOffset)
   at System.Web.UI.Control.FindControl(String id, Int32 pathOffset)
   at System.Web.UI.Control.FindControl(String id, Int32 pathOffset)
   at System.Web.UI.Page.FindControl(String id)
   at System.Web.UI.Page.ProcessPostData(NameValueCollection postData, Boolean fBeforeLoad)
   at System.Web.UI.Page.ProcessRequestMain(Boolean includeStagesBeforeAsyncPoint, Boolean includeStagesAfterAsyncPoint)
 
************************************************************************************************************************************************************************************************************************************************************************************************************************************************************************************************************************************************************************************************************************************************************************************************************************************************************************************************************************************************************************************************************************************************************************************************************************************************************************************************************************************************************************************************************************************************************************************************************************************************************************************************************************************************************************************************************************************************************

[13:58:26] :: 
Error Message: Multiple controls with the same ID 'DXEditingRow' were found. FindControl requires that controls have unique IDs.
Stack Trace:    at System.Web.UI.Control.FillNamedControlsTable(Control namingContainer, ControlCollection controls)
   at System.Web.UI.Control.FillNamedControlsTable(Control namingContainer, ControlCollection controls)
   at System.Web.UI.Control.FillNamedControlsTable(Control namingContainer, ControlCollection controls)
   at System.Web.UI.Control.FillNamedControlsTable(Control namingContainer, ControlCollection controls)
   at System.Web.UI.Control.FillNamedControlsTable(Control namingContainer, ControlCollection controls)
   at System.Web.UI.Control.FillNamedControlsTable(Control namingContainer, ControlCollection controls)
   at System.Web.UI.Control.FindControl(String id, Int32 pathOffset)
   at System.Web.UI.Control.FindControl(String id, Int32 pathOffset)
   at System.Web.UI.Control.FindControl(String id, Int32 pathOffset)
   at System.Web.UI.Control.FindControl(String id, Int32 pathOffset)
   at System.Web.UI.Control.FindControl(String id, Int32 pathOffset)
   at System.Web.UI.Page.FindControl(String id)
   at System.Web.UI.Page.ProcessPostData(NameValueCollection postData, Boolean fBeforeLoad)
   at System.Web.UI.Page.ProcessRequestMain(Boolean includeStagesBeforeAsyncPoint, Boolean includeStagesAfterAsyncPoint)
 
************************************************************************************************************************************************************************************************************************************************************************************************************************************************************************************************************************************************************************************************************************************************************************************************************************************************************************************************************************************************************************************************************************************************************************************************************************************************************************************************************************************************************************************************************************************************************************************************************************************************************************************************************************************************************************************************************************************************************

[13:58:28] :: 
Error Message: Multiple controls with the same ID 'DXEditingRow' were found. FindControl requires that controls have unique IDs.
Stack Trace:    at System.Web.UI.Control.FillNamedControlsTable(Control namingContainer, ControlCollection controls)
   at System.Web.UI.Control.FillNamedControlsTable(Control namingContainer, ControlCollection controls)
   at System.Web.UI.Control.FillNamedControlsTable(Control namingContainer, ControlCollection controls)
   at System.Web.UI.Control.FillNamedControlsTable(Control namingContainer, ControlCollection controls)
   at System.Web.UI.Control.FillNamedControlsTable(Control namingContainer, ControlCollection controls)
   at System.Web.UI.Control.FillNamedControlsTable(Control namingContainer, ControlCollection controls)
   at System.Web.UI.Control.FindControl(String id, Int32 pathOffset)
   at System.Web.UI.Control.FindControl(String id, Int32 pathOffset)
   at System.Web.UI.Control.FindControl(String id, Int32 pathOffset)
   at System.Web.UI.Control.FindControl(String id, Int32 pathOffset)
   at System.Web.UI.Control.FindControl(String id, Int32 pathOffset)
   at System.Web.UI.Page.FindControl(String id)
   at System.Web.UI.Page.ProcessPostData(NameValueCollection postData, Boolean fBeforeLoad)
   at System.Web.UI.Page.ProcessRequestMain(Boolean includeStagesBeforeAsyncPoint, Boolean includeStagesAfterAsyncPoint)
 
************************************************************************************************************************************************************************************************************************************************************************************************************************************************************************************************************************************************************************************************************************************************************************************************************************************************************************************************************************************************************************************************************************************************************************************************************************************************************************************************************************************************************************************************************************************************************************************************************************************************************************************************************************************************************************************************************************************************************

[14:01:29] :: 
Error Message: Multiple controls with the same ID 'DXEditingRow' were found. FindControl requires that controls have unique IDs.
Stack Trace:    at System.Web.UI.Control.FillNamedControlsTable(Control namingContainer, ControlCollection controls)
   at System.Web.UI.Control.FillNamedControlsTable(Control namingContainer, ControlCollection controls)
   at System.Web.UI.Control.FillNamedControlsTable(Control namingContainer, ControlCollection controls)
   at System.Web.UI.Control.FillNamedControlsTable(Control namingContainer, ControlCollection controls)
   at System.Web.UI.Control.FillNamedControlsTable(Control namingContainer, ControlCollection controls)
   at System.Web.UI.Control.FillNamedControlsTable(Control namingContainer, ControlCollection controls)
   at System.Web.UI.Control.FindControl(String id, Int32 pathOffset)
   at System.Web.UI.Control.FindControl(String id, Int32 pathOffset)
   at System.Web.UI.Control.FindControl(String id, Int32 pathOffset)
   at System.Web.UI.Control.FindControl(String id, Int32 pathOffset)
   at System.Web.UI.Control.FindControl(String id, Int32 pathOffset)
   at System.Web.UI.Page.FindControl(String id)
   at System.Web.UI.Page.ProcessPostData(NameValueCollection postData, Boolean fBeforeLoad)
   at System.Web.UI.Page.ProcessRequestMain(Boolean includeStagesBeforeAsyncPoint, Boolean includeStagesAfterAsyncPoint)
 
************************************************************************************************************************************************************************************************************************************************************************************************************************************************************************************************************************************************************************************************************************************************************************************************************************************************************************************************************************************************************************************************************************************************************************************************************************************************************************************************************************************************************************************************************************************************************************************************************************************************************************************************************************************************************************************************************************************************************

[14:01:30] :: 
Error Message: Multiple controls with the same ID 'DXEditingRow' were found. FindControl requires that controls have unique IDs.
Stack Trace:    at System.Web.UI.Control.FillNamedControlsTable(Control namingContainer, ControlCollection controls)
   at System.Web.UI.Control.FillNamedControlsTable(Control namingContainer, ControlCollection controls)
   at System.Web.UI.Control.FillNamedControlsTable(Control namingContainer, ControlCollection controls)
   at System.Web.UI.Control.FillNamedControlsTable(Control namingContainer, ControlCollection controls)
   at System.Web.UI.Control.FillNamedControlsTable(Control namingContainer, ControlCollection controls)
   at System.Web.UI.Control.FillNamedControlsTable(Control namingContainer, ControlCollection controls)
   at System.Web.UI.Control.FindControl(String id, Int32 pathOffset)
   at System.Web.UI.Control.FindControl(String id, Int32 pathOffset)
   at System.Web.UI.Control.FindControl(String id, Int32 pathOffset)
   at System.Web.UI.Control.FindControl(String id, Int32 pathOffset)
   at System.Web.UI.Control.FindControl(String id, Int32 pathOffset)
   at System.Web.UI.Page.FindControl(String id)
   at System.Web.UI.Page.ProcessPostData(NameValueCollection postData, Boolean fBeforeLoad)
   at System.Web.UI.Page.ProcessRequestMain(Boolean includeStagesBeforeAsyncPoint, Boolean includeStagesAfterAsyncPoint)
 
************************************************************************************************************************************************************************************************************************************************************************************************************************************************************************************************************************************************************************************************************************************************************************************************************************************************************************************************************************************************************************************************************************************************************************************************************************************************************************************************************************************************************************************************************************************************************************************************************************************************************************************************************************************************************************************************************************************************************

[14:24:46] :: 
Error Message: Multiple controls with the same ID 'DXEditingRow' were found. FindControl requires that controls have unique IDs.
Stack Trace:    at System.Web.UI.Control.FillNamedControlsTable(Control namingContainer, ControlCollection controls)
   at System.Web.UI.Control.FillNamedControlsTable(Control namingContainer, ControlCollection controls)
   at System.Web.UI.Control.FillNamedControlsTable(Control namingContainer, ControlCollection controls)
   at System.Web.UI.Control.FillNamedControlsTable(Control namingContainer, ControlCollection controls)
   at System.Web.UI.Control.FillNamedControlsTable(Control namingContainer, ControlCollection controls)
   at System.Web.UI.Control.FillNamedControlsTable(Control namingContainer, ControlCollection controls)
   at System.Web.UI.Control.FindControl(String id, Int32 pathOffset)
   at System.Web.UI.Control.FindControl(String id, Int32 pathOffset)
   at System.Web.UI.Control.FindControl(String id, Int32 pathOffset)
   at System.Web.UI.Control.FindControl(String id, Int32 pathOffset)
   at System.Web.UI.Control.FindControl(String id, Int32 pathOffset)
   at System.Web.UI.Page.FindControl(String id)
   at System.Web.UI.Page.ProcessPostData(NameValueCollection postData, Boolean fBeforeLoad)
   at System.Web.UI.Page.ProcessRequestMain(Boolean includeStagesBeforeAsyncPoint, Boolean includeStagesAfterAsyncPoint)
 
************************************************************************************************************************************************************************************************************************************************************************************************************************************************************************************************************************************************************************************************************************************************************************************************************************************************************************************************************************************************************************************************************************************************************************************************************************************************************************************************************************************************************************************************************************************************************************************************************************************************************************************************************************************************************************************************************************************************************

[14:25:00] :: 
Error Message: Multiple controls with the same ID 'DXEditingRow' were found. FindControl requires that controls have unique IDs.
Stack Trace:    at System.Web.UI.Control.FillNamedControlsTable(Control namingContainer, ControlCollection controls)
   at System.Web.UI.Control.FillNamedControlsTable(Control namingContainer, ControlCollection controls)
   at System.Web.UI.Control.FillNamedControlsTable(Control namingContainer, ControlCollection controls)
   at System.Web.UI.Control.FillNamedControlsTable(Control namingContainer, ControlCollection controls)
   at System.Web.UI.Control.FillNamedControlsTable(Control namingContainer, ControlCollection controls)
   at System.Web.UI.Control.FillNamedControlsTable(Control namingContainer, ControlCollection controls)
   at System.Web.UI.Control.FindControl(String id, Int32 pathOffset)
   at System.Web.UI.Control.FindControl(String id, Int32 pathOffset)
   at System.Web.UI.Control.FindControl(String id, Int32 pathOffset)
   at System.Web.UI.Control.FindControl(String id, Int32 pathOffset)
   at System.Web.UI.Control.FindControl(String id, Int32 pathOffset)
   at System.Web.UI.Page.FindControl(String id)
   at System.Web.UI.Page.ProcessPostData(NameValueCollection postData, Boolean fBeforeLoad)
   at System.Web.UI.Page.ProcessRequestMain(Boolean includeStagesBeforeAsyncPoint, Boolean includeStagesAfterAsyncPoint)
 
************************************************************************************************************************************************************************************************************************************************************************************************************************************************************************************************************************************************************************************************************************************************************************************************************************************************************************************************************************************************************************************************************************************************************************************************************************************************************************************************************************************************************************************************************************************************************************************************************************************************************************************************************************************************************************************************************************************************************

[14:25:13] :: 
Error Message: Multiple controls with the same ID 'DXEditingRow' were found. FindControl requires that controls have unique IDs.
Stack Trace:    at System.Web.UI.Control.FillNamedControlsTable(Control namingContainer, ControlCollection controls)
   at System.Web.UI.Control.FillNamedControlsTable(Control namingContainer, ControlCollection controls)
   at System.Web.UI.Control.FillNamedControlsTable(Control namingContainer, ControlCollection controls)
   at System.Web.UI.Control.FillNamedControlsTable(Control namingContainer, ControlCollection controls)
   at System.Web.UI.Control.FillNamedControlsTable(Control namingContainer, ControlCollection controls)
   at System.Web.UI.Control.FillNamedControlsTable(Control namingContainer, ControlCollection controls)
   at System.Web.UI.Control.FindControl(String id, Int32 pathOffset)
   at System.Web.UI.Control.FindControl(String id, Int32 pathOffset)
   at System.Web.UI.Control.FindControl(String id, Int32 pathOffset)
   at System.Web.UI.Control.FindControl(String id, Int32 pathOffset)
   at System.Web.UI.Control.FindControl(String id, Int32 pathOffset)
   at System.Web.UI.Page.FindControl(String id)
   at System.Web.UI.Page.ProcessPostData(NameValueCollection postData, Boolean fBeforeLoad)
   at System.Web.UI.Page.ProcessRequestMain(Boolean includeStagesBeforeAsyncPoint, Boolean includeStagesAfterAsyncPoint)
 
************************************************************************************************************************************************************************************************************************************************************************************************************************************************************************************************************************************************************************************************************************************************************************************************************************************************************************************************************************************************************************************************************************************************************************************************************************************************************************************************************************************************************************************************************************************************************************************************************************************************************************************************************************************************************************************************************************************************************

[14:25:33] :: 
Error Message: Multiple controls with the same ID 'DXEditingRow' were found. FindControl requires that controls have unique IDs.
Stack Trace:    at System.Web.UI.Control.FillNamedControlsTable(Control namingContainer, ControlCollection controls)
   at System.Web.UI.Control.FillNamedControlsTable(Control namingContainer, ControlCollection controls)
   at System.Web.UI.Control.FillNamedControlsTable(Control namingContainer, ControlCollection controls)
   at System.Web.UI.Control.FillNamedControlsTable(Control namingContainer, ControlCollection controls)
   at System.Web.UI.Control.FillNamedControlsTable(Control namingContainer, ControlCollection controls)
   at System.Web.UI.Control.FillNamedControlsTable(Control namingContainer, ControlCollection controls)
   at System.Web.UI.Control.FindControl(String id, Int32 pathOffset)
   at System.Web.UI.Control.FindControl(String id, Int32 pathOffset)
   at System.Web.UI.Control.FindControl(String id, Int32 pathOffset)
   at System.Web.UI.Control.FindControl(String id, Int32 pathOffset)
   at System.Web.UI.Control.FindControl(String id, Int32 pathOffset)
   at System.Web.UI.Page.FindControl(String id)
   at System.Web.UI.Page.ProcessPostData(NameValueCollection postData, Boolean fBeforeLoad)
   at System.Web.UI.Page.ProcessRequestMain(Boolean includeStagesBeforeAsyncPoint, Boolean includeStagesAfterAsyncPoint)
 
************************************************************************************************************************************************************************************************************************************************************************************************************************************************************************************************************************************************************************************************************************************************************************************************************************************************************************************************************************************************************************************************************************************************************************************************************************************************************************************************************************************************************************************************************************************************************************************************************************************************************************************************************************************************************************************************************************************************************

[14:31:30] :: 
Error Message: Multiple controls with the same ID 'DXEditingRow' were found. FindControl requires that controls have unique IDs.
Stack Trace:    at System.Web.UI.Control.FillNamedControlsTable(Control namingContainer, ControlCollection controls)
   at System.Web.UI.Control.FillNamedControlsTable(Control namingContainer, ControlCollection controls)
   at System.Web.UI.Control.FillNamedControlsTable(Control namingContainer, ControlCollection controls)
   at System.Web.UI.Control.FillNamedControlsTable(Control namingContainer, ControlCollection controls)
   at System.Web.UI.Control.FillNamedControlsTable(Control namingContainer, ControlCollection controls)
   at System.Web.UI.Control.FillNamedControlsTable(Control namingContainer, ControlCollection controls)
   at System.Web.UI.Control.FindControl(String id, Int32 pathOffset)
   at System.Web.UI.Control.FindControl(String id, Int32 pathOffset)
   at System.Web.UI.Control.FindControl(String id, Int32 pathOffset)
   at System.Web.UI.Control.FindControl(String id, Int32 pathOffset)
   at System.Web.UI.Control.FindControl(String id, Int32 pathOffset)
   at System.Web.UI.Page.FindControl(String id)
   at System.Web.UI.Page.ProcessPostData(NameValueCollection postData, Boolean fBeforeLoad)
   at System.Web.UI.Page.ProcessRequestMain(Boolean includeStagesBeforeAsyncPoint, Boolean includeStagesAfterAsyncPoint)
 
************************************************************************************************************************************************************************************************************************************************************************************************************************************************************************************************************************************************************************************************************************************************************************************************************************************************************************************************************************************************************************************************************************************************************************************************************************************************************************************************************************************************************************************************************************************************************************************************************************************************************************************************************************************************************************************************************************************************************

[15:25:18] :: 
Error Message: Invalid viewstate. 
	Client IP: ::1
	Port: 
	Referer: http://localhost:16643/WEB_TMS/admin_Complain_add.aspx?enc=EVsLC2CL9DPSstU6BY+sXXRGuFo40s+9BOWQZWYeBz3U5YsW8tcXaJNh5AzMOHNfC4aP7hclTHpXOzO4K68tfzuKSO3BNW+oJmCuirnbjJF0mb+8ebyM2JePMt7h4g/JzNmNiERnSfFpVUnjoAY7Zt7cdZB3Wrwq9yPCbaiHvwyBeM7kCIgG6QQPf4P5RCXvQX/lqrtb80L6Mqu+grGUyglwRndIVHjPCfSUEuLk3CKgUEEFtHx/IRJcEeolwcSMkJg6WRkjmqAyA7WqHQ6iCtGvpkUwG2a0Miv9Va6QQWQ28B0Gdy6WmdHS3yDkLdLF4H3xE4cwbc4vmVUmkQjRzMTmTNjXOfiUI7YMV40p+VR01Csoj4zfwz0ovJiIFMEnwWDQzEqVB1NiAanv3Jo2AKw/TjsTmGlCPj+I70gtFTAF8PzS3osWsZQzvO7ScfpsYdTBuBX5MRVJc6uMKWUZJyX/TMhbPIP9cI1U6+zgrKbrdlVW7aa8B+YxKkXX29PlI6jFwD2M4dkdX3qzMVJKXSx8qrwB0xPz9gjQFxj2aGVVTFQEDG85fx8V1Bd+zJJ0N+QtFeEYHQ0JBz34GHODYA2oYOuAvGrehfCw1GNzupA=
	Path: /WEB_TMS/admin_Complain_add.aspx
	User-Agent: Mozilla/5.0 (Windows NT 6.3; WOW64) AppleWebKit/537.36 (KHTML, like Gecko) Chrome/47.0.2526.106 Safari/537.36
	ViewState: B0+m4oRpu0Xz9T3fKHhpIEDuLCkImduvKv1KdhYC60YYMwYjhZpRIJBAqVb9KEIVQPs01PAqVU03lH5FDwHKfZsiu5XZXgFVpH+TQUgHS04Ki1F6U8i1YY87KJw8/...
Stack Trace: 
 
************************************************************************************************************************************************************************************************************************************************************************************************************************************************************************************************************************************************************************************************************************************************************************************************************************************************************************************************************************************************************************************************************************************************************************************************************************************************************************************************************************************************************************************************************************************

[15:59:07] :: 
Error Message: ORA-12547: TNS:lost contact

Stack Trace:    at admin_Complain_lst.LoadComplainType() in c:\Work\PTT\TMS\SourceCode\WEB_TMS\TMS_DEV\WEB_TMS\admin_Complain_lst.aspx.cs:line 694
   at admin_Complain_lst.xcpn_Load(Object sender, EventArgs e) in c:\Work\PTT\TMS\SourceCode\WEB_TMS\TMS_DEV\WEB_TMS\admin_Complain_lst.aspx.cs:line 144
   at System.Web.UI.Control.OnLoad(EventArgs e)
   at DevExpress.Web.ASPxClasses.ASPxWebControlBase.OnLoad(EventArgs e)
   at DevExpress.Web.ASPxClasses.ASPxWebControl.OnLoad(EventArgs e)
   at System.Web.UI.Control.LoadRecursive()
   at System.Web.UI.Control.LoadRecursive()
   at System.Web.UI.Control.LoadRecursive()
   at System.Web.UI.Control.LoadRecursive()
   at System.Web.UI.Control.LoadRecursive()
   at System.Web.UI.Page.ProcessRequestMain(Boolean includeStagesBeforeAsyncPoint, Boolean includeStagesAfterAsyncPoint)
 
**************************************************************************************************************************************************************************************************************************************************************************************************************************************************************************************************************************************************************************************************************************************************************************************************************************************************************************************************************************************************************************************************************************************************************************************************************************************

[16:00:21] :: 
Error Message: ORA-12547: TNS:lost contact

Stack Trace:    at System.Data.OracleClient.OracleException.Check(OciErrorHandle errorHandle, Int32 rc)
   at System.Data.OracleClient.OracleInternalConnection.OpenOnLocalTransaction(String userName, String password, String serverName, Boolean integratedSecurity, Boolean unicode, Boolean omitOracleConnectionName)
   at System.Data.OracleClient.OracleInternalConnection..ctor(OracleConnectionString connectionOptions)
   at System.Data.OracleClient.OracleConnectionFactory.CreateConnection(DbConnectionOptions options, Object poolGroupProviderInfo, DbConnectionPool pool, DbConnection owningObject)
   at System.Data.ProviderBase.DbConnectionFactory.CreatePooledConnection(DbConnection owningConnection, DbConnectionPool pool, DbConnectionOptions options)
   at System.Data.ProviderBase.DbConnectionPool.CreateObject(DbConnection owningObject)
   at System.Data.ProviderBase.DbConnectionPool.UserCreateRequest(DbConnection owningObject)
   at System.Data.ProviderBase.DbConnectionPool.GetConnection(DbConnection owningObject)
   at System.Data.ProviderBase.DbConnectionFactory.GetConnection(DbConnection owningConnection)
   at System.Data.ProviderBase.DbConnectionClosed.OpenConnection(DbConnection outerConnection, DbConnectionFactory connectionFactory)
   at System.Data.OracleClient.OracleConnection.Open()
   at CommonFunction.Get_Data(String Conn, String _sql) in c:\Work\PTT\TMS\SourceCode\WEB_TMS\TMS_DEV\WEB_TMS\App_Code\CommonFunction.cs:line 121
   at _default.Page_Load(Object sender, EventArgs e) in c:\Work\PTT\TMS\SourceCode\WEB_TMS\TMS_DEV\WEB_TMS\Default.aspx.cs:line 47
   at System.Web.Util.CalliEventHandlerDelegateProxy.Callback(Object sender, EventArgs e)
   at System.Web.UI.Control.OnLoad(EventArgs e)
   at System.Web.UI.Control.LoadRecursive()
   at System.Web.UI.Page.ProcessRequestMain(Boolean includeStagesBeforeAsyncPoint, Boolean includeStagesAfterAsyncPoint)
 
***************************************************************************************************************************************************************************************************************************************************************************************************************************************************************************************************************************************************************************************************************************************************************************************************************************************************************************************************************************************************************************************************************************************************************************************************************************************************************************************************************************************************************************************************************************************************************************************************************************************************************************************************************************************************************************************************************************************************************************************************************************************************************************************************************************************************************************************************************************************************************************************************************************************************************************************************************************************************************************************************************************************************

[16:01:57] :: 
Error Message: ORA-12547: TNS:lost contact

Stack Trace:    at System.Data.OracleClient.OracleException.Check(OciErrorHandle errorHandle, Int32 rc)
   at System.Data.OracleClient.OracleInternalConnection.OpenOnLocalTransaction(String userName, String password, String serverName, Boolean integratedSecurity, Boolean unicode, Boolean omitOracleConnectionName)
   at System.Data.OracleClient.OracleInternalConnection..ctor(OracleConnectionString connectionOptions)
   at System.Data.OracleClient.OracleConnectionFactory.CreateConnection(DbConnectionOptions options, Object poolGroupProviderInfo, DbConnectionPool pool, DbConnection owningObject)
   at System.Data.ProviderBase.DbConnectionFactory.CreatePooledConnection(DbConnection owningConnection, DbConnectionPool pool, DbConnectionOptions options)
   at System.Data.ProviderBase.DbConnectionPool.CreateObject(DbConnection owningObject)
   at System.Data.ProviderBase.DbConnectionPool.UserCreateRequest(DbConnection owningObject)
   at System.Data.ProviderBase.DbConnectionPool.GetConnection(DbConnection owningObject)
   at System.Data.ProviderBase.DbConnectionFactory.GetConnection(DbConnection owningConnection)
   at System.Data.ProviderBase.DbConnectionClosed.OpenConnection(DbConnection outerConnection, DbConnectionFactory connectionFactory)
   at System.Data.OracleClient.OracleConnection.Open()
   at CommonFunction.Get_Data(String Conn, String _sql) in c:\Work\PTT\TMS\SourceCode\WEB_TMS\TMS_DEV\WEB_TMS\App_Code\CommonFunction.cs:line 121
   at _default.Page_Load(Object sender, EventArgs e) in c:\Work\PTT\TMS\SourceCode\WEB_TMS\TMS_DEV\WEB_TMS\Default.aspx.cs:line 47
   at System.Web.Util.CalliEventHandlerDelegateProxy.Callback(Object sender, EventArgs e)
   at System.Web.UI.Control.OnLoad(EventArgs e)
   at System.Web.UI.Control.LoadRecursive()
   at System.Web.UI.Page.ProcessRequestMain(Boolean includeStagesBeforeAsyncPoint, Boolean includeStagesAfterAsyncPoint)
 
***************************************************************************************************************************************************************************************************************************************************************************************************************************************************************************************************************************************************************************************************************************************************************************************************************************************************************************************************************************************************************************************************************************************************************************************************************************************************************************************************************************************************************************************************************************************************************************************************************************************************************************************************************************************************************************************************************************************************************************************************************************************************************************************************************************************************************************************************************************************************************************************************************************************************************************************************************************************************************************************************************************************************

[16:28:00] :: 
Error Message: Multiple controls with the same ID 'DXEditingRow' were found. FindControl requires that controls have unique IDs.
Stack Trace:    at System.Web.UI.Control.FillNamedControlsTable(Control namingContainer, ControlCollection controls)
   at System.Web.UI.Control.FillNamedControlsTable(Control namingContainer, ControlCollection controls)
   at System.Web.UI.Control.FillNamedControlsTable(Control namingContainer, ControlCollection controls)
   at System.Web.UI.Control.FillNamedControlsTable(Control namingContainer, ControlCollection controls)
   at System.Web.UI.Control.FillNamedControlsTable(Control namingContainer, ControlCollection controls)
   at System.Web.UI.Control.FillNamedControlsTable(Control namingContainer, ControlCollection controls)
   at System.Web.UI.Control.FindControl(String id, Int32 pathOffset)
   at System.Web.UI.Control.FindControl(String id, Int32 pathOffset)
   at System.Web.UI.Control.FindControl(String id, Int32 pathOffset)
   at System.Web.UI.Control.FindControl(String id, Int32 pathOffset)
   at System.Web.UI.Control.FindControl(String id, Int32 pathOffset)
   at System.Web.UI.Page.FindControl(String id)
   at System.Web.UI.Page.ProcessPostData(NameValueCollection postData, Boolean fBeforeLoad)
   at System.Web.UI.Page.ProcessRequestMain(Boolean includeStagesBeforeAsyncPoint, Boolean includeStagesAfterAsyncPoint)
 
************************************************************************************************************************************************************************************************************************************************************************************************************************************************************************************************************************************************************************************************************************************************************************************************************************************************************************************************************************************************************************************************************************************************************************************************************************************************************************************************************************************************************************************************************************************************************************************************************************************************************************************************************************************************************************************************************************************************************

[16:49:23] :: 
Error Message: ORA-12547: TNS:lost contact

Stack Trace:    at System.Data.OracleClient.OracleException.Check(OciErrorHandle errorHandle, Int32 rc)
   at System.Data.OracleClient.OracleInternalConnection.OpenOnLocalTransaction(String userName, String password, String serverName, Boolean integratedSecurity, Boolean unicode, Boolean omitOracleConnectionName)
   at System.Data.OracleClient.OracleInternalConnection..ctor(OracleConnectionString connectionOptions)
   at System.Data.OracleClient.OracleConnectionFactory.CreateConnection(DbConnectionOptions options, Object poolGroupProviderInfo, DbConnectionPool pool, DbConnection owningObject)
   at System.Data.ProviderBase.DbConnectionFactory.CreatePooledConnection(DbConnection owningConnection, DbConnectionPool pool, DbConnectionOptions options)
   at System.Data.ProviderBase.DbConnectionPool.CreateObject(DbConnection owningObject)
   at System.Data.ProviderBase.DbConnectionPool.UserCreateRequest(DbConnection owningObject)
   at System.Data.ProviderBase.DbConnectionPool.GetConnection(DbConnection owningObject)
   at System.Data.ProviderBase.DbConnectionFactory.GetConnection(DbConnection owningConnection)
   at System.Data.ProviderBase.DbConnectionClosed.OpenConnection(DbConnection outerConnection, DbConnectionFactory connectionFactory)
   at System.Data.OracleClient.OracleConnection.Open()
   at CommonFunction.Get_Data(String Conn, String _sql) in c:\Work\PTT\TMS\SourceCode\WEB_TMS\TMS_DEV\WEB_TMS\App_Code\CommonFunction.cs:line 121
   at _default.Page_Load(Object sender, EventArgs e) in c:\Work\PTT\TMS\SourceCode\WEB_TMS\TMS_DEV\WEB_TMS\Default.aspx.cs:line 47
   at System.Web.Util.CalliEventHandlerDelegateProxy.Callback(Object sender, EventArgs e)
   at System.Web.UI.Control.OnLoad(EventArgs e)
   at System.Web.UI.Control.LoadRecursive()
   at System.Web.UI.Page.ProcessRequestMain(Boolean includeStagesBeforeAsyncPoint, Boolean includeStagesAfterAsyncPoint)
 
***************************************************************************************************************************************************************************************************************************************************************************************************************************************************************************************************************************************************************************************************************************************************************************************************************************************************************************************************************************************************************************************************************************************************************************************************************************************************************************************************************************************************************************************************************************************************************************************************************************************************************************************************************************************************************************************************************************************************************************************************************************************************************************************************************************************************************************************************************************************************************************************************************************************************************************************************************************************************************************************************************************************************

