[16:50:35] :: 
Error Message: ORA-03113: end-of-file on communication channel
Process ID: 0
Session ID: 646 Serial number: 64214

Stack Trace:    at System.Data.OracleClient.OracleConnection.CheckError(OciErrorHandle errorHandle, Int32 rc)
   at System.Data.OracleClient.OracleCommand.Execute(OciStatementHandle statementHandle, CommandBehavior behavior, Boolean needRowid, OciRowidDescriptor& rowidDescriptor, ArrayList& resultParameterOrdinals)
   at System.Data.OracleClient.OracleCommand.Execute(OciStatementHandle statementHandle, CommandBehavior behavior, ArrayList& resultParameterOrdinals)
   at System.Data.OracleClient.OracleCommand.ExecuteReader(CommandBehavior behavior)
   at System.Data.OracleClient.OracleCommand.ExecuteDbDataReader(CommandBehavior behavior)
   at System.Data.Common.DbCommand.System.Data.IDbCommand.ExecuteReader(CommandBehavior behavior)
   at System.Data.Common.DbDataAdapter.FillInternal(DataSet dataset, DataTable[] datatables, Int32 startRecord, Int32 maxRecords, String srcTable, IDbCommand command, CommandBehavior behavior)
   at System.Data.Common.DbDataAdapter.Fill(DataTable[] dataTables, Int32 startRecord, Int32 maxRecords, IDbCommand command, CommandBehavior behavior)
   at System.Data.Common.DbDataAdapter.Fill(DataTable dataTable)
   at CommonFunction.Get_Data(String Conn, String _sql) in c:\Work\PTT\TMS\SourceCode\WEB_TMS\TMS_DEV\WEB_TMS\App_Code\CommonFunction.cs:line 122
   at MP.SetMenu() in c:\Work\PTT\TMS\SourceCode\WEB_TMS\TMS_DEV\WEB_TMS\MP.master.cs:line 259
   at MP.Page_Load(Object sender, EventArgs e) in c:\Work\PTT\TMS\SourceCode\WEB_TMS\TMS_DEV\WEB_TMS\MP.master.cs:line 73
   at System.Web.Util.CalliEventHandlerDelegateProxy.Callback(Object sender, EventArgs e)
   at System.Web.UI.Control.OnLoad(EventArgs e)
   at System.Web.UI.Control.LoadRecursive()
   at System.Web.UI.Control.LoadRecursive()
   at System.Web.UI.Page.ProcessRequestMain(Boolean includeStagesBeforeAsyncPoint, Boolean includeStagesAfterAsyncPoint)
 
*******************************************************************************************************************************************************************************************************************************************************************************************************************************************************************************************************************************************************************************************************************************************************************************************************************************************************************************************************************************************************************************************************************************************************************************************************************************************************************************************************************************************************************************************************************************************************************************************************************************************************************************************************************************************************************************************************************************************************************************************************************************************************************************************************************************************************************************************************************************************************************************************************************************************************************************************************************************************************************************************************************************************************************************************

[16:51:26] :: 
Error Message: ORA-03113: end-of-file on communication channel
Process ID: 0
Session ID: 921 Serial number: 36076

Stack Trace:    at TMS_BLL.Master.VendorBLL.VendorList(String Condition) in c:\Work\PTT\TMS\SourceCode\WEB_TMS\TMS_DEV\TMS_BLL\Master\VendorBLL.cs:line 119
   at vendor_employee.GetData() in c:\Work\PTT\TMS\SourceCode\WEB_TMS\TMS_DEV\WEB_TMS\vendor_employee.aspx.cs:line 399
   at vendor_employee.Listdata() in c:\Work\PTT\TMS\SourceCode\WEB_TMS\TMS_DEV\WEB_TMS\vendor_employee.aspx.cs:line 405
   at vendor_employee.xcpn_Load(Object sender, EventArgs e) in c:\Work\PTT\TMS\SourceCode\WEB_TMS\TMS_DEV\WEB_TMS\vendor_employee.aspx.cs:line 205
   at System.Web.UI.Control.OnLoad(EventArgs e)
   at DevExpress.Web.ASPxClasses.ASPxWebControlBase.OnLoad(EventArgs e)
   at DevExpress.Web.ASPxClasses.ASPxWebControl.OnLoad(EventArgs e)
   at System.Web.UI.Control.LoadRecursive()
   at System.Web.UI.Control.LoadRecursive()
   at System.Web.UI.Control.LoadRecursive()
   at System.Web.UI.Control.LoadRecursive()
   at System.Web.UI.Control.LoadRecursive()
   at System.Web.UI.Page.ProcessRequestMain(Boolean includeStagesBeforeAsyncPoint, Boolean includeStagesAfterAsyncPoint)
 
*****************************************************************************************************************************************************************************************************************************************************************************************************************************************************************************************************************************************************************************************************************************************************************************************************************************************************************************************************************************************************************************************************************************************************************************************************************************************************************************************************************************************************************************************************************************************************************************************************************************************************************

