[15:19:30] :: 
Error Message: ORA-00904: "DPLAN": ตัวระบุไม่ถูกต้อง

Stack Trace:    at System.Data.OracleClient.OracleConnection.CheckError(OciErrorHandle errorHandle, Int32 rc)
   at System.Data.OracleClient.OracleCommand.Execute(OciStatementHandle statementHandle, CommandBehavior behavior, Boolean needRowid, OciRowidDescriptor& rowidDescriptor, ArrayList& resultParameterOrdinals)
   at System.Data.OracleClient.OracleCommand.Execute(OciStatementHandle statementHandle, CommandBehavior behavior, ArrayList& resultParameterOrdinals)
   at System.Data.OracleClient.OracleCommand.ExecuteReader(CommandBehavior behavior)
   at System.Data.OracleClient.OracleCommand.ExecuteDbDataReader(CommandBehavior behavior)
   at System.Data.Common.DbCommand.System.Data.IDbCommand.ExecuteReader(CommandBehavior behavior)
   at System.Data.Common.DbDataAdapter.FillInternal(DataSet dataset, DataTable[] datatables, Int32 startRecord, Int32 maxRecords, String srcTable, IDbCommand command, CommandBehavior behavior)
   at System.Data.Common.DbDataAdapter.Fill(DataTable[] dataTables, Int32 startRecord, Int32 maxRecords, IDbCommand command, CommandBehavior behavior)
   at System.Data.Common.DbDataAdapter.Fill(DataTable dataTable)
   at CommonFunction.Get_Data(String Conn, String _sql) in e:\Project\TMS\ASP.NET\App_Code\CommonFunction.cs:line 122
   at PlanTransport.ListData() in e:\Project\TMS\ASP.NET\PlanTransport.aspx.cs:line 308
   at PlanTransport.Page_Load(Object sender, EventArgs e) in e:\Project\TMS\ASP.NET\PlanTransport.aspx.cs:line 36
   at System.Web.Util.CalliHelper.EventArgFunctionCaller(IntPtr fp, Object o, Object t, EventArgs e)
   at System.Web.Util.CalliEventHandlerDelegateProxy.Callback(Object sender, EventArgs e)
   at System.Web.UI.Control.OnLoad(EventArgs e)
   at System.Web.UI.Control.LoadRecursive()
   at System.Web.UI.Page.ProcessRequestMain(Boolean includeStagesBeforeAsyncPoint, Boolean includeStagesAfterAsyncPoint)
 
********************************************************************************************************************************************************************************************************************************************************************************************************************************************************************************************************************************************************************************************************************************************************************************************************************************************************************************************************************************************************************************************************************************************************************************************************************************************************************************************************************************************************************************************************************************************************************************************************************************************************************************************************************************************************************************************************************************************************************************************************************************************************************************************************************************************************************************************************************************************************************************************************************************************************************************************************************************************************************************************************************************************

[15:39:46] :: 
Error Message: ORA-00918: กำหนดคอลัมน์ไม่ชัดเจน

Stack Trace:    at System.Data.OracleClient.OracleConnection.CheckError(OciErrorHandle errorHandle, Int32 rc)
   at System.Data.OracleClient.OracleCommand.Execute(OciStatementHandle statementHandle, CommandBehavior behavior, Boolean needRowid, OciRowidDescriptor& rowidDescriptor, ArrayList& resultParameterOrdinals)
   at System.Data.OracleClient.OracleCommand.Execute(OciStatementHandle statementHandle, CommandBehavior behavior, ArrayList& resultParameterOrdinals)
   at System.Data.OracleClient.OracleCommand.ExecuteReader(CommandBehavior behavior)
   at System.Data.OracleClient.OracleCommand.ExecuteDbDataReader(CommandBehavior behavior)
   at System.Data.Common.DbCommand.System.Data.IDbCommand.ExecuteReader(CommandBehavior behavior)
   at System.Data.Common.DbDataAdapter.FillInternal(DataSet dataset, DataTable[] datatables, Int32 startRecord, Int32 maxRecords, String srcTable, IDbCommand command, CommandBehavior behavior)
   at System.Data.Common.DbDataAdapter.Fill(DataTable[] dataTables, Int32 startRecord, Int32 maxRecords, IDbCommand command, CommandBehavior behavior)
   at System.Data.Common.DbDataAdapter.Fill(DataTable dataTable)
   at CommonFunction.Get_Data(String Conn, String _sql) in e:\Project\TMS\ASP.NET\App_Code\CommonFunction.cs:line 122
   at OrderPlan.ListData() in e:\Project\TMS\ASP.NET\OrderPlan.aspx.cs:line 567
   at OrderPlan.Page_Load(Object sender, EventArgs e) in e:\Project\TMS\ASP.NET\OrderPlan.aspx.cs:line 40
   at System.Web.Util.CalliHelper.EventArgFunctionCaller(IntPtr fp, Object o, Object t, EventArgs e)
   at System.Web.Util.CalliEventHandlerDelegateProxy.Callback(Object sender, EventArgs e)
   at System.Web.UI.Control.OnLoad(EventArgs e)
   at System.Web.UI.Control.LoadRecursive()
   at System.Web.UI.Page.ProcessRequestMain(Boolean includeStagesBeforeAsyncPoint, Boolean includeStagesAfterAsyncPoint)
 
***********************************************************************************************************************************************************************************************************************************************************************************************************************************************************************************************************************************************************************************************************************************************************************************************************************************************************************************************************************************************************************************************************************************************************************************************************************************************************************************************************************************************************************************************************************************************************************************************************************************************************************************************************************************************************************************************************************************************************************************************************************************************************************************************************************************************************************************************************************************************************************************************************************************************************************************************************************************************************************************************************************

[17:36:06] :: 
Error Message: The connection name 'NorthwindConnectionString' was not found in the applications configuration or the connection string is empty.
Stack Trace:    at System.Web.Compilation.ConnectionStringsExpressionBuilder.GetConnectionString(String connectionStringName)
   at ASP.plantransport_aspx.__BuildControlSqlDataSource2() in e:\Project\TMS\ASP.NET\PlanTransport.aspx:line 373
   at ASP.plantransport_aspx.__BuildControl__control4() in e:\Project\TMS\ASP.NET\PlanTransport.aspx:line 67
   at ASP.plantransport_aspx.__BuildControl__control3(PanelCollection __ctrl) in e:\Project\TMS\ASP.NET\PlanTransport.aspx:line 62
   at ASP.plantransport_aspx.__BuildControlxcpn() in e:\Project\TMS\ASP.NET\PlanTransport.aspx:line 62
   at ASP.plantransport_aspx.__BuildControlContent3(Control __ctrl) in e:\Project\TMS\ASP.NET\PlanTransport.aspx:line 61
   at System.Web.UI.CompiledTemplateBuilder.InstantiateIn(Control container)
   at System.Web.UI.MasterPage.InstantiateInContentPlaceHolder(Control contentPlaceHolder, ITemplate template)
   at ASP.mp_master.__BuildControlcph_Main() in e:\Project\TMS\ASP.NET\MP.master:line 179
   at ASP.mp_master.__BuildControlForm1() in e:\Project\TMS\ASP.NET\MP.master:line 173
   at ASP.mp_master.__BuildControlTree(mp_master __ctrl) in e:\Project\TMS\ASP.NET\MP.master:line 1
   at ASP.mp_master.FrameworkInitialize() in e:\Project\TMS\ASP.NET\MP.master.cs:line 912308
   at System.Web.UI.UserControl.InitializeAsUserControlInternal()
   at System.Web.UI.MasterPage.CreateMaster(TemplateControl owner, HttpContext context, VirtualPath masterPageFile, IDictionary contentTemplateCollection)
   at System.Web.UI.Page.get_Master()
   at System.Web.UI.Page.ApplyMasterPage()
   at System.Web.UI.Page.PerformPreInit()
   at System.Web.UI.Page.ProcessRequestMain(Boolean includeStagesBeforeAsyncPoint, Boolean includeStagesAfterAsyncPoint)
 
*************************************************************************************************************************************************************************************************************************************************************************************************************************************************************************************************************************************************************************************************************************************************************************************************************************************************************************************************************************************************************************************************************************************************************************************************************************************************************************************************************************************************************************************************************************************************************************************************************************************************************************************************************************************************************************************************************************************************************************************************************************************************************************************************************************************************************************************************************************************************************************************************************************************************************************************************************************************************************************************

[17:36:08] :: 
Error Message: The connection name 'NorthwindConnectionString' was not found in the applications configuration or the connection string is empty.
Stack Trace:    at System.Web.Compilation.ConnectionStringsExpressionBuilder.GetConnectionString(String connectionStringName)
   at ASP.plantransport_aspx.__BuildControlSqlDataSource2() in e:\Project\TMS\ASP.NET\PlanTransport.aspx:line 373
   at ASP.plantransport_aspx.__BuildControl__control4() in e:\Project\TMS\ASP.NET\PlanTransport.aspx:line 67
   at ASP.plantransport_aspx.__BuildControl__control3(PanelCollection __ctrl) in e:\Project\TMS\ASP.NET\PlanTransport.aspx:line 62
   at ASP.plantransport_aspx.__BuildControlxcpn() in e:\Project\TMS\ASP.NET\PlanTransport.aspx:line 62
   at ASP.plantransport_aspx.__BuildControlContent3(Control __ctrl) in e:\Project\TMS\ASP.NET\PlanTransport.aspx:line 61
   at System.Web.UI.CompiledTemplateBuilder.InstantiateIn(Control container)
   at System.Web.UI.MasterPage.InstantiateInContentPlaceHolder(Control contentPlaceHolder, ITemplate template)
   at ASP.mp_master.__BuildControlcph_Main() in e:\Project\TMS\ASP.NET\MP.master:line 179
   at ASP.mp_master.__BuildControlForm1() in e:\Project\TMS\ASP.NET\MP.master:line 173
   at ASP.mp_master.__BuildControlTree(mp_master __ctrl) in e:\Project\TMS\ASP.NET\MP.master:line 1
   at ASP.mp_master.FrameworkInitialize() in e:\Project\TMS\ASP.NET\MP.master.cs:line 912308
   at System.Web.UI.UserControl.InitializeAsUserControlInternal()
   at System.Web.UI.MasterPage.CreateMaster(TemplateControl owner, HttpContext context, VirtualPath masterPageFile, IDictionary contentTemplateCollection)
   at System.Web.UI.Page.get_Master()
   at System.Web.UI.Page.ApplyMasterPage()
   at System.Web.UI.Page.PerformPreInit()
   at System.Web.UI.Page.ProcessRequestMain(Boolean includeStagesBeforeAsyncPoint, Boolean includeStagesAfterAsyncPoint)
 
*************************************************************************************************************************************************************************************************************************************************************************************************************************************************************************************************************************************************************************************************************************************************************************************************************************************************************************************************************************************************************************************************************************************************************************************************************************************************************************************************************************************************************************************************************************************************************************************************************************************************************************************************************************************************************************************************************************************************************************************************************************************************************************************************************************************************************************************************************************************************************************************************************************************************************************************************************************************************************************************

[17:38:54] :: 
Error Message: ORA-00936: ไม่มีเอ็กซ์เพรสชัน

Stack Trace:    at System.Data.OracleClient.OracleConnection.CheckError(OciErrorHandle errorHandle, Int32 rc)
   at System.Data.OracleClient.OracleCommand.Execute(OciStatementHandle statementHandle, CommandBehavior behavior, Boolean needRowid, OciRowidDescriptor& rowidDescriptor, ArrayList& resultParameterOrdinals)
   at System.Data.OracleClient.OracleCommand.Execute(OciStatementHandle statementHandle, CommandBehavior behavior, ArrayList& resultParameterOrdinals)
   at System.Data.OracleClient.OracleCommand.ExecuteReader(CommandBehavior behavior)
   at System.Data.OracleClient.OracleCommand.ExecuteDbDataReader(CommandBehavior behavior)
   at System.Data.Common.DbCommand.System.Data.IDbCommand.ExecuteReader(CommandBehavior behavior)
   at System.Data.Common.DbDataAdapter.FillInternal(DataSet dataset, DataTable[] datatables, Int32 startRecord, Int32 maxRecords, String srcTable, IDbCommand command, CommandBehavior behavior)
   at System.Data.Common.DbDataAdapter.Fill(DataSet dataSet, Int32 startRecord, Int32 maxRecords, String srcTable, IDbCommand command, CommandBehavior behavior)
   at System.Data.Common.DbDataAdapter.Fill(DataSet dataSet, String srcTable)
   at System.Web.UI.WebControls.SqlDataSourceView.ExecuteSelect(DataSourceSelectArguments arguments)
   at System.Web.UI.WebControls.SqlDataSource.Select(DataSourceSelectArguments arguments)
   at PlanTransport.InitAutoCompleteValues() in e:\Project\TMS\ASP.NET\PlanTransport.aspx.cs:line 34
   at PlanTransport.Page_Init(Object sender, EventArgs e) in e:\Project\TMS\ASP.NET\PlanTransport.aspx.cs:line 24
   at System.Web.Util.CalliHelper.EventArgFunctionCaller(IntPtr fp, Object o, Object t, EventArgs e)
   at System.Web.Util.CalliEventHandlerDelegateProxy.Callback(Object sender, EventArgs e)
   at System.Web.UI.Control.OnInit(EventArgs e)
   at System.Web.UI.Page.OnInit(EventArgs e)
   at System.Web.UI.Control.InitRecursive(Control namingContainer)
   at System.Web.UI.Page.ProcessRequestMain(Boolean includeStagesBeforeAsyncPoint, Boolean includeStagesAfterAsyncPoint)
 
***********************************************************************************************************************************************************************************************************************************************************************************************************************************************************************************************************************************************************************************************************************************************************************************************************************************************************************************************************************************************************************************************************************************************************************************************************************************************************************************************************************************************************************************************************************************************************************************************************************************************************************************************************************************************************************************************************************************************************************************************************************************************************************************************************************************************************************************************************************************************************************************************************************************************************************************************************************************************************************************************************************************************************************************************************************************************************************************************************************

[17:58:34] :: 
Error Message: Could not load file or assembly 'DevExpress.Web.v9.3, Version=9.3.2.0, Culture=neutral, PublicKeyToken=b88d1754d700e49a' or one of its dependencies. The system cannot find the file specified.
Stack Trace:    at System.Web.UI.TemplateParser.ProcessException(Exception ex)
   at System.Web.UI.TemplateParser.ParseStringInternal(String text, Encoding fileEncoding)
   at System.Web.UI.TemplateParser.ParseString(String text, VirtualPath virtualPath, Encoding fileEncoding)
 
**************************************************************************************************************************************************************************************************************************************************************************************************************************************************************************************************************************************************************************************************************************

[18:00:01] :: 
Error Message: A field or property with name 'DDELIVERY' was not found in the selected data source. Possible causes of this error may be the following: an incorrect or case-insensitive spelling of the grid column name; assigning a wrong or not properly initialized data source to the grid.
Stack Trace:    at DevExpress.Web.Data.WebDataControllerProvider.GetRowValueByControllerRow(Int32 controllerRow, String fieldName, Boolean isDesignTime)
   at DevExpress.Web.Data.WebDataControllerProvider.GetRowValue(Int32 visibleIndex, String fieldName, Boolean isDesignTime)
   at DevExpress.Web.Data.WebDataProxy.GetRowValue(Int32 visibleIndex, String fieldName)
   at DevExpress.Web.ASPxGridView.Rendering.ASPxGridViewTextBuilder.GetDisplayControlArgs(GridViewDataColumn column, Int32 visibleIndex, IValueProvider provider, ASPxGridView grid)
   at DevExpress.Web.ASPxGridView.Rendering.ASPxGridViewRenderHelper.CreateDataCellDisplayControl(GridViewDataColumn column, Int32 visibleIndex, IValueProvider row)
   at DevExpress.Web.ASPxGridView.Rendering.ASPxGridViewRenderHelper.AddDisplayControlToDataCell(Control cell, GridViewDataColumn column, Int32 visibleIndex, IValueProvider row)
   at DevExpress.Web.ASPxGridView.Rendering.GridViewTableDataCell.CreateControlHierarchy()
   at DevExpress.Web.ASPxClasses.Internal.InternalTableCell.CreateChildControls()
   at System.Web.UI.Control.EnsureChildControls()
   at DevExpress.Web.ASPxClasses.Internal.InternalTableCell.DevExpress.Web.ASPxClasses.Internal.IASPxWebControl.EnsureChildControls()
   at DevExpress.Web.ASPxClasses.Internal.RenderUtils.EnsureChildControlsRecursive(Control control, Boolean skipContentContainers)
   at DevExpress.Web.ASPxClasses.Internal.RenderUtils.EnsureChildControlsRecursive(Control control, Boolean skipContentContainers)
   at DevExpress.Web.ASPxClasses.Internal.RenderUtils.EnsureChildControlsRecursive(Control control, Boolean skipContentContainers)
   at DevExpress.Web.ASPxClasses.Internal.RenderUtils.EnsureChildControlsRecursive(Control control, Boolean skipContentContainers)
   at DevExpress.Web.ASPxClasses.ASPxWebControlBase.EnsureChildControlsRecursive(Control control, Boolean skipContentContainers)
   at DevExpress.Web.ASPxClasses.ASPxWebControlBase.EnsureChildControlsRecursive(Control control)
   at DevExpress.Web.ASPxClasses.ASPxWebControlBase.CreateChildControls()
   at System.Web.UI.Control.EnsureChildControls()
   at DevExpress.Web.ASPxClasses.ASPxWebControlBase.EnsureChildControls()
   at DevExpress.Web.ASPxClasses.ASPxWebControlBase.DevExpress.Web.ASPxClasses.Internal.IASPxWebControl.EnsureChildControls()
   at DevExpress.Web.ASPxClasses.Internal.RenderUtils.EnsureChildControlsRecursive(Control control, Boolean skipContentContainers)
   at DevExpress.Web.ASPxClasses.Internal.RenderUtils.EnsureChildControlsRecursive(Control control, Boolean skipContentContainers)
   at DevExpress.Web.ASPxClasses.Internal.RenderUtils.EnsureChildControlsRecursive(Control control, Boolean skipContentContainers)
   at DevExpress.Web.ASPxClasses.Internal.RenderUtils.EnsureChildControlsRecursive(Control control, Boolean skipContentContainers)
   at DevExpress.Web.ASPxClasses.Internal.RenderUtils.EnsureChildControlsRecursive(Control control, Boolean skipContentContainers)
   at DevExpress.Web.ASPxClasses.ASPxWebControlBase.EnsureChildControlsRecursive(Control control, Boolean skipContentContainers)
   at DevExpress.Web.ASPxClasses.ASPxWebControlBase.EnsureChildControlsRecursive(Control control)
   at DevExpress.Web.ASPxClasses.ASPxWebControlBase.CreateChildControls()
   at DevExpress.Web.ASPxClasses.ASPxWebControl.CreateChildControls()
   at System.Web.UI.Control.EnsureChildControls()
   at DevExpress.Web.ASPxClasses.ASPxWebControlBase.EnsureChildControls()
   at DevExpress.Web.ASPxClasses.ASPxDataWebControlBase.DataBindInternal()
   at DevExpress.Web.ASPxClasses.ASPxWebControl.DataBind()
   at DevExpress.Web.ASPxGridView.ASPxGridView.DataBind()
   at PlanTransport.Page_Init(Object sender, EventArgs e) in e:\Project\TMS\ASP.NET\PlanTransport.aspx.cs:line 46
   at System.Web.Util.CalliHelper.EventArgFunctionCaller(IntPtr fp, Object o, Object t, EventArgs e)
   at System.Web.Util.CalliEventHandlerDelegateProxy.Callback(Object sender, EventArgs e)
   at System.Web.UI.Control.OnInit(EventArgs e)
   at System.Web.UI.Page.OnInit(EventArgs e)
   at System.Web.UI.Control.InitRecursive(Control namingContainer)
   at System.Web.UI.Page.ProcessRequestMain(Boolean includeStagesBeforeAsyncPoint, Boolean includeStagesAfterAsyncPoint)
 
***************************************************************************************************************************************************************************************************************************************************************************************************************************************************************************************************************************************************************************************************************************************************************************************************************************************************************************************************************************************************************************************************************************************************************************************************************************************************************************************************************************************************************************************************************************************************************************************************************************************************************************************************************************************************************************************************************************************************************************************************************************************************************************************************************************************************************************************************************************************************************************************************************************************************************************************************************************************************************************************************************************************************************************************************************************************************************************************************************************************************************************************************************************************************************************************************************************************************************************************************************************************************************************************************************************************************************************************************************************************************************************************************************************************************************************************************************************************************************************************************************************************************************************************************************************************************************************************************************************************************************************************************************************************************************************************************************************************************************************************************************************************************************************************************************************************************************************************************************************************************************************************************************************************************************************************************************************************************************************************************************************************************************************************************************************************************************************************************************************************************************************************************************************************************************************************************************************************************************************************************************************************************************************************************************************************************************************************************************************************************************************************

[18:59:36] :: 
Error Message: A field with the name 'SHEADID' was not found on the selected data source.
Stack Trace:    at DevExpress.Web.ASPxClasses.Internal.DataUtils.GetFieldValue(Object obj, String fieldName, Boolean isFieldRequired, Boolean designMode, DefaultValueContainer defaultValue, Boolean& fieldFound)
   at DevExpress.Web.ASPxClasses.Internal.DataUtils.GetFieldValue(Object obj, String fieldName, Boolean isFieldRequired, Boolean designMode, Boolean& fieldFound)
   at DevExpress.Web.ASPxEditors.Internal.EditDataHelper.GetDataItemValue(Object dataItem, String actualValueFieldName, String valueFieldName, String textFieldName, Boolean designMode)
   at DevExpress.Web.ASPxEditors.Internal.ListEditBoundDataItemWrapper.GetItemValue(String actualValueFieldName)
   at DevExpress.Web.ASPxEditors.Internal.ListEditDataItemWrapper.get_Value()
   at DevExpress.Web.ASPxEditors.ListEditItemBase.get_Value()
   at DevExpress.Web.ASPxEditors.ListEditItem.get_Value()
   at DevExpress.Web.ASPxEditors.ListEditItemCollectionBase.IndexOfValue(Object value)
   at DevExpress.Web.ASPxEditors.ListEditItemCollectionBase.FindByValueInternal(Object value)
   at DevExpress.Web.ASPxEditors.ListEditItemCollection.FindByValue(Object value)
   at DevExpress.Web.ASPxEditors.Internal.ListEditSingleSelectStrategy.GetSelectedIndex(Boolean convertEmptyStringToNull)
   at DevExpress.Web.ASPxEditors.Internal.ListEditSingleSelectStrategy.GetSelectedItem(Boolean convertEmptyStringToNull)
   at DevExpress.Web.ASPxEditors.Internal.ListEditHelper.GetSelectedItem(Boolean convertEmptyStringToNull)
   at DevExpress.Web.ASPxEditors.ASPxComboBox.get_SelectedItem()
   at DevExpress.Web.ASPxEditors.ASPxComboBox.DataBind()
   at PlanTransport.cboCarregis_ItemsRequestedByFilterConditionSQL(Object source, ListEditItemsRequestedByFilterConditionEventArgs e) in e:\Project\TMS\ASP.NET\PlanTransport.aspx.cs:line 516
   at DevExpress.Web.ASPxEditors.ASPxComboBox.RaiseItemsRequestedByFilterCondition(ListEditItemsRequestedByFilterConditionEventArgs e)
   at DevExpress.Web.ASPxEditors.Internal.ComboBoxItemRequestEventHelper.RequestItemsPageWithFilter(String filter, Int32 beginIndex, Int32 endIndex)
   at DevExpress.Web.ASPxEditors.ASPxComboBox.LoadFirstItemsPage()
   at DevExpress.Web.ASPxEditors.ASPxComboBox.LoadFirstItemsPageIfRequired()
   at DevExpress.Web.ASPxEditors.ASPxComboBox.EnsurePreRender()
   at DevExpress.Web.ASPxClasses.ASPxWebControlBase.OnPreRender(EventArgs e)
   at DevExpress.Web.ASPxClasses.ASPxWebControl.OnPreRender(EventArgs e)
   at DevExpress.Web.ASPxClasses.ASPxDataWebControlBase.OnPreRender(EventArgs e)
   at System.Web.UI.Control.PreRenderRecursiveInternal()
   at System.Web.UI.Control.PreRenderRecursiveInternal()
   at System.Web.UI.Control.PreRenderRecursiveInternal()
   at System.Web.UI.Control.PreRenderRecursiveInternal()
   at System.Web.UI.Control.PreRenderRecursiveInternal()
   at System.Web.UI.Control.PreRenderRecursiveInternal()
   at System.Web.UI.Control.PreRenderRecursiveInternal()
   at System.Web.UI.Control.PreRenderRecursiveInternal()
   at System.Web.UI.Control.PreRenderRecursiveInternal()
   at System.Web.UI.Page.ProcessRequestMain(Boolean includeStagesBeforeAsyncPoint, Boolean includeStagesAfterAsyncPoint)
 
******************************************************************************************************************************************************************************************************************************************************************************************************************************************************************************************************************************************************************************************************************************************************************************************************************************************************************************************************************************************************************************************************************************************************************************************************************************************************************************************************************************************************************************************************************************************************************************************************************************************************************************************************************************************************************************************************************************************************************************************************************************************************************************************************************************************************************************************************************************************************************************************************************************************************************************************************************************************************************************************************************************************************************************************************************************************************************************************************************************************************************************************************************************************************************************************************************************************************************************************************************************************************************************************************************************************************************************************************************************************************************************************************************************************************************************************************************************************************************************************************************************************************************************************************************************************************************************************************************************************************************************************************************************************************************************************************************************

