[09:24:40] :: 
Error Message: ORA-00936: ไม่มีเอ็กซ์เพรสชัน

Stack Trace:    at System.Data.OracleClient.OracleConnection.CheckError(OciErrorHandle errorHandle, Int32 rc)
   at System.Data.OracleClient.OracleCommand.Execute(OciStatementHandle statementHandle, CommandBehavior behavior, Boolean needRowid, OciRowidDescriptor& rowidDescriptor, ArrayList& resultParameterOrdinals)
   at System.Data.OracleClient.OracleCommand.Execute(OciStatementHandle statementHandle, CommandBehavior behavior, ArrayList& resultParameterOrdinals)
   at System.Data.OracleClient.OracleCommand.ExecuteReader(CommandBehavior behavior)
   at System.Data.OracleClient.OracleCommand.ExecuteDbDataReader(CommandBehavior behavior)
   at System.Data.Common.DbCommand.System.Data.IDbCommand.ExecuteReader(CommandBehavior behavior)
   at System.Data.Common.DbDataAdapter.FillInternal(DataSet dataset, DataTable[] datatables, Int32 startRecord, Int32 maxRecords, String srcTable, IDbCommand command, CommandBehavior behavior)
   at System.Data.Common.DbDataAdapter.Fill(DataTable[] dataTables, Int32 startRecord, Int32 maxRecords, IDbCommand command, CommandBehavior behavior)
   at System.Data.Common.DbDataAdapter.Fill(DataTable dataTable)
   at CommonFunction.Get_Data(String Conn, String _sql) in e:\Project\TMS\ASP.NET\App_Code\CommonFunction.cs:line 122
   at OrderPlan.ListT1() in e:\Project\TMS\ASP.NET\OrderPlan.aspx.cs:line 670
   at OrderPlan.Page_Load(Object sender, EventArgs e) in e:\Project\TMS\ASP.NET\OrderPlan.aspx.cs:line 47
   at System.Web.Util.CalliHelper.EventArgFunctionCaller(IntPtr fp, Object o, Object t, EventArgs e)
   at System.Web.Util.CalliEventHandlerDelegateProxy.Callback(Object sender, EventArgs e)
   at System.Web.UI.Control.OnLoad(EventArgs e)
   at System.Web.UI.Control.LoadRecursive()
   at System.Web.UI.Page.ProcessRequestMain(Boolean includeStagesBeforeAsyncPoint, Boolean includeStagesAfterAsyncPoint)
 
******************************************************************************************************************************************************************************************************************************************************************************************************************************************************************************************************************************************************************************************************************************************************************************************************************************************************************************************************************************************************************************************************************************************************************************************************************************************************************************************************************************************************************************************************************************************************************************************************************************************************************************************************************************************************************************************************************************************************************************************************************************************************************************************************************************************************************************************************************************************************************************************************************************************************************************************************************************************************************************************************************

[09:55:59] :: 
Error Message: Index (zero based) must be greater than or equal to zero and less than the size of the argument list.
Stack Trace:    at System.Text.StringBuilder.AppendFormat(IFormatProvider provider, String format, Object[] args)
   at System.String.Format(IFormatProvider provider, String format, Object[] args)
   at System.String.Format(String format, Object arg0, Object arg1)
   at DevExpress.Web.ASPxGridView.ASPxSummaryItem.GenerateDisplayText(String defaultFormat, Object value, GridViewColumn column)
   at DevExpress.Web.ASPxGridView.ASPxSummaryItem.GetGroupRowDisplayText(GridViewColumn column, Object value)
   at DevExpress.Web.ASPxGridView.ASPxGridView.GetGroupRowSummaryTextCore(Int32 visibleIndex, StringBuilder sb)
   at DevExpress.Web.ASPxGridView.ASPxGridView.GetGroupRowSummaryText(Int32 visibleIndex)
   at DevExpress.Web.ASPxGridView.Rendering.ASPxGridViewTextBuilder.GetGroupRowText(GridViewDataColumn column, Int32 visibleIndex)
   at DevExpress.Web.ASPxGridView.Rendering.GridViewTableGroupRow.GetDisplayText()
   at DevExpress.Web.ASPxGridView.Rendering.GridViewTableGroupRow.CreateContentCell()
   at DevExpress.Web.ASPxGridView.Rendering.GridViewTableGroupRow.CreateControlHierarchy()
   at DevExpress.Web.ASPxClasses.Internal.InternalTableRow.CreateChildControls()
   at System.Web.UI.Control.EnsureChildControls()
   at DevExpress.Web.ASPxClasses.Internal.InternalTableRow.DevExpress.Web.ASPxClasses.Internal.IASPxWebControl.EnsureChildControls()
   at DevExpress.Web.ASPxClasses.Internal.RenderUtils.EnsureChildControlsRecursive(Control control, Boolean skipContentContainers)
   at DevExpress.Web.ASPxClasses.Internal.RenderUtils.EnsureChildControlsRecursive(Control control, Boolean skipContentContainers)
   at DevExpress.Web.ASPxClasses.Internal.RenderUtils.EnsureChildControlsRecursive(Control control, Boolean skipContentContainers)
   at DevExpress.Web.ASPxClasses.ASPxWebControlBase.EnsureChildControlsRecursive(Control control, Boolean skipContentContainers)
   at DevExpress.Web.ASPxClasses.ASPxWebControlBase.EnsureChildControlsRecursive(Control control)
   at DevExpress.Web.ASPxClasses.ASPxWebControlBase.CreateChildControls()
   at System.Web.UI.Control.EnsureChildControls()
   at DevExpress.Web.ASPxClasses.ASPxWebControlBase.EnsureChildControls()
   at DevExpress.Web.ASPxClasses.ASPxWebControlBase.DevExpress.Web.ASPxClasses.Internal.IASPxWebControl.EnsureChildControls()
   at DevExpress.Web.ASPxClasses.Internal.RenderUtils.EnsureChildControlsRecursive(Control control, Boolean skipContentContainers)
   at DevExpress.Web.ASPxClasses.Internal.RenderUtils.EnsureChildControlsRecursive(Control control, Boolean skipContentContainers)
   at DevExpress.Web.ASPxClasses.Internal.RenderUtils.EnsureChildControlsRecursive(Control control, Boolean skipContentContainers)
   at DevExpress.Web.ASPxClasses.Internal.RenderUtils.EnsureChildControlsRecursive(Control control, Boolean skipContentContainers)
   at DevExpress.Web.ASPxClasses.Internal.RenderUtils.EnsureChildControlsRecursive(Control control, Boolean skipContentContainers)
   at DevExpress.Web.ASPxClasses.ASPxWebControlBase.EnsureChildControlsRecursive(Control control, Boolean skipContentContainers)
   at DevExpress.Web.ASPxClasses.ASPxWebControlBase.EnsureChildControlsRecursive(Control control)
   at DevExpress.Web.ASPxClasses.ASPxWebControlBase.CreateChildControls()
   at DevExpress.Web.ASPxClasses.ASPxWebControl.CreateChildControls()
   at System.Web.UI.Control.EnsureChildControls()
   at DevExpress.Web.ASPxClasses.ASPxWebControlBase.EnsureChildControls()
   at DevExpress.Web.ASPxClasses.ASPxDataWebControlBase.DataBindInternal()
   at DevExpress.Web.ASPxClasses.ASPxWebControl.DataBind()
   at DevExpress.Web.ASPxGridView.ASPxGridView.DataBind()
   at OrderPlan.ListT1() in e:\Project\TMS\ASP.NET\OrderPlan.aspx.cs:line 674
   at OrderPlan.Page_Load(Object sender, EventArgs e) in e:\Project\TMS\ASP.NET\OrderPlan.aspx.cs:line 47
   at System.Web.Util.CalliHelper.EventArgFunctionCaller(IntPtr fp, Object o, Object t, EventArgs e)
   at System.Web.Util.CalliEventHandlerDelegateProxy.Callback(Object sender, EventArgs e)
   at System.Web.UI.Control.OnLoad(EventArgs e)
   at System.Web.UI.Control.LoadRecursive()
   at System.Web.UI.Page.ProcessRequestMain(Boolean includeStagesBeforeAsyncPoint, Boolean includeStagesAfterAsyncPoint)
 
**********************************************************************************************************************************************************************************************************************************************************************************************************************************************************************************************************************************************************************************************************************************************************************************************************************************************************************************************************************************************************************************************************************************************************************************************************************************************************************************************************************************************************************************************************************************************************************************************************************************************************************************************************************************************************************************************************************************************************************************************************************************************************************************************************************************************************************************************************************************************************************************************************************************************************************************************************************************************************************************************************************************************************************************************************************************************************************************************************************************************************************************************************************************************************************************************************************************************************************************************************************************************************************************************************************************************************************************************************************************************************************************************************************************************************************************************************************************************************************************************************************************************************************************************************************************************************************************************************************************************************************************************************************************************************************************************************************************************************************************************************************************************************************************************************************************************************************************************************************************************************************************************************************************************************************************************************************************************************************************************************************************************************************************************************************************************************************************************************************************************************************************************************************************************************************************************************************************************************************************************************************************************************************************************

[09:58:40] :: 
Error Message: Index (zero based) must be greater than or equal to zero and less than the size of the argument list.
Stack Trace:    at System.Text.StringBuilder.AppendFormat(IFormatProvider provider, String format, Object[] args)
   at System.String.Format(IFormatProvider provider, String format, Object[] args)
   at System.String.Format(String format, Object arg0, Object arg1)
   at DevExpress.Web.ASPxGridView.ASPxSummaryItem.GenerateDisplayText(String defaultFormat, Object value, GridViewColumn column)
   at DevExpress.Web.ASPxGridView.ASPxSummaryItem.GetGroupRowDisplayText(GridViewColumn column, Object value)
   at DevExpress.Web.ASPxGridView.ASPxGridView.GetGroupRowSummaryTextCore(Int32 visibleIndex, StringBuilder sb)
   at DevExpress.Web.ASPxGridView.ASPxGridView.GetGroupRowSummaryText(Int32 visibleIndex)
   at DevExpress.Web.ASPxGridView.Rendering.ASPxGridViewTextBuilder.GetGroupRowText(GridViewDataColumn column, Int32 visibleIndex)
   at DevExpress.Web.ASPxGridView.Rendering.GridViewTableGroupRow.GetDisplayText()
   at DevExpress.Web.ASPxGridView.Rendering.GridViewTableGroupRow.CreateContentCell()
   at DevExpress.Web.ASPxGridView.Rendering.GridViewTableGroupRow.CreateControlHierarchy()
   at DevExpress.Web.ASPxClasses.Internal.InternalTableRow.CreateChildControls()
   at System.Web.UI.Control.EnsureChildControls()
   at DevExpress.Web.ASPxClasses.Internal.InternalTableRow.DevExpress.Web.ASPxClasses.Internal.IASPxWebControl.EnsureChildControls()
   at DevExpress.Web.ASPxClasses.Internal.RenderUtils.EnsureChildControlsRecursive(Control control, Boolean skipContentContainers)
   at DevExpress.Web.ASPxClasses.Internal.RenderUtils.EnsureChildControlsRecursive(Control control, Boolean skipContentContainers)
   at DevExpress.Web.ASPxClasses.Internal.RenderUtils.EnsureChildControlsRecursive(Control control, Boolean skipContentContainers)
   at DevExpress.Web.ASPxClasses.ASPxWebControlBase.EnsureChildControlsRecursive(Control control, Boolean skipContentContainers)
   at DevExpress.Web.ASPxClasses.ASPxWebControlBase.EnsureChildControlsRecursive(Control control)
   at DevExpress.Web.ASPxClasses.ASPxWebControlBase.CreateChildControls()
   at System.Web.UI.Control.EnsureChildControls()
   at DevExpress.Web.ASPxClasses.ASPxWebControlBase.EnsureChildControls()
   at DevExpress.Web.ASPxClasses.ASPxWebControlBase.DevExpress.Web.ASPxClasses.Internal.IASPxWebControl.EnsureChildControls()
   at DevExpress.Web.ASPxClasses.Internal.RenderUtils.EnsureChildControlsRecursive(Control control, Boolean skipContentContainers)
   at DevExpress.Web.ASPxClasses.Internal.RenderUtils.EnsureChildControlsRecursive(Control control, Boolean skipContentContainers)
   at DevExpress.Web.ASPxClasses.Internal.RenderUtils.EnsureChildControlsRecursive(Control control, Boolean skipContentContainers)
   at DevExpress.Web.ASPxClasses.Internal.RenderUtils.EnsureChildControlsRecursive(Control control, Boolean skipContentContainers)
   at DevExpress.Web.ASPxClasses.Internal.RenderUtils.EnsureChildControlsRecursive(Control control, Boolean skipContentContainers)
   at DevExpress.Web.ASPxClasses.ASPxWebControlBase.EnsureChildControlsRecursive(Control control, Boolean skipContentContainers)
   at DevExpress.Web.ASPxClasses.ASPxWebControlBase.EnsureChildControlsRecursive(Control control)
   at DevExpress.Web.ASPxClasses.ASPxWebControlBase.CreateChildControls()
   at DevExpress.Web.ASPxClasses.ASPxWebControl.CreateChildControls()
   at System.Web.UI.Control.EnsureChildControls()
   at DevExpress.Web.ASPxClasses.ASPxWebControlBase.EnsureChildControls()
   at DevExpress.Web.ASPxClasses.ASPxDataWebControlBase.DataBindInternal()
   at DevExpress.Web.ASPxClasses.ASPxWebControl.DataBind()
   at DevExpress.Web.ASPxGridView.ASPxGridView.DataBind()
   at OrderPlan.ListT1() in e:\Project\TMS\ASP.NET\OrderPlan.aspx.cs:line 674
   at OrderPlan.Page_Load(Object sender, EventArgs e) in e:\Project\TMS\ASP.NET\OrderPlan.aspx.cs:line 47
   at System.Web.Util.CalliHelper.EventArgFunctionCaller(IntPtr fp, Object o, Object t, EventArgs e)
   at System.Web.Util.CalliEventHandlerDelegateProxy.Callback(Object sender, EventArgs e)
   at System.Web.UI.Control.OnLoad(EventArgs e)
   at System.Web.UI.Control.LoadRecursive()
   at System.Web.UI.Page.ProcessRequestMain(Boolean includeStagesBeforeAsyncPoint, Boolean includeStagesAfterAsyncPoint)
 
**********************************************************************************************************************************************************************************************************************************************************************************************************************************************************************************************************************************************************************************************************************************************************************************************************************************************************************************************************************************************************************************************************************************************************************************************************************************************************************************************************************************************************************************************************************************************************************************************************************************************************************************************************************************************************************************************************************************************************************************************************************************************************************************************************************************************************************************************************************************************************************************************************************************************************************************************************************************************************************************************************************************************************************************************************************************************************************************************************************************************************************************************************************************************************************************************************************************************************************************************************************************************************************************************************************************************************************************************************************************************************************************************************************************************************************************************************************************************************************************************************************************************************************************************************************************************************************************************************************************************************************************************************************************************************************************************************************************************************************************************************************************************************************************************************************************************************************************************************************************************************************************************************************************************************************************************************************************************************************************************************************************************************************************************************************************************************************************************************************************************************************************************************************************************************************************************************************************************************************************************************************************************************************************************

[10:26:12] :: 
Error Message: Index (zero based) must be greater than or equal to zero and less than the size of the argument list.
Stack Trace:    at System.Text.StringBuilder.AppendFormat(IFormatProvider provider, String format, Object[] args)
   at System.String.Format(IFormatProvider provider, String format, Object[] args)
   at System.String.Format(String format, Object arg0)
   at DevExpress.Web.ASPxGridView.ASPxSummaryItem.GenerateValueDisplayText(GridViewColumn column, Object value)
   at DevExpress.Web.ASPxGridView.ASPxSummaryItem.GenerateDisplayText(String defaultFormat, Object value, GridViewColumn column)
   at DevExpress.Web.ASPxGridView.ASPxGridView.GetGroupRowSummaryTextCore(Int32 visibleIndex, StringBuilder sb)
   at DevExpress.Web.ASPxGridView.ASPxGridView.GetGroupRowSummaryText(Int32 visibleIndex)
   at DevExpress.Web.ASPxGridView.Rendering.ASPxGridViewTextBuilder.GetGroupRowText(GridViewDataColumn column, Int32 visibleIndex)
   at DevExpress.Web.ASPxGridView.Rendering.GridViewTableGroupRow.GetDisplayText()
   at DevExpress.Web.ASPxGridView.Rendering.GridViewTableGroupRow.CreateContentCell()
   at DevExpress.Web.ASPxGridView.Rendering.GridViewTableGroupRow.CreateControlHierarchy()
   at DevExpress.Web.ASPxClasses.Internal.InternalTableRow.CreateChildControls()
   at System.Web.UI.Control.EnsureChildControls()
   at DevExpress.Web.ASPxClasses.Internal.InternalTableRow.DevExpress.Web.ASPxClasses.Internal.IASPxWebControl.EnsureChildControls()
   at DevExpress.Web.ASPxClasses.Internal.RenderUtils.EnsureChildControlsRecursive(Control control, Boolean skipContentContainers)
   at DevExpress.Web.ASPxClasses.Internal.RenderUtils.EnsureChildControlsRecursive(Control control, Boolean skipContentContainers)
   at DevExpress.Web.ASPxClasses.Internal.RenderUtils.EnsureChildControlsRecursive(Control control, Boolean skipContentContainers)
   at DevExpress.Web.ASPxClasses.ASPxWebControlBase.EnsureChildControlsRecursive(Control control, Boolean skipContentContainers)
   at DevExpress.Web.ASPxClasses.ASPxWebControlBase.EnsureChildControlsRecursive(Control control)
   at DevExpress.Web.ASPxClasses.ASPxWebControlBase.CreateChildControls()
   at System.Web.UI.Control.EnsureChildControls()
   at DevExpress.Web.ASPxClasses.ASPxWebControlBase.EnsureChildControls()
   at DevExpress.Web.ASPxClasses.ASPxWebControlBase.DevExpress.Web.ASPxClasses.Internal.IASPxWebControl.EnsureChildControls()
   at DevExpress.Web.ASPxClasses.Internal.RenderUtils.EnsureChildControlsRecursive(Control control, Boolean skipContentContainers)
   at DevExpress.Web.ASPxClasses.Internal.RenderUtils.EnsureChildControlsRecursive(Control control, Boolean skipContentContainers)
   at DevExpress.Web.ASPxClasses.Internal.RenderUtils.EnsureChildControlsRecursive(Control control, Boolean skipContentContainers)
   at DevExpress.Web.ASPxClasses.Internal.RenderUtils.EnsureChildControlsRecursive(Control control, Boolean skipContentContainers)
   at DevExpress.Web.ASPxClasses.Internal.RenderUtils.EnsureChildControlsRecursive(Control control, Boolean skipContentContainers)
   at DevExpress.Web.ASPxClasses.ASPxWebControlBase.EnsureChildControlsRecursive(Control control, Boolean skipContentContainers)
   at DevExpress.Web.ASPxClasses.ASPxWebControlBase.EnsureChildControlsRecursive(Control control)
   at DevExpress.Web.ASPxClasses.ASPxWebControlBase.CreateChildControls()
   at DevExpress.Web.ASPxClasses.ASPxWebControl.CreateChildControls()
   at System.Web.UI.Control.EnsureChildControls()
   at DevExpress.Web.ASPxClasses.ASPxWebControlBase.EnsureChildControls()
   at DevExpress.Web.ASPxClasses.ASPxDataWebControlBase.DataBindInternal()
   at DevExpress.Web.ASPxClasses.ASPxWebControl.DataBind()
   at DevExpress.Web.ASPxGridView.ASPxGridView.DataBind()
   at OrderPlan.ListT1() in e:\Project\TMS\ASP.NET\OrderPlan.aspx.cs:line 674
   at OrderPlan.Page_Load(Object sender, EventArgs e) in e:\Project\TMS\ASP.NET\OrderPlan.aspx.cs:line 47
   at System.Web.Util.CalliHelper.EventArgFunctionCaller(IntPtr fp, Object o, Object t, EventArgs e)
   at System.Web.Util.CalliEventHandlerDelegateProxy.Callback(Object sender, EventArgs e)
   at System.Web.UI.Control.OnLoad(EventArgs e)
   at System.Web.UI.Control.LoadRecursive()
   at System.Web.UI.Page.ProcessRequestMain(Boolean includeStagesBeforeAsyncPoint, Boolean includeStagesAfterAsyncPoint)
 
***********************************************************************************************************************************************************************************************************************************************************************************************************************************************************************************************************************************************************************************************************************************************************************************************************************************************************************************************************************************************************************************************************************************************************************************************************************************************************************************************************************************************************************************************************************************************************************************************************************************************************************************************************************************************************************************************************************************************************************************************************************************************************************************************************************************************************************************************************************************************************************************************************************************************************************************************************************************************************************************************************************************************************************************************************************************************************************************************************************************************************************************************************************************************************************************************************************************************************************************************************************************************************************************************************************************************************************************************************************************************************************************************************************************************************************************************************************************************************************************************************************************************************************************************************************************************************************************************************************************************************************************************************************************************************************************************************************************************************************************************************************************************************************************************************************************************************************************************************************************************************************************************************************************************************************************************************************************************************************************************************************************************************************************************************************************************************************************************************************************************************************************************************************************************************************************************************************************************************************************************************************************************************************************

[13:16:05] :: 
Error Message: Invalid viewstate. 
	Client IP: 127.0.0.1
	Port: 
	Referer: http://localhost:1641/ASP.NET/OrderPlan.aspx
	Path: /ASP.NET/OrderPlan.aspx
	User-Agent: Mozilla/5.0 (Windows NT 6.1; WOW64) AppleWebKit/537.36 (KHTML, like Gecko) Chrome/37.0.2062.124 Safari/537.36
	ViewState: /wEPDwUKMTQzNDQ2NTAxMQ9kFgJmD2QWCgICDxYCHgRocmVmBQ9hZG1pbl9ob21lLmFzcHhkAgMPFgIeBXRpdGxlBYUCPHRhYmxlID4NCjx0ciA+PHRkIHN0eWxlPSJjb2xvcjojZmZmZmZmIj7guITguLjguJMgc3lzdGVtIGFkbWluPC90ZD48L3RyPg0KICAgICAgICAgICAgICAgICAgICAgICAgICAgICAgIDx0cj48dGQgIHN0eWxlPSJjb2xvcjojZmZmZmZmIj7guKvguJnguYjguKfguKLguIfguLLguJkg4Liq4LmI4Lin4LiZ4Lij4Liw4Lia4Lia4LmB4Lil4Liw4Lib4Lij4Liw4Lih4Lin4Lil4Lic4Lil4LiB4Liy4Lij4LiC4LiZ4Liq4LmI4LiHPC90ZD48L3RyPjwvdGFibGU+ZAIEDxYCHgRUZXh0BdgBPHRhYmxlID48dHIgPjx0ZCA+4LiE4Li44LiTIHN5c3RlbSBhZG1pbjwvdGQ+PC90cj4NCiAgICAgICAgICAgICAgICAgICAgICAgICAgICAgICA8dHI+PHRkID7guKvguJnguYjguKfguKLguIfguLLguJkg4Liq4LmI4Lin4LiZ4Lij4Liw4Lia4Lia4LmB4Lil4Liw4Lib4Lij4Liw4Lih4Lin4Lil4Lic4Lil4LiB4Liy4Lij4LiC4LiZ4Liq4LmI4LiHPC90ZD48L3RyPjwvdGFibGU+ZAIGD2QWAmYPZBY...
Stack Trace: 
 
************************************************************************************************************************************************************************************************************************************************************************************************************************************************************************************************************************************************************************************************************************************************************************************************************************************************************************************************************************************************************************************************************************************************************************************************************************************************************************************************************************************************************************************************************************************

[14:12:22] :: 
Error Message: A field with the name 'FAQ_ID' was not found on the selected data source.
Stack Trace:    at DevExpress.Web.ASPxClasses.Internal.DataUtils.GetFieldValue(Object obj, String fieldName, Boolean isFieldRequired, Boolean designMode, DefaultValueContainer defaultValue, Boolean& fieldFound)
   at DevExpress.Web.ASPxClasses.Internal.DataUtils.GetFieldValue(Object obj, String fieldName, Boolean isFieldRequired, Boolean designMode, Boolean& fieldFound)
   at DevExpress.Web.ASPxEditors.Internal.EditDataHelper.GetDataItemValue(Object dataItem, String actualValueFieldName, String valueFieldName, String textFieldName, Boolean designMode)
   at DevExpress.Web.ASPxEditors.Internal.ListEditBoundDataItemWrapper.GetItemValue(String actualValueFieldName)
   at DevExpress.Web.ASPxEditors.Internal.ListEditDataItemWrapper.get_Value()
   at DevExpress.Web.ASPxEditors.ListEditItemBase.get_Value()
   at DevExpress.Web.ASPxEditors.ListEditItem.get_Value()
   at DevExpress.Web.ASPxEditors.ListEditItemCollectionBase.IndexOfValue(Object value)
   at DevExpress.Web.ASPxEditors.ListEditItemCollectionBase.FindByValueInternal(Object value)
   at DevExpress.Web.ASPxEditors.ListEditItemCollection.FindByValue(Object value)
   at DevExpress.Web.ASPxEditors.Internal.ListEditSingleSelectStrategy.GetSelectedIndex(Boolean convertEmptyStringToNull)
   at DevExpress.Web.ASPxEditors.Internal.ListEditSingleSelectStrategy.GetSelectedItem(Boolean convertEmptyStringToNull)
   at DevExpress.Web.ASPxEditors.Internal.ListEditHelper.GetSelectedItem(Boolean convertEmptyStringToNull)
   at DevExpress.Web.ASPxEditors.ASPxComboBox.get_SelectedItem()
   at DevExpress.Web.ASPxEditors.ASPxComboBox.DataBind()
   at OrderPlan.cboTeminal_ItemsRequestedByFilterConditionSQL(Object source, ListEditItemsRequestedByFilterConditionEventArgs e) in e:\Project\TMS\ASP.NET\OrderPlan.aspx.cs:line 1488
   at DevExpress.Web.ASPxEditors.ASPxComboBox.RaiseItemsRequestedByFilterCondition(ListEditItemsRequestedByFilterConditionEventArgs e)
   at DevExpress.Web.ASPxEditors.Internal.ComboBoxItemRequestEventHelper.RequestItemsPageWithFilter(String filter, Int32 beginIndex, Int32 endIndex)
   at DevExpress.Web.ASPxEditors.ASPxComboBox.LoadFirstItemsPage()
   at DevExpress.Web.ASPxEditors.ASPxComboBox.LoadFirstItemsPageIfRequired()
   at DevExpress.Web.ASPxEditors.ASPxComboBox.EnsurePreRender()
   at DevExpress.Web.ASPxClasses.ASPxWebControlBase.OnPreRender(EventArgs e)
   at DevExpress.Web.ASPxClasses.ASPxWebControl.OnPreRender(EventArgs e)
   at DevExpress.Web.ASPxClasses.ASPxDataWebControlBase.OnPreRender(EventArgs e)
   at System.Web.UI.Control.PreRenderRecursiveInternal()
   at System.Web.UI.Control.PreRenderRecursiveInternal()
   at System.Web.UI.Control.PreRenderRecursiveInternal()
   at System.Web.UI.Control.PreRenderRecursiveInternal()
   at System.Web.UI.Control.PreRenderRecursiveInternal()
   at System.Web.UI.Control.PreRenderRecursiveInternal()
   at System.Web.UI.Control.PreRenderRecursiveInternal()
   at System.Web.UI.Control.PreRenderRecursiveInternal()
   at System.Web.UI.Control.PreRenderRecursiveInternal()
   at System.Web.UI.Control.PreRenderRecursiveInternal()
   at System.Web.UI.Control.PreRenderRecursiveInternal()
   at System.Web.UI.Control.PreRenderRecursiveInternal()
   at System.Web.UI.Control.PreRenderRecursiveInternal()
   at System.Web.UI.Control.PreRenderRecursiveInternal()
   at System.Web.UI.Control.PreRenderRecursiveInternal()
   at System.Web.UI.Control.PreRenderRecursiveInternal()
   at System.Web.UI.Control.PreRenderRecursiveInternal()
   at System.Web.UI.Page.ProcessRequestMain(Boolean includeStagesBeforeAsyncPoint, Boolean includeStagesAfterAsyncPoint)
 
*****************************************************************************************************************************************************************************************************************************************************************************************************************************************************************************************************************************************************************************************************************************************************************************************************************************************************************************************************************************************************************************************************************************************************************************************************************************************************************************************************************************************************************************************************************************************************************************************************************************************************************************************************************************************************************************************************************************************************************************************************************************************************************************************************************************************************************************************************************************************************************************************************************************************************************************************************************************************************************************************************************************************************************************************************************************************************************************************************************************************************************************************************************************************************************************************************************************************************************************************************************************************************************************************************************************************************************************************************************************************************************************************************************************************************************************************************************************************************************************************************************************************************************************************************************************************************************************************************************************************************************************************************************************************************************************************************************************************************************************************************************************************************************************************************************************************************************************************************************************************************************************************************************************************************************************************************

