[15:14:40] :: 
Error Message: Showing a modal dialog box or form when the application is not running in UserInteractive mode is not a valid operation. Specify the ServiceNotification or DefaultDesktopOnly style to display a notification from a service application.
Stack Trace:    at System.Windows.Forms.Form.ShowDialog(IWin32Window owner)
   at DevExpress.XtraEditors.XtraMessageBoxForm.DoShowDialog(IWin32Window owner)
   at DevExpress.XtraEditors.XtraMessageBoxForm.ShowMessageBoxDialog()
   at DevExpress.XtraEditors.XtraMessageBoxForm.ShowMessageBoxDialog(XtraMessageBoxArgs message)
   at DevExpress.XtraEditors.XtraMessageBox.Show(UserLookAndFeel lookAndFeel, IWin32Window owner, String text, String caption, DialogResult[] buttons, Icon icon, Int32 defaultButton, MessageBoxIcon messageBeepSound)
   at DevExpress.XtraEditors.XtraMessageBox.Show(String text, String caption)
   at admin_Complain_add.cboComplainType_SelectedIndexChanged(Object sender, EventArgs e) in c:\Work\PTT\TMS\SourceCode\WEB_TMS\WEB_TMS\admin_Complain_add.aspx.cs:line 1715
   at DevExpress.Web.ASPxEditors.ASPxComboBox.OnSelectedIndexChanged(EventArgs e)
   at DevExpress.Web.ASPxEditors.ASPxComboBox.RaiseValueChanged()
   at DevExpress.Web.ASPxEditors.ASPxEdit.RaisePostDataChangedEvent()
   at DevExpress.Web.ASPxClasses.ASPxWebControl.System.Web.UI.IPostBackDataHandler.RaisePostDataChangedEvent()
   at System.Web.UI.Page.RaiseChangedEvents()
   at System.Web.UI.Page.ProcessRequestMain(Boolean includeStagesBeforeAsyncPoint, Boolean includeStagesAfterAsyncPoint)
 
*********************************************************************************************************************************************************************************************************************************************************************************************************************************************************************************************************************************************************************************************************************************************************************************************************************************************************************************************************************************************************************************************************************************************************************************************************************************************************************************************************************************************************************************************************************************************************************************************************************************************************************************************************************************************************************************************************************************************************************************************************************************************************************************************************************************

