[10:01:46] :: 
Error Message: ORA-03113: end-of-file on communication channel

Stack Trace:    at System.Data.OracleClient.OracleException.Check(OciErrorHandle errorHandle, Int32 rc)
   at System.Data.OracleClient.OracleInternalConnection.OpenOnLocalTransaction(String userName, String password, String serverName, Boolean integratedSecurity, Boolean unicode, Boolean omitOracleConnectionName)
   at System.Data.OracleClient.OracleInternalConnection..ctor(OracleConnectionString connectionOptions)
   at System.Data.OracleClient.OracleConnectionFactory.CreateConnection(DbConnectionOptions options, Object poolGroupProviderInfo, DbConnectionPool pool, DbConnection owningObject)
   at System.Data.ProviderBase.DbConnectionFactory.CreatePooledConnection(DbConnection owningConnection, DbConnectionPool pool, DbConnectionOptions options)
   at System.Data.ProviderBase.DbConnectionPool.CreateObject(DbConnection owningObject)
   at System.Data.ProviderBase.DbConnectionPool.UserCreateRequest(DbConnection owningObject)
   at System.Data.ProviderBase.DbConnectionPool.GetConnection(DbConnection owningObject)
   at System.Data.ProviderBase.DbConnectionFactory.GetConnection(DbConnection owningConnection)
   at System.Data.ProviderBase.DbConnectionClosed.OpenConnection(DbConnection outerConnection, DbConnectionFactory connectionFactory)
   at System.Data.OracleClient.OracleConnection.Open()
   at CommonFunction.Get_Data(String Conn, String _sql) in d:\Project\TMS\ASP.NET\App_Code\CommonFunction.cs:line 121
   at _default.Page_Load(Object sender, EventArgs e) in d:\Project\TMS\ASP.NET\default.aspx.cs:line 37
   at System.Web.Util.CalliEventHandlerDelegateProxy.Callback(Object sender, EventArgs e)
   at System.Web.UI.Control.OnLoad(EventArgs e)
   at System.Web.UI.Control.LoadRecursive()
   at System.Web.UI.Page.ProcessRequestMain(Boolean includeStagesBeforeAsyncPoint, Boolean includeStagesAfterAsyncPoint)
 
***************************************************************************************************************************************************************************************************************************************************************************************************************************************************************************************************************************************************************************************************************************************************************************************************************************************************************************************************************************************************************************************************************************************************************************************************************************************************************************************************************************************************************************************************************************************************************************************************************************************************************************************************************************************************************************************************************************************************************************************************************************************************************************************************************************************************************************************************************************************************************************************************************************************************************************************************************************************************************************************************************

[11:31:46] :: 
Error Message: The ID 'lblsNameShow' is already used by another control.
Stack Trace:    at System.Web.UI.TemplateParser.ProcessException(Exception ex)
   at System.Web.UI.TemplateParser.ParseStringInternal(String text, Encoding fileEncoding)
   at System.Web.UI.TemplateParser.ParseString(String text, VirtualPath virtualPath, Encoding fileEncoding)
 
************************************************************************************************************************************************************************************************************************************************************************************************************************************************************************************

[11:33:06] :: 
Error Message: The ID 'txtName' is already used by another control.
Stack Trace:    at System.Web.UI.TemplateParser.ProcessException(Exception ex)
   at System.Web.UI.TemplateParser.ParseStringInternal(String text, Encoding fileEncoding)
   at System.Web.UI.TemplateParser.ParseString(String text, VirtualPath virtualPath, Encoding fileEncoding)
 
*******************************************************************************************************************************************************************************************************************************************************************************************************************************************************************************

[12:00:51] :: 
Error Message: DataBinding: 'DevExpress.Web.Data.WebDataRow' does not contain a property with the name 'sConsider'.
Stack Trace:    at System.Web.UI.DataBinder.GetPropertyValue(Object container, String propName)
   at System.Web.UI.DataBinder.Eval(Object container, String[] expressionParts)
   at System.Web.UI.DataBinder.Eval(Object container, String expression)
   at System.Web.UI.TemplateControl.Eval(String expression)
   at ASP.vendor_attachfile_aspx.__DataBinding__control88(Object sender, EventArgs e) in d:\Project\TMS\ASP.NET\vendor_attachfile.aspx:line 366
   at System.Web.UI.Control.OnDataBinding(EventArgs e)
   at DevExpress.Web.ASPxClasses.ASPxWebControl.DataBindInternal()
   at DevExpress.Web.ASPxClasses.ASPxWebControl.DataBind()
   at System.Web.UI.Control.DataBindChildren()
   at System.Web.UI.Control.DataBind(Boolean raiseOnDataBinding)
   at System.Web.UI.Control.DataBind()
   at DevExpress.Web.ASPxGridView.GridViewBaseTemplateContainer.DataBind()
   at DevExpress.Web.ASPxClasses.ASPxWebControlBase.DataBindContainers(Control parent, Boolean bindContents, Boolean bindTemplates)
   at DevExpress.Web.ASPxClasses.ASPxWebControlBase.DataBindContainers(Control parent, Boolean bindContents, Boolean bindTemplates)
   at DevExpress.Web.ASPxClasses.ASPxWebControlBase.DataBindContainers(Control parent, Boolean bindContents, Boolean bindTemplates)
   at DevExpress.Web.ASPxClasses.ASPxWebControlBase.DataBindContainers(Control parent, Boolean bindContents, Boolean bindTemplates)
   at DevExpress.Web.ASPxClasses.ASPxWebControlBase.DataBindContainers(Control parent, Boolean bindContents, Boolean bindTemplates)
   at DevExpress.Web.ASPxClasses.ASPxWebControlBase.DataBindContainers(Control parent, Boolean bindContents, Boolean bindTemplates)
   at DevExpress.Web.ASPxClasses.ASPxWebControlBase.DataBindContainers(Control parent, Boolean bindContents, Boolean bindTemplates)
   at DevExpress.Web.ASPxClasses.ASPxWebControlBase.DataBindContainers(Control parent, Boolean bindContents, Boolean bindTemplates)
   at DevExpress.Web.ASPxClasses.ASPxWebControlBase.DataBindContainers(Control parent, Boolean bindContents, Boolean bindTemplates)
   at DevExpress.Web.ASPxClasses.ASPxWebControlBase.DataBindContainers(Control parent, Boolean bindContents, Boolean bindTemplates)
   at DevExpress.Web.ASPxClasses.ASPxDataWebControlBase.DataBindInternal()
   at DevExpress.Web.ASPxClasses.ASPxWebControl.DataBind()
   at DevExpress.Web.ASPxGridView.ASPxGridView.DataBind()
   at vendor_attachfile.ListDoc(String REQUEST_ID, String Getdatasql) in d:\Project\TMS\ASP.NET\vendor_attachfile.aspx.cs:line 563
   at vendor_attachfile.Page_Load(Object sender, EventArgs e) in d:\Project\TMS\ASP.NET\vendor_attachfile.aspx.cs:line 56
   at System.Web.Util.CalliEventHandlerDelegateProxy.Callback(Object sender, EventArgs e)
   at System.Web.UI.Control.OnLoad(EventArgs e)
   at System.Web.UI.Control.LoadRecursive()
   at System.Web.UI.Page.ProcessRequestMain(Boolean includeStagesBeforeAsyncPoint, Boolean includeStagesAfterAsyncPoint)
 
*********************************************************************************************************************************************************************************************************************************************************************************************************************************************************************************************************************************************************************************************************************************************************************************************************************************************************************************************************************************************************************************************************************************************************************************************************************************************************************************************************************************************************************************************************************************************************************************************************************************************************************************************************************************************************************************************************************************************************************************************************************************************************************************************************************************************************************************************************************************************************************************************************************************************************************************************************************************************************************************************************************************************************************************************************************************************************************************************************************************************************************************************************************************************************************************************************************************************************************************************************************************************************************************************************************************************************************************************************************************************************************************************************************************************************************************************************************************************************************************************************************************************************************************************************************************************************************************************************************

[13:01:51] :: 
Error Message: DataBinding: 'DevExpress.Web.Data.WebDataRow' does not contain a property with the name 'sNameShow'.
Stack Trace:    at System.Web.UI.DataBinder.GetPropertyValue(Object container, String propName)
   at System.Web.UI.DataBinder.Eval(Object container, String[] expressionParts)
   at System.Web.UI.DataBinder.Eval(Object container, String expression)
   at System.Web.UI.TemplateControl.Eval(String expression)
   at ASP.vendor_attachfile_aspx.__DataBinding__control94(Object sender, EventArgs e) in d:\Project\TMS\ASP.NET\vendor_attachfile.aspx:line 387
   at System.Web.UI.Control.OnDataBinding(EventArgs e)
   at DevExpress.Web.ASPxClasses.ASPxDataWebControlBase.RaiseDataBinding()
   at DevExpress.Web.ASPxClasses.Internal.DataHelper.PerformSelect()
   at DevExpress.Web.ASPxClasses.Internal.DataContainer.PerformSelect()
   at DevExpress.Web.ASPxClasses.ASPxDataWebControlBase.DataBindCore()
   at DevExpress.Web.ASPxClasses.ASPxDataWebControlBase.DataBindInternal()
   at DevExpress.Web.ASPxClasses.ASPxWebControl.DataBind()
   at System.Web.UI.Control.DataBindChildren()
   at System.Web.UI.Control.DataBind(Boolean raiseOnDataBinding)
   at System.Web.UI.Control.DataBind()
   at DevExpress.Web.ASPxGridView.GridViewBaseTemplateContainer.DataBind()
   at DevExpress.Web.ASPxClasses.ASPxWebControlBase.DataBindContainers(Control parent, Boolean bindContents, Boolean bindTemplates)
   at DevExpress.Web.ASPxClasses.ASPxWebControlBase.DataBindContainers(Control parent, Boolean bindContents, Boolean bindTemplates)
   at DevExpress.Web.ASPxClasses.ASPxWebControlBase.DataBindContainers(Control parent, Boolean bindContents, Boolean bindTemplates)
   at DevExpress.Web.ASPxClasses.ASPxWebControlBase.DataBindContainers(Control parent, Boolean bindContents, Boolean bindTemplates)
   at DevExpress.Web.ASPxClasses.ASPxWebControlBase.DataBindContainers(Control parent, Boolean bindContents, Boolean bindTemplates)
   at DevExpress.Web.ASPxClasses.ASPxWebControlBase.DataBindContainers(Control parent, Boolean bindContents, Boolean bindTemplates)
   at DevExpress.Web.ASPxClasses.ASPxWebControlBase.DataBindContainers(Control parent, Boolean bindContents, Boolean bindTemplates)
   at DevExpress.Web.ASPxClasses.ASPxWebControlBase.DataBindContainers(Control parent, Boolean bindContents, Boolean bindTemplates)
   at DevExpress.Web.ASPxClasses.ASPxWebControlBase.DataBindContainers(Control parent, Boolean bindContents, Boolean bindTemplates)
   at DevExpress.Web.ASPxClasses.ASPxWebControlBase.DataBindContainers(Control parent, Boolean bindContents, Boolean bindTemplates)
   at DevExpress.Web.ASPxClasses.ASPxDataWebControlBase.DataBindInternal()
   at DevExpress.Web.ASPxClasses.ASPxWebControl.DataBind()
   at DevExpress.Web.ASPxGridView.ASPxGridView.DataBind()
   at vendor_attachfile.ListDoc(String REQUEST_ID, String Getdatasql) in d:\Project\TMS\ASP.NET\vendor_attachfile.aspx.cs:line 563
   at vendor_attachfile.Page_Load(Object sender, EventArgs e) in d:\Project\TMS\ASP.NET\vendor_attachfile.aspx.cs:line 56
   at System.Web.Util.CalliEventHandlerDelegateProxy.Callback(Object sender, EventArgs e)
   at System.Web.UI.Control.OnLoad(EventArgs e)
   at System.Web.UI.Control.LoadRecursive()
   at System.Web.UI.Page.ProcessRequestMain(Boolean includeStagesBeforeAsyncPoint, Boolean includeStagesAfterAsyncPoint)
 
********************************************************************************************************************************************************************************************************************************************************************************************************************************************************************************************************************************************************************************************************************************************************************************************************************************************************************************************************************************************************************************************************************************************************************************************************************************************************************************************************************************************************************************************************************************************************************************************************************************************************************************************************************************************************************************************************************************************************************************************************************************************************************************************************************************************************************************************************************************************************************************************************************************************************************************************************************************************************************************************************************************************************************************************************************************************************************************************************************************************************************************************************************************************************************************************************************************************************************************************************************************************************************************************************************************************************************************************************************************************************************************************************************************************************************************************************************************************************************************************************************************************************************************************************************************************************************************************************************************************************************************************************************************************************************************************************************************************************************************************************************************

[13:20:52] :: 
Error Message: DataBinding: 'DevExpress.Web.Data.WebDataRow' does not contain a property with the name 'sNameShow'.
Stack Trace:    at System.Web.UI.DataBinder.GetPropertyValue(Object container, String propName)
   at System.Web.UI.DataBinder.Eval(Object container, String[] expressionParts)
   at System.Web.UI.DataBinder.Eval(Object container, String expression)
   at System.Web.UI.TemplateControl.Eval(String expression)
   at ASP.vendor_attachfile_aspx.__DataBinding__control88(Object sender, EventArgs e) in d:\Project\TMS\ASP.NET\vendor_attachfile.aspx:line 372
   at System.Web.UI.Control.OnDataBinding(EventArgs e)
   at DevExpress.Web.ASPxClasses.ASPxDataWebControlBase.RaiseDataBinding()
   at DevExpress.Web.ASPxClasses.Internal.DataHelper.PerformSelect()
   at DevExpress.Web.ASPxClasses.Internal.DataContainer.PerformSelect()
   at DevExpress.Web.ASPxClasses.ASPxDataWebControlBase.DataBindCore()
   at DevExpress.Web.ASPxClasses.ASPxDataWebControlBase.DataBindInternal()
   at DevExpress.Web.ASPxClasses.ASPxWebControl.DataBind()
   at System.Web.UI.Control.DataBindChildren()
   at System.Web.UI.Control.DataBind(Boolean raiseOnDataBinding)
   at System.Web.UI.Control.DataBind()
   at DevExpress.Web.ASPxGridView.GridViewBaseTemplateContainer.DataBind()
   at DevExpress.Web.ASPxClasses.ASPxWebControlBase.DataBindContainers(Control parent, Boolean bindContents, Boolean bindTemplates)
   at DevExpress.Web.ASPxClasses.ASPxWebControlBase.DataBindContainers(Control parent, Boolean bindContents, Boolean bindTemplates)
   at DevExpress.Web.ASPxClasses.ASPxWebControlBase.DataBindContainers(Control parent, Boolean bindContents, Boolean bindTemplates)
   at DevExpress.Web.ASPxClasses.ASPxWebControlBase.DataBindContainers(Control parent, Boolean bindContents, Boolean bindTemplates)
   at DevExpress.Web.ASPxClasses.ASPxWebControlBase.DataBindContainers(Control parent, Boolean bindContents, Boolean bindTemplates)
   at DevExpress.Web.ASPxClasses.ASPxWebControlBase.DataBindContainers(Control parent, Boolean bindContents, Boolean bindTemplates)
   at DevExpress.Web.ASPxClasses.ASPxWebControlBase.DataBindContainers(Control parent, Boolean bindContents, Boolean bindTemplates)
   at DevExpress.Web.ASPxClasses.ASPxWebControlBase.DataBindContainers(Control parent, Boolean bindContents, Boolean bindTemplates)
   at DevExpress.Web.ASPxClasses.ASPxWebControlBase.DataBindContainers(Control parent, Boolean bindContents, Boolean bindTemplates)
   at DevExpress.Web.ASPxClasses.ASPxWebControlBase.DataBindContainers(Control parent, Boolean bindContents, Boolean bindTemplates)
   at DevExpress.Web.ASPxClasses.ASPxDataWebControlBase.DataBindInternal()
   at DevExpress.Web.ASPxClasses.ASPxWebControl.DataBind()
   at DevExpress.Web.ASPxGridView.ASPxGridView.DataBind()
   at vendor_attachfile.ListDoc(String REQUEST_ID, String Getdatasql) in d:\Project\TMS\ASP.NET\vendor_attachfile.aspx.cs:line 563
   at vendor_attachfile.Page_Load(Object sender, EventArgs e) in d:\Project\TMS\ASP.NET\vendor_attachfile.aspx.cs:line 56
   at System.Web.Util.CalliEventHandlerDelegateProxy.Callback(Object sender, EventArgs e)
   at System.Web.UI.Control.OnLoad(EventArgs e)
   at System.Web.UI.Control.LoadRecursive()
   at System.Web.UI.Page.ProcessRequestMain(Boolean includeStagesBeforeAsyncPoint, Boolean includeStagesAfterAsyncPoint)
 
********************************************************************************************************************************************************************************************************************************************************************************************************************************************************************************************************************************************************************************************************************************************************************************************************************************************************************************************************************************************************************************************************************************************************************************************************************************************************************************************************************************************************************************************************************************************************************************************************************************************************************************************************************************************************************************************************************************************************************************************************************************************************************************************************************************************************************************************************************************************************************************************************************************************************************************************************************************************************************************************************************************************************************************************************************************************************************************************************************************************************************************************************************************************************************************************************************************************************************************************************************************************************************************************************************************************************************************************************************************************************************************************************************************************************************************************************************************************************************************************************************************************************************************************************************************************************************************************************************************************************************************************************************************************************************************************************************************************************************************************************************************

[13:25:18] :: 
Error Message: DataBinding: 'DevExpress.Web.Data.WebDataRow' does not contain a property with the name 'sNameShow'.
Stack Trace:    at System.Web.UI.DataBinder.GetPropertyValue(Object container, String propName)
   at System.Web.UI.DataBinder.Eval(Object container, String[] expressionParts)
   at System.Web.UI.DataBinder.Eval(Object container, String expression)
   at System.Web.UI.TemplateControl.Eval(String expression)
   at ASP.vendor_attachfile_aspx.__DataBinding__control88(Object sender, EventArgs e) in d:\Project\TMS\ASP.NET\vendor_attachfile.aspx:line 372
   at System.Web.UI.Control.OnDataBinding(EventArgs e)
   at DevExpress.Web.ASPxClasses.ASPxDataWebControlBase.RaiseDataBinding()
   at DevExpress.Web.ASPxClasses.Internal.DataHelper.PerformSelect()
   at DevExpress.Web.ASPxClasses.Internal.DataContainer.PerformSelect()
   at DevExpress.Web.ASPxClasses.ASPxDataWebControlBase.DataBindCore()
   at DevExpress.Web.ASPxClasses.ASPxDataWebControlBase.DataBindInternal()
   at DevExpress.Web.ASPxClasses.ASPxWebControl.DataBind()
   at System.Web.UI.Control.DataBindChildren()
   at System.Web.UI.Control.DataBind(Boolean raiseOnDataBinding)
   at System.Web.UI.Control.DataBind()
   at DevExpress.Web.ASPxGridView.GridViewBaseTemplateContainer.DataBind()
   at DevExpress.Web.ASPxClasses.ASPxWebControlBase.DataBindContainers(Control parent, Boolean bindContents, Boolean bindTemplates)
   at DevExpress.Web.ASPxClasses.ASPxWebControlBase.DataBindContainers(Control parent, Boolean bindContents, Boolean bindTemplates)
   at DevExpress.Web.ASPxClasses.ASPxWebControlBase.DataBindContainers(Control parent, Boolean bindContents, Boolean bindTemplates)
   at DevExpress.Web.ASPxClasses.ASPxWebControlBase.DataBindContainers(Control parent, Boolean bindContents, Boolean bindTemplates)
   at DevExpress.Web.ASPxClasses.ASPxWebControlBase.DataBindContainers(Control parent, Boolean bindContents, Boolean bindTemplates)
   at DevExpress.Web.ASPxClasses.ASPxWebControlBase.DataBindContainers(Control parent, Boolean bindContents, Boolean bindTemplates)
   at DevExpress.Web.ASPxClasses.ASPxWebControlBase.DataBindContainers(Control parent, Boolean bindContents, Boolean bindTemplates)
   at DevExpress.Web.ASPxClasses.ASPxWebControlBase.DataBindContainers(Control parent, Boolean bindContents, Boolean bindTemplates)
   at DevExpress.Web.ASPxClasses.ASPxWebControlBase.DataBindContainers(Control parent, Boolean bindContents, Boolean bindTemplates)
   at DevExpress.Web.ASPxClasses.ASPxWebControlBase.DataBindContainers(Control parent, Boolean bindContents, Boolean bindTemplates)
   at DevExpress.Web.ASPxClasses.ASPxDataWebControlBase.DataBindInternal()
   at DevExpress.Web.ASPxClasses.ASPxWebControl.DataBind()
   at DevExpress.Web.ASPxGridView.ASPxGridView.DataBind()
   at vendor_attachfile.ListDoc(String REQUEST_ID, String Getdatasql) in d:\Project\TMS\ASP.NET\vendor_attachfile.aspx.cs:line 563
   at vendor_attachfile.Page_Load(Object sender, EventArgs e) in d:\Project\TMS\ASP.NET\vendor_attachfile.aspx.cs:line 56
   at System.Web.Util.CalliEventHandlerDelegateProxy.Callback(Object sender, EventArgs e)
   at System.Web.UI.Control.OnLoad(EventArgs e)
   at System.Web.UI.Control.LoadRecursive()
   at System.Web.UI.Page.ProcessRequestMain(Boolean includeStagesBeforeAsyncPoint, Boolean includeStagesAfterAsyncPoint)
 
********************************************************************************************************************************************************************************************************************************************************************************************************************************************************************************************************************************************************************************************************************************************************************************************************************************************************************************************************************************************************************************************************************************************************************************************************************************************************************************************************************************************************************************************************************************************************************************************************************************************************************************************************************************************************************************************************************************************************************************************************************************************************************************************************************************************************************************************************************************************************************************************************************************************************************************************************************************************************************************************************************************************************************************************************************************************************************************************************************************************************************************************************************************************************************************************************************************************************************************************************************************************************************************************************************************************************************************************************************************************************************************************************************************************************************************************************************************************************************************************************************************************************************************************************************************************************************************************************************************************************************************************************************************************************************************************************************************************************************************************************************************

[13:26:59] :: 
Error Message: Column 'FILE_NAME' does not belong to table .
Stack Trace:    at System.Data.DataRow.GetDataColumn(String columnName)
   at System.Data.DataRow.get_Item(String columnName)
   at vendor_attachfile.ListDoc(String REQUEST_ID, String Getdatasql) in d:\Project\TMS\ASP.NET\vendor_attachfile.aspx.cs:line 549
   at vendor_attachfile.Page_Load(Object sender, EventArgs e) in d:\Project\TMS\ASP.NET\vendor_attachfile.aspx.cs:line 56
   at System.Web.Util.CalliEventHandlerDelegateProxy.Callback(Object sender, EventArgs e)
   at System.Web.UI.Control.OnLoad(EventArgs e)
   at System.Web.UI.Control.LoadRecursive()
   at System.Web.UI.Page.ProcessRequestMain(Boolean includeStagesBeforeAsyncPoint, Boolean includeStagesAfterAsyncPoint)
 
*************************************************************************************************************************************************************************************************************************************************************************************************************************************************************************************************************************************************************************************************************************************************************************************************************************************************************************************************************************************************************************************************

[13:27:08] :: 
Error Message: Column 'FILE_NAME' does not belong to table .
Stack Trace:    at System.Data.DataRow.GetDataColumn(String columnName)
   at System.Data.DataRow.get_Item(String columnName)
   at vendor_attachfile.ListDoc(String REQUEST_ID, String Getdatasql) in d:\Project\TMS\ASP.NET\vendor_attachfile.aspx.cs:line 549
   at vendor_attachfile.Page_Load(Object sender, EventArgs e) in d:\Project\TMS\ASP.NET\vendor_attachfile.aspx.cs:line 56
   at System.Web.Util.CalliEventHandlerDelegateProxy.Callback(Object sender, EventArgs e)
   at System.Web.UI.Control.OnLoad(EventArgs e)
   at System.Web.UI.Control.LoadRecursive()
   at System.Web.UI.Page.ProcessRequestMain(Boolean includeStagesBeforeAsyncPoint, Boolean includeStagesAfterAsyncPoint)
 
*************************************************************************************************************************************************************************************************************************************************************************************************************************************************************************************************************************************************************************************************************************************************************************************************************************************************************************************************************************************************************************************************

[13:27:10] :: 
Error Message: Column 'FILE_NAME' does not belong to table .
Stack Trace:    at System.Data.DataRow.GetDataColumn(String columnName)
   at System.Data.DataRow.get_Item(String columnName)
   at vendor_attachfile.ListDoc(String REQUEST_ID, String Getdatasql) in d:\Project\TMS\ASP.NET\vendor_attachfile.aspx.cs:line 549
   at vendor_attachfile.Page_Load(Object sender, EventArgs e) in d:\Project\TMS\ASP.NET\vendor_attachfile.aspx.cs:line 56
   at System.Web.Util.CalliEventHandlerDelegateProxy.Callback(Object sender, EventArgs e)
   at System.Web.UI.Control.OnLoad(EventArgs e)
   at System.Web.UI.Control.LoadRecursive()
   at System.Web.UI.Page.ProcessRequestMain(Boolean includeStagesBeforeAsyncPoint, Boolean includeStagesAfterAsyncPoint)
 
*************************************************************************************************************************************************************************************************************************************************************************************************************************************************************************************************************************************************************************************************************************************************************************************************************************************************************************************************************************************************************************************************

[13:27:15] :: 
Error Message: Column 'FILE_NAME' does not belong to table .
Stack Trace:    at System.Data.DataRow.GetDataColumn(String columnName)
   at System.Data.DataRow.get_Item(String columnName)
   at vendor_attachfile.ListDoc(String REQUEST_ID, String Getdatasql) in d:\Project\TMS\ASP.NET\vendor_attachfile.aspx.cs:line 549
   at vendor_attachfile.Page_Load(Object sender, EventArgs e) in d:\Project\TMS\ASP.NET\vendor_attachfile.aspx.cs:line 56
   at System.Web.Util.CalliEventHandlerDelegateProxy.Callback(Object sender, EventArgs e)
   at System.Web.UI.Control.OnLoad(EventArgs e)
   at System.Web.UI.Control.LoadRecursive()
   at System.Web.UI.Page.ProcessRequestMain(Boolean includeStagesBeforeAsyncPoint, Boolean includeStagesAfterAsyncPoint)
 
*************************************************************************************************************************************************************************************************************************************************************************************************************************************************************************************************************************************************************************************************************************************************************************************************************************************************************************************************************************************************************************************************

[13:30:45] :: 
Error Message: Column 'FILE_NAME' does not belong to table .
Stack Trace:    at System.Data.DataRow.GetDataColumn(String columnName)
   at System.Data.DataRow.get_Item(String columnName)
   at vendor_attachfile.ListDoc(String REQUEST_ID, String Getdatasql) in d:\Project\TMS\ASP.NET\vendor_attachfile.aspx.cs:line 549
   at vendor_attachfile.Page_Load(Object sender, EventArgs e) in d:\Project\TMS\ASP.NET\vendor_attachfile.aspx.cs:line 56
   at System.Web.Util.CalliEventHandlerDelegateProxy.Callback(Object sender, EventArgs e)
   at System.Web.UI.Control.OnLoad(EventArgs e)
   at System.Web.UI.Control.LoadRecursive()
   at System.Web.UI.Page.ProcessRequestMain(Boolean includeStagesBeforeAsyncPoint, Boolean includeStagesAfterAsyncPoint)
 
*************************************************************************************************************************************************************************************************************************************************************************************************************************************************************************************************************************************************************************************************************************************************************************************************************************************************************************************************************************************************************************************************

