[07:19:28] :: 
Error Message: Index (zero based) must be greater than or equal to zero and less than the size of the argument list.
Stack Trace:    at System.Text.StringBuilder.AppendFormat(IFormatProvider provider, String format, Object[] args)
   at System.String.Format(IFormatProvider provider, String format, Object[] args)
   at System.String.Format(String format, Object[] args)
   at MP.SetMenu() in c:\Work\PTT\TMS\SourceCode\WEB_TMS\TMS_DEV\WEB_TMS\MP.master.cs:line 456
   at MP.Page_Load(Object sender, EventArgs e) in c:\Work\PTT\TMS\SourceCode\WEB_TMS\TMS_DEV\WEB_TMS\MP.master.cs:line 70
   at System.Web.Util.CalliEventHandlerDelegateProxy.Callback(Object sender, EventArgs e)
   at System.Web.UI.Control.OnLoad(EventArgs e)
   at System.Web.UI.Control.LoadRecursive()
   at System.Web.UI.Control.LoadRecursive()
   at System.Web.UI.Page.ProcessRequestMain(Boolean includeStagesBeforeAsyncPoint, Boolean includeStagesAfterAsyncPoint)
 
***************************************************************************************************************************************************************************************************************************************************************************************************************************************************************************************************************************************************************************************************************************************************************************************************************************************************************************************************************************************************************************************************************************************************************************************************************************************************************************************************

[07:19:30] :: 
Error Message: Index (zero based) must be greater than or equal to zero and less than the size of the argument list.
Stack Trace:    at System.Text.StringBuilder.AppendFormat(IFormatProvider provider, String format, Object[] args)
   at System.String.Format(IFormatProvider provider, String format, Object[] args)
   at System.String.Format(String format, Object[] args)
   at MP.SetMenu() in c:\Work\PTT\TMS\SourceCode\WEB_TMS\TMS_DEV\WEB_TMS\MP.master.cs:line 456
   at MP.Page_Load(Object sender, EventArgs e) in c:\Work\PTT\TMS\SourceCode\WEB_TMS\TMS_DEV\WEB_TMS\MP.master.cs:line 70
   at System.Web.Util.CalliEventHandlerDelegateProxy.Callback(Object sender, EventArgs e)
   at System.Web.UI.Control.OnLoad(EventArgs e)
   at System.Web.UI.Control.LoadRecursive()
   at System.Web.UI.Control.LoadRecursive()
   at System.Web.UI.Page.ProcessRequestMain(Boolean includeStagesBeforeAsyncPoint, Boolean includeStagesAfterAsyncPoint)
 
***************************************************************************************************************************************************************************************************************************************************************************************************************************************************************************************************************************************************************************************************************************************************************************************************************************************************************************************************************************************************************************************************************************************************************************************************************************************************************************************************

[12:14:25] :: 
Error Message: ORA-03113: end-of-file on communication channel
Process ID: 0
Session ID: 846 Serial number: 13355

Stack Trace:    at System.Data.OracleClient.OracleConnection.CheckError(OciErrorHandle errorHandle, Int32 rc)
   at System.Data.OracleClient.OracleDataReader.ReadInternal()
   at System.Data.OracleClient.OracleDataReader.Read()
   at System.Data.Common.DataAdapter.FillLoadDataRow(SchemaMapping mapping)
   at System.Data.Common.DataAdapter.FillFromReader(DataSet dataset, DataTable datatable, String srcTable, DataReaderContainer dataReader, Int32 startRecord, Int32 maxRecords, DataColumn parentChapterColumn, Object parentChapterValue)
   at System.Data.Common.DataAdapter.Fill(DataSet dataSet, String srcTable, IDataReader dataReader, Int32 startRecord, Int32 maxRecords)
   at System.Data.Common.DbDataAdapter.FillInternal(DataSet dataset, DataTable[] datatables, Int32 startRecord, Int32 maxRecords, String srcTable, IDbCommand command, CommandBehavior behavior)
   at System.Data.Common.DbDataAdapter.Fill(DataSet dataSet, Int32 startRecord, Int32 maxRecords, String srcTable, IDbCommand command, CommandBehavior behavior)
   at System.Data.Common.DbDataAdapter.Fill(DataSet dataSet, String srcTable)
   at System.Web.UI.WebControls.SqlDataSourceView.ExecuteSelect(DataSourceSelectArguments arguments)
   at System.Web.UI.DataSourceView.Select(DataSourceSelectArguments arguments, DataSourceViewSelectCallback callback)
   at DevExpress.Web.ASPxClasses.Internal.DataHelper.PerformSelect()
   at DevExpress.Web.ASPxClasses.Internal.DataContainer.PerformSelect()
   at DevExpress.Web.ASPxClasses.ASPxDataWebControlBase.DataBindCore()
   at DevExpress.Web.ASPxClasses.ASPxDataWebControlBase.DataBindInternal()
   at DevExpress.Web.ASPxClasses.ASPxWebControl.DataBind()
   at DevExpress.Web.ASPxEditors.ASPxComboBox.DataBind()
   at System.Web.UI.Control.DataBindChildren()
   at System.Web.UI.Control.DataBind(Boolean raiseOnDataBinding)
   at System.Web.UI.Control.DataBind()
   at DevExpress.Web.ASPxGridView.GridViewBaseTemplateContainer.DataBind()
   at DevExpress.Web.ASPxClasses.ASPxWebControlBase.DataBindContainers(Control parent, Boolean bindContents, Boolean bindTemplates)
   at DevExpress.Web.ASPxClasses.ASPxWebControlBase.DataBindContainers(Control parent, Boolean bindContents, Boolean bindTemplates)
   at DevExpress.Web.ASPxClasses.ASPxWebControlBase.DataBindContainers(Control parent, Boolean bindContents, Boolean bindTemplates)
   at DevExpress.Web.ASPxClasses.ASPxWebControlBase.DataBindContainers(Control parent, Boolean bindContents, Boolean bindTemplates)
   at DevExpress.Web.ASPxClasses.ASPxWebControlBase.DataBindContainers(Control parent, Boolean bindContents, Boolean bindTemplates)
   at DevExpress.Web.ASPxClasses.ASPxWebControlBase.DataBindContainers(Control parent, Boolean bindContents, Boolean bindTemplates)
   at DevExpress.Web.ASPxClasses.ASPxWebControlBase.DataBindContainers(Control parent, Boolean bindContents, Boolean bindTemplates)
   at DevExpress.Web.ASPxClasses.ASPxWebControlBase.DataBindContainers(Control parent, Boolean bindContents, Boolean bindTemplates)
   at DevExpress.Web.ASPxClasses.ASPxWebControlBase.DataBindContainers(Control parent, Boolean bindContents, Boolean bindTemplates)
   at DevExpress.Web.ASPxClasses.ASPxWebControlBase.DataBindContainers(Control parent, Boolean bindContents, Boolean bindTemplates)
   at DevExpress.Web.ASPxClasses.ASPxDataWebControlBase.DataBindInternal()
   at DevExpress.Web.ASPxClasses.ASPxWebControl.DataBind()
   at DevExpress.Web.ASPxGridView.ASPxGridView.DataBind()
   at Truck_Moving.Page_Load(Object sender, EventArgs e) in c:\Work\PTT\TMS\SourceCode\WEB_TMS\TMS_DEV\WEB_TMS\Truck_Moving.aspx.cs:line 34
   at System.Web.Util.CalliEventHandlerDelegateProxy.Callback(Object sender, EventArgs e)
   at System.Web.UI.Control.OnLoad(EventArgs e)
   at System.Web.UI.Control.LoadRecursive()
   at System.Web.UI.Page.ProcessRequestMain(Boolean includeStagesBeforeAsyncPoint, Boolean includeStagesAfterAsyncPoint)
 
***************************************************************************************************************************************************************************************************************************************************************************************************************************************************************************************************************************************************************************************************************************************************************************************************************************************************************************************************************************************************************************************************************************************************************************************************************************************************************************************************************************************************************************************************************************************************************************************************************************************************************************************************************************************************************************************************************************************************************************************************************************************************************************************************************************************************************************************************************************************************************************************************************************************************************************************************************************************************************************************************************************************************************************************************************************************************************************************************************************************************************************************************************************************************************************************************************************************************************************************************************************************************************************************************************************************************************************************************************************************************************************************************************************************************************************************************************************************************************************************************************************************************************************************************************************************************************************************************************************************************************************************************************************************************************************************************************************************************************************************************************************************************************************************************************************************************************************************************************************************************************************************************************************************************************************************************************************************************************************************************************************************************************************************************************************************************************************************************************************************************

[12:14:26] :: 
Error Message: ORA-12547: TNS:lost contact

Stack Trace:    at System.Data.OracleClient.OracleException.Check(OciErrorHandle errorHandle, Int32 rc)
   at System.Data.OracleClient.OracleInternalConnection.OpenOnLocalTransaction(String userName, String password, String serverName, Boolean integratedSecurity, Boolean unicode, Boolean omitOracleConnectionName)
   at System.Data.OracleClient.OracleInternalConnection..ctor(OracleConnectionString connectionOptions)
   at System.Data.OracleClient.OracleConnectionFactory.CreateConnection(DbConnectionOptions options, Object poolGroupProviderInfo, DbConnectionPool pool, DbConnection owningObject)
   at System.Data.ProviderBase.DbConnectionFactory.CreatePooledConnection(DbConnection owningConnection, DbConnectionPool pool, DbConnectionOptions options)
   at System.Data.ProviderBase.DbConnectionPool.CreateObject(DbConnection owningObject)
   at System.Data.ProviderBase.DbConnectionPool.UserCreateRequest(DbConnection owningObject)
   at System.Data.ProviderBase.DbConnectionPool.GetConnection(DbConnection owningObject)
   at System.Data.ProviderBase.DbConnectionFactory.GetConnection(DbConnection owningConnection)
   at System.Data.ProviderBase.DbConnectionClosed.OpenConnection(DbConnection outerConnection, DbConnectionFactory connectionFactory)
   at System.Data.OracleClient.OracleConnection.Open()
   at CommonFunction.Get_Data(String Conn, String _sql) in c:\Work\PTT\TMS\SourceCode\WEB_TMS\TMS_DEV\WEB_TMS\App_Code\CommonFunction.cs:line 121
   at _default.Page_Load(Object sender, EventArgs e) in c:\Work\PTT\TMS\SourceCode\WEB_TMS\TMS_DEV\WEB_TMS\Default.aspx.cs:line 47
   at System.Web.Util.CalliEventHandlerDelegateProxy.Callback(Object sender, EventArgs e)
   at System.Web.UI.Control.OnLoad(EventArgs e)
   at System.Web.UI.Control.LoadRecursive()
   at System.Web.UI.Page.ProcessRequestMain(Boolean includeStagesBeforeAsyncPoint, Boolean includeStagesAfterAsyncPoint)
 
***************************************************************************************************************************************************************************************************************************************************************************************************************************************************************************************************************************************************************************************************************************************************************************************************************************************************************************************************************************************************************************************************************************************************************************************************************************************************************************************************************************************************************************************************************************************************************************************************************************************************************************************************************************************************************************************************************************************************************************************************************************************************************************************************************************************************************************************************************************************************************************************************************************************************************************************************************************************************************************************************************************************************

[12:14:26] :: 
Error Message: ORA-12547: TNS:lost contact

Stack Trace:    at TMS_BLL.Master.VendorBLL.TVendorSapSelect() in C:\Work\PTT\TMS\SourceCode\WEB_TMS\TMS_DEV\TMS_BLL\Master\VendorBLL.cs:line 124
   at contract_info.DrowDownList() in c:\Work\PTT\TMS\SourceCode\WEB_TMS\TMS_DEV\WEB_TMS\contract_info.aspx.cs:line 55
   at contract_info.Page_Load(Object sender, EventArgs e) in c:\Work\PTT\TMS\SourceCode\WEB_TMS\TMS_DEV\WEB_TMS\contract_info.aspx.cs:line 45
   at System.Web.Util.CalliEventHandlerDelegateProxy.Callback(Object sender, EventArgs e)
   at System.Web.UI.Control.OnLoad(EventArgs e)
   at System.Web.UI.Control.LoadRecursive()
   at System.Web.UI.Page.ProcessRequestMain(Boolean includeStagesBeforeAsyncPoint, Boolean includeStagesAfterAsyncPoint)
 
***********************************************************************************************************************************************************************************************************************************************************************************************************************************************************************************************************************************************************************************************************************************************************************************************************************************************************************************************************************************************************************************************************

