Option Explicit
Dim iSumA, iSumAc As Double
Dim iSumP, iSumPl As Double

Private Sub CmdCal_Click()
Dim iDefault As Integer
Dim iRow As Integer
Dim iCol As Integer

    iDefault = 0

    
        For iCol = 11 To 38
            iSumA = iDefault
            iSumAc = iDefault
            iSumP = iDefault
            iSumPl = iDefault
    
            For iRow = 7 To 678
                If iRow Mod 2 = 1 Then
                   If Cells(iRow, iCol).Value > 1 Then
                   '(Cells(iRow, iCol) / Cells(iRow, 7)) * 100
                    iSumP = (Cells(iRow, iCol) / 100) * (Cells(iRow, 7))
                    iSumPl = iSumPl + iSumP
                    End If
                Else
                    If Cells(iRow, iCol).Value > 1 Then
                   '(Cells(iRow, iCol) / Cells(iRow, 7)) * 100
                    iSumA = (Cells(iRow, iCol) / 100) * (Cells(iRow - 1, 7))
                    iSumAc = iSumAc + iSumA
                    End If
                End If
            Next iRow
            Cells(690, iCol).Value = iSumPl
            Cells(691, iCol).Value = iSumAc
        Next iCol
    
    'Cells(i, 1).Value <>
    
End Sub




Option Explicit
Dim iSumA, iSumAc As Double
Dim iSumP, iSumPl As Double

Private Sub CmdCal_Click()
Dim iDefault As Integer
Dim iRow As Integer
Dim iCol As Integer

    iDefault = 0

    
        For iCol = 11 To 38
            iSumA = iDefault
            iSumAc = iDefault
            iSumP = iDefault
            iSumPl = iDefault
    
            For iRow = 7 To 678
                If iRow Mod 2 = 1 Then
                   If Cells(iRow, iCol).Value > 1 Then
                    iSumP = (Cells(iRow, iCol) / 100) * (Cells(iRow, 7))
                    iSumPl = iSumPl + iSumP
                    End If
                Else
                    If Cells(iRow, iCol).Value > 1 Then
                    iSumA = (Cells(iRow, iCol) / 100) * (Cells(iRow - 1, 7))
                    iSumAc = iSumAc + iSumA
                    End If
                End If
            Next iRow
            Cells(679, iCol).Value = iSumPl
            Cells(681, iCol).Value = iSumAc
        Next iCol
    
    'Cells(i, 1).Value <>
    
End Sub
